Trade_date,Settlement_Date/Trade_Settlement_Date/Settled/Settling,Account_Name,Buy_Flag/Sell_Flag/buy_sell_flag/buy/sell,Status/Trade_Status/status_flag,Client_Mnemonics,quantity/Trade_quantity,Failed/Fail/failing
3/19/2000,3/14/2000,NN Institutional Glbl EQ Fnd I,BUY,PENDING,LDDB7518,3900,Y
2/15/2020,3/13/2011,NNIP Advisors B.V.,SELL,SETTLED,LDD41895,400000,N
2/13/2000,3/14/2000,602 HI-High Yield-Fonds,BUY,ALLOCATED,LDDE0874,500000,Y
2/14/2000,3/15/2000,NN (L) Global Sustainable EQT,SELL,UNALLOCATED,ADSA,3900,N
2/15/2000,3/16/2020,NN Global Real Estate Fund,BUY,CANCELLED,LDDF7390,400000,Y
2/16/2000,3/17/2000,RCM ASIA A-ACYM,SELL,UNMATCHED,ADSAI,500000,Y
2/17/2000,3/18/2009,MTBJ (MUTB) 620000004,BUY,MATCHED,F026,3900,N
2/18/2000,3/19/2000,NN(L) Euro Sust Crd excl Financ,SELL,CANCELLED,PACW1,400000,N
1/15/1998,3/14/2007,NN Institutional Glbl EQ Fnd I,BUY,OPEN,LDDI9805,181768,Y
2/13/2008,3/13/2006,NNIP Advisors B.V.,SELL,PENDING,LDDJ2403,217799,N
2/13/2000,3/14/2000,602 HI-High Yield-Fonds,BUY,MATCHED,LDDE0806,443393,Y
2/14/2000,3/15/2003,NN (L) Global Sustainable EQT,SELL,CANCELLED,LDDB7512,502673,N
2/15/2000,3/16/2000,NN Global Real Estate Fund,BUY,UNMATCHED,LDDI3412,529800,Y
2/16/2000,3/17/1998,RCM ASIA A-ACYM,SELL,DK,MUTGLOB,283708,Y
2/17/2000,3/18/2000,MTBJ (MUTB) 620000004,BUY,UNINSTRUCTED,LDDB7527,54998,N
