Sentence,Query
trades for fail status and settling on tomorrow,"FAIL_IND = ""fail status""AND CON_SETL_DT = ""tomorrow"""
fail status trades settling on tomorrow,"FAIL_IND = ""fail status""AND CON_SETL_DT = ""tomorrow"""
trades for fail status and settling on today,"FAIL_IND = ""fail status""AND CON_SETL_DT = ""today"""
fail status trades settling on today,"FAIL_IND = ""fail status""AND CON_SETL_DT = ""today"""
trades for fail status and settling on 15th feb,"FAIL_IND = ""fail status""AND CON_SETL_DT = ""15th feb"""
fail status trades settling on 15th feb,"FAIL_IND = ""fail status""AND CON_SETL_DT = ""15th feb"""
trades for fail status and settling on yesterday,"FAIL_IND = ""fail status""AND CON_SETL_DT = ""yesterday"""
fail status trades settling on yesterday,"FAIL_IND = ""fail status""AND CON_SETL_DT = ""yesterday"""
trades for fail status and settling on december ten,"FAIL_IND = ""fail status""AND CON_SETL_DT = ""december ten"""
fail status trades settling on december ten,"FAIL_IND = ""fail status""AND CON_SETL_DT = ""december ten"""
trades for fail status and settling on tomorrow,"FAIL_IND = ""fail status""AND CON_SETL_DT = ""tomorrow"""
fail status trades settling on tomorrow,"FAIL_IND = ""fail status""AND CON_SETL_DT = ""tomorrow"""
trades for fail status and settling on today,"FAIL_IND = ""fail status""AND CON_SETL_DT = ""today"""
fail status trades settling on today,"FAIL_IND = ""fail status""AND CON_SETL_DT = ""today"""
trades for fail status and settling on tomorrow,"FAIL_IND = ""fail status""AND CON_SETL_DT = ""tomorrow"""
fail status trades settling on tomorrow,"FAIL_IND = ""fail status""AND CON_SETL_DT = ""tomorrow"""
trades for fail status and settling on last week,"FAIL_IND = ""fail status""AND CON_SETL_DT = ""last week"""
fail status trades settling on last week,"FAIL_IND = ""fail status""AND CON_SETL_DT = ""last week"""
trades for fail status and settling on 4th july,"FAIL_IND = ""fail status""AND CON_SETL_DT = ""4th july"""
fail status trades settling on 4th july,"FAIL_IND = ""fail status""AND CON_SETL_DT = ""4th july"""
trades for fail status and settling on last Monday,"FAIL_IND = ""fail status""AND CON_SETL_DT = ""last Monday"""
fail status trades settling on last Monday,"FAIL_IND = ""fail status""AND CON_SETL_DT = ""last Monday"""
trades for fail status and settling on last tuesday,"FAIL_IND = ""fail status""AND CON_SETL_DT = ""last tuesday"""
fail status trades settling on last tuesday,"FAIL_IND = ""fail status""AND CON_SETL_DT = ""last tuesday"""
trades for fail status and settling on 12th Nov,"FAIL_IND = ""fail status""AND CON_SETL_DT = ""12th Nov"""
fail status trades settling on 12th Nov,"FAIL_IND = ""fail status""AND CON_SETL_DT = ""12th Nov"""
trades for fail status and settling on 01/01/2019,"FAIL_IND = ""fail status""AND CON_SETL_DT = ""01/01/2019"""
fail status trades settling on 01/01/2019,"FAIL_IND = ""fail status""AND CON_SETL_DT = ""01/01/2019"""
trades for fail status and settling on day before yesterday,"FAIL_IND = ""fail status""AND CON_SETL_DT = ""day before yesterday"""
fail status trades settling on day before yesterday,"FAIL_IND = ""fail status""AND CON_SETL_DT = ""day before yesterday"""
trades for fail status and settling on last thursday,"FAIL_IND = ""fail status""AND CON_SETL_DT = ""last thursday"""
fail status trades settling on last thursday,"FAIL_IND = ""fail status""AND CON_SETL_DT = ""last thursday"""
trades for fail status and settling on last friday,"FAIL_IND = ""fail status""AND CON_SETL_DT = ""last friday"""
fail status trades settling on last friday,"FAIL_IND = ""fail status""AND CON_SETL_DT = ""last friday"""
trades for fail status and settling on 11th nov,"FAIL_IND = ""fail status""AND CON_SETL_DT = ""11th nov"""
fail status trades settling on 11th nov,"FAIL_IND = ""fail status""AND CON_SETL_DT = ""11th nov"""
trades for fail status and settling on nov 12,"FAIL_IND = ""fail status""AND CON_SETL_DT = ""nov 12"""
fail status trades settling on nov 12,"FAIL_IND = ""fail status""AND CON_SETL_DT = ""nov 12"""
trades for fail status and settling on 19th of aug,"FAIL_IND = ""fail status""AND CON_SETL_DT = ""19th of aug"""
fail status trades settling on 19th of aug,"FAIL_IND = ""fail status""AND CON_SETL_DT = ""19th of aug"""
trades for fail status and settling on last wendsday,"FAIL_IND = ""fail status""AND CON_SETL_DT = ""last wendsday"""
fail status trades settling on last wendsday,"FAIL_IND = ""fail status""AND CON_SETL_DT = ""last wendsday"""
trades for fail status and settling on 16/04,"FAIL_IND = ""fail status""AND CON_SETL_DT = ""16/04"""
fail status trades settling on 16/04,"FAIL_IND = ""fail status""AND CON_SETL_DT = ""16/04"""
trades for fail status and settling on sept 7,"FAIL_IND = ""fail status""AND CON_SETL_DT = ""sept 7"""
fail status trades settling on sept 7,"FAIL_IND = ""fail status""AND CON_SETL_DT = ""sept 7"""
trades for fail status and settling on sunday,"FAIL_IND = ""fail status""AND CON_SETL_DT = ""sunday"""
fail status trades settling on sunday,"FAIL_IND = ""fail status""AND CON_SETL_DT = ""sunday"""
trades for fail status and settling on last sunday,"FAIL_IND = ""fail status""AND CON_SETL_DT = ""last sunday"""
fail status trades settling on last sunday,"FAIL_IND = ""fail status""AND CON_SETL_DT = ""last sunday"""
trades for failed status and settling on tomorrow,"FAIL_IND = ""failed status""AND CON_SETL_DT = ""tomorrow"""
failed status trades settling on tomorrow,"FAIL_IND = ""failed status""AND CON_SETL_DT = ""tomorrow"""
trades for failed status and settling on today,"FAIL_IND = ""failed status""AND CON_SETL_DT = ""today"""
failed status trades settling on today,"FAIL_IND = ""failed status""AND CON_SETL_DT = ""today"""
trades for failed status and settling on 15th feb,"FAIL_IND = ""failed status""AND CON_SETL_DT = ""15th feb"""
failed status trades settling on 15th feb,"FAIL_IND = ""failed status""AND CON_SETL_DT = ""15th feb"""
trades for failed status and settling on yesterday,"FAIL_IND = ""failed status""AND CON_SETL_DT = ""yesterday"""
failed status trades settling on yesterday,"FAIL_IND = ""failed status""AND CON_SETL_DT = ""yesterday"""
trades for failed status and settling on december ten,"FAIL_IND = ""failed status""AND CON_SETL_DT = ""december ten"""
failed status trades settling on december ten,"FAIL_IND = ""failed status""AND CON_SETL_DT = ""december ten"""
trades for failed status and settling on tomorrow,"FAIL_IND = ""failed status""AND CON_SETL_DT = ""tomorrow"""
failed status trades settling on tomorrow,"FAIL_IND = ""failed status""AND CON_SETL_DT = ""tomorrow"""
trades for failed status and settling on today,"FAIL_IND = ""failed status""AND CON_SETL_DT = ""today"""
failed status trades settling on today,"FAIL_IND = ""failed status""AND CON_SETL_DT = ""today"""
trades for failed status and settling on tomorrow,"FAIL_IND = ""failed status""AND CON_SETL_DT = ""tomorrow"""
failed status trades settling on tomorrow,"FAIL_IND = ""failed status""AND CON_SETL_DT = ""tomorrow"""
trades for failed status and settling on last week,"FAIL_IND = ""failed status""AND CON_SETL_DT = ""last week"""
failed status trades settling on last week,"FAIL_IND = ""failed status""AND CON_SETL_DT = ""last week"""
trades for failed status and settling on 4th july,"FAIL_IND = ""failed status""AND CON_SETL_DT = ""4th july"""
failed status trades settling on 4th july,"FAIL_IND = ""failed status""AND CON_SETL_DT = ""4th july"""
trades for failed status and settling on last Monday,"FAIL_IND = ""failed status""AND CON_SETL_DT = ""last Monday"""
failed status trades settling on last Monday,"FAIL_IND = ""failed status""AND CON_SETL_DT = ""last Monday"""
trades for failed status and settling on last tuesday,"FAIL_IND = ""failed status""AND CON_SETL_DT = ""last tuesday"""
failed status trades settling on last tuesday,"FAIL_IND = ""failed status""AND CON_SETL_DT = ""last tuesday"""
trades for failed status and settling on 12th Nov,"FAIL_IND = ""failed status""AND CON_SETL_DT = ""12th Nov"""
failed status trades settling on 12th Nov,"FAIL_IND = ""failed status""AND CON_SETL_DT = ""12th Nov"""
trades for failed status and settling on 01/01/2019,"FAIL_IND = ""failed status""AND CON_SETL_DT = ""01/01/2019"""
failed status trades settling on 01/01/2019,"FAIL_IND = ""failed status""AND CON_SETL_DT = ""01/01/2019"""
trades for failed status and settling on day before yesterday,"FAIL_IND = ""failed status""AND CON_SETL_DT = ""day before yesterday"""
failed status trades settling on day before yesterday,"FAIL_IND = ""failed status""AND CON_SETL_DT = ""day before yesterday"""
trades for failed status and settling on last thursday,"FAIL_IND = ""failed status""AND CON_SETL_DT = ""last thursday"""
failed status trades settling on last thursday,"FAIL_IND = ""failed status""AND CON_SETL_DT = ""last thursday"""
trades for failed status and settling on last friday,"FAIL_IND = ""failed status""AND CON_SETL_DT = ""last friday"""
failed status trades settling on last friday,"FAIL_IND = ""failed status""AND CON_SETL_DT = ""last friday"""
trades for failed status and settling on 11th nov,"FAIL_IND = ""failed status""AND CON_SETL_DT = ""11th nov"""
failed status trades settling on 11th nov,"FAIL_IND = ""failed status""AND CON_SETL_DT = ""11th nov"""
trades for failed status and settling on nov 12,"FAIL_IND = ""failed status""AND CON_SETL_DT = ""nov 12"""
failed status trades settling on nov 12,"FAIL_IND = ""failed status""AND CON_SETL_DT = ""nov 12"""
trades for failed status and settling on 19th of aug,"FAIL_IND = ""failed status""AND CON_SETL_DT = ""19th of aug"""
failed status trades settling on 19th of aug,"FAIL_IND = ""failed status""AND CON_SETL_DT = ""19th of aug"""
trades for failed status and settling on last wendsday,"FAIL_IND = ""failed status""AND CON_SETL_DT = ""last wendsday"""
failed status trades settling on last wendsday,"FAIL_IND = ""failed status""AND CON_SETL_DT = ""last wendsday"""
trades for failed status and settling on 16/04,"FAIL_IND = ""failed status""AND CON_SETL_DT = ""16/04"""
failed status trades settling on 16/04,"FAIL_IND = ""failed status""AND CON_SETL_DT = ""16/04"""
trades for failed status and settling on sept 7,"FAIL_IND = ""failed status""AND CON_SETL_DT = ""sept 7"""
failed status trades settling on sept 7,"FAIL_IND = ""failed status""AND CON_SETL_DT = ""sept 7"""
trades for failed status and settling on sunday,"FAIL_IND = ""failed status""AND CON_SETL_DT = ""sunday"""
failed status trades settling on sunday,"FAIL_IND = ""failed status""AND CON_SETL_DT = ""sunday"""
trades for failed status and settling on last sunday,"FAIL_IND = ""failed status""AND CON_SETL_DT = ""last sunday"""
failed status trades settling on last sunday,"FAIL_IND = ""failed status""AND CON_SETL_DT = ""last sunday"""
trades for failing status and settling on tomorrow,"FAIL_IND = ""failing status""AND CON_SETL_DT = ""tomorrow"""
failing status trades settling on tomorrow,"FAIL_IND = ""failing status""AND CON_SETL_DT = ""tomorrow"""
trades for failing status and settling on today,"FAIL_IND = ""failing status""AND CON_SETL_DT = ""today"""
failing status trades settling on today,"FAIL_IND = ""failing status""AND CON_SETL_DT = ""today"""
trades for failing status and settling on 15th feb,"FAIL_IND = ""failing status""AND CON_SETL_DT = ""15th feb"""
failing status trades settling on 15th feb,"FAIL_IND = ""failing status""AND CON_SETL_DT = ""15th feb"""
trades for failing status and settling on yesterday,"FAIL_IND = ""failing status""AND CON_SETL_DT = ""yesterday"""
failing status trades settling on yesterday,"FAIL_IND = ""failing status""AND CON_SETL_DT = ""yesterday"""
trades for failing status and settling on december ten,"FAIL_IND = ""failing status""AND CON_SETL_DT = ""december ten"""
failing status trades settling on december ten,"FAIL_IND = ""failing status""AND CON_SETL_DT = ""december ten"""
trades for failing status and settling on tomorrow,"FAIL_IND = ""failing status""AND CON_SETL_DT = ""tomorrow"""
failing status trades settling on tomorrow,"FAIL_IND = ""failing status""AND CON_SETL_DT = ""tomorrow"""
trades for failing status and settling on today,"FAIL_IND = ""failing status""AND CON_SETL_DT = ""today"""
failing status trades settling on today,"FAIL_IND = ""failing status""AND CON_SETL_DT = ""today"""
trades for failing status and settling on tomorrow,"FAIL_IND = ""failing status""AND CON_SETL_DT = ""tomorrow"""
failing status trades settling on tomorrow,"FAIL_IND = ""failing status""AND CON_SETL_DT = ""tomorrow"""
trades for failing status and settling on last week,"FAIL_IND = ""failing status""AND CON_SETL_DT = ""last week"""
failing status trades settling on last week,"FAIL_IND = ""failing status""AND CON_SETL_DT = ""last week"""
trades for failing status and settling on 4th july,"FAIL_IND = ""failing status""AND CON_SETL_DT = ""4th july"""
failing status trades settling on 4th july,"FAIL_IND = ""failing status""AND CON_SETL_DT = ""4th july"""
trades for failing status and settling on last Monday,"FAIL_IND = ""failing status""AND CON_SETL_DT = ""last Monday"""
failing status trades settling on last Monday,"FAIL_IND = ""failing status""AND CON_SETL_DT = ""last Monday"""
trades for failing status and settling on last tuesday,"FAIL_IND = ""failing status""AND CON_SETL_DT = ""last tuesday"""
failing status trades settling on last tuesday,"FAIL_IND = ""failing status""AND CON_SETL_DT = ""last tuesday"""
trades for failing status and settling on 12th Nov,"FAIL_IND = ""failing status""AND CON_SETL_DT = ""12th Nov"""
failing status trades settling on 12th Nov,"FAIL_IND = ""failing status""AND CON_SETL_DT = ""12th Nov"""
trades for failing status and settling on 01/01/2019,"FAIL_IND = ""failing status""AND CON_SETL_DT = ""01/01/2019"""
failing status trades settling on 01/01/2019,"FAIL_IND = ""failing status""AND CON_SETL_DT = ""01/01/2019"""
trades for failing status and settling on day before yesterday,"FAIL_IND = ""failing status""AND CON_SETL_DT = ""day before yesterday"""
failing status trades settling on day before yesterday,"FAIL_IND = ""failing status""AND CON_SETL_DT = ""day before yesterday"""
trades for failing status and settling on last thursday,"FAIL_IND = ""failing status""AND CON_SETL_DT = ""last thursday"""
failing status trades settling on last thursday,"FAIL_IND = ""failing status""AND CON_SETL_DT = ""last thursday"""
trades for failing status and settling on last friday,"FAIL_IND = ""failing status""AND CON_SETL_DT = ""last friday"""
failing status trades settling on last friday,"FAIL_IND = ""failing status""AND CON_SETL_DT = ""last friday"""
trades for failing status and settling on 11th nov,"FAIL_IND = ""failing status""AND CON_SETL_DT = ""11th nov"""
failing status trades settling on 11th nov,"FAIL_IND = ""failing status""AND CON_SETL_DT = ""11th nov"""
trades for failing status and settling on nov 12,"FAIL_IND = ""failing status""AND CON_SETL_DT = ""nov 12"""
failing status trades settling on nov 12,"FAIL_IND = ""failing status""AND CON_SETL_DT = ""nov 12"""
trades for failing status and settling on 19th of aug,"FAIL_IND = ""failing status""AND CON_SETL_DT = ""19th of aug"""
failing status trades settling on 19th of aug,"FAIL_IND = ""failing status""AND CON_SETL_DT = ""19th of aug"""
trades for failing status and settling on last wendsday,"FAIL_IND = ""failing status""AND CON_SETL_DT = ""last wendsday"""
failing status trades settling on last wendsday,"FAIL_IND = ""failing status""AND CON_SETL_DT = ""last wendsday"""
trades for failing status and settling on 16/04,"FAIL_IND = ""failing status""AND CON_SETL_DT = ""16/04"""
failing status trades settling on 16/04,"FAIL_IND = ""failing status""AND CON_SETL_DT = ""16/04"""
trades for failing status and settling on sept 7,"FAIL_IND = ""failing status""AND CON_SETL_DT = ""sept 7"""
failing status trades settling on sept 7,"FAIL_IND = ""failing status""AND CON_SETL_DT = ""sept 7"""
trades for failing status and settling on sunday,"FAIL_IND = ""failing status""AND CON_SETL_DT = ""sunday"""
failing status trades settling on sunday,"FAIL_IND = ""failing status""AND CON_SETL_DT = ""sunday"""
trades for failing status and settling on last sunday,"FAIL_IND = ""failing status""AND CON_SETL_DT = ""last sunday"""
failing status trades settling on last sunday,"FAIL_IND = ""failing status""AND CON_SETL_DT = ""last sunday"""
