Sentence,Query
trades for buy with PENDING status,"BUY_SELL = ""buy""AND NRML_STATUS = ""PENDING status"""
PENDING status trades for buy,"BUY_SELL = ""buy""AND NRML_STATUS = ""PENDING status"""
buy trades with PENDING status,"BUY_SELL = ""buy""AND NRML_STATUS = ""PENDING status"""
trades for buy with SETTLED status,"BUY_SELL = ""buy""AND NRML_STATUS = ""SETTLED status"""
SETTLED status trades for buy,"BUY_SELL = ""buy""AND NRML_STATUS = ""SETTLED status"""
buy trades with SETTLED status,"BUY_SELL = ""buy""AND NRML_STATUS = ""SETTLED status"""
trades for buy with MATCHED status,"BUY_SELL = ""buy""AND NRML_STATUS = ""MATCHED status"""
MATCHED status trades for buy,"BUY_SELL = ""buy""AND NRML_STATUS = ""MATCHED status"""
buy trades with MATCHED status,"BUY_SELL = ""buy""AND NRML_STATUS = ""MATCHED status"""
trades for buy with CANCELLED status,"BUY_SELL = ""buy""AND NRML_STATUS = ""CANCELLED status"""
CANCELLED status trades for buy,"BUY_SELL = ""buy""AND NRML_STATUS = ""CANCELLED status"""
buy trades with CANCELLED status,"BUY_SELL = ""buy""AND NRML_STATUS = ""CANCELLED status"""
trades for buy with UNMATCHED status,"BUY_SELL = ""buy""AND NRML_STATUS = ""UNMATCHED status"""
UNMATCHED status trades for buy,"BUY_SELL = ""buy""AND NRML_STATUS = ""UNMATCHED status"""
buy trades with UNMATCHED status,"BUY_SELL = ""buy""AND NRML_STATUS = ""UNMATCHED status"""
trades for buy with OPEN status,"BUY_SELL = ""buy""AND NRML_STATUS = ""OPEN status"""
OPEN status trades for buy,"BUY_SELL = ""buy""AND NRML_STATUS = ""OPEN status"""
buy trades with OPEN status,"BUY_SELL = ""buy""AND NRML_STATUS = ""OPEN status"""
trades for buy with UNINSTRUCTED status,"BUY_SELL = ""buy""AND NRML_STATUS = ""UNINSTRUCTED status"""
UNINSTRUCTED status trades for buy,"BUY_SELL = ""buy""AND NRML_STATUS = ""UNINSTRUCTED status"""
buy trades with UNINSTRUCTED status,"BUY_SELL = ""buy""AND NRML_STATUS = ""UNINSTRUCTED status"""
trades for buy with INSTRUCTED status,"BUY_SELL = ""buy""AND NRML_STATUS = ""INSTRUCTED status"""
INSTRUCTED status trades for buy,"BUY_SELL = ""buy""AND NRML_STATUS = ""INSTRUCTED status"""
buy trades with INSTRUCTED status,"BUY_SELL = ""buy""AND NRML_STATUS = ""INSTRUCTED status"""
trades for sell with PENDING status,"BUY_SELL = ""sell""AND NRML_STATUS = ""PENDING status"""
PENDING status trades for sell,"BUY_SELL = ""sell""AND NRML_STATUS = ""PENDING status"""
sell trades with PENDING status,"BUY_SELL = ""sell""AND NRML_STATUS = ""PENDING status"""
trades for sell with SETTLED status,"BUY_SELL = ""sell""AND NRML_STATUS = ""SETTLED status"""
SETTLED status trades for sell,"BUY_SELL = ""sell""AND NRML_STATUS = ""SETTLED status"""
sell trades with SETTLED status,"BUY_SELL = ""sell""AND NRML_STATUS = ""SETTLED status"""
trades for sell with MATCHED status,"BUY_SELL = ""sell""AND NRML_STATUS = ""MATCHED status"""
MATCHED status trades for sell,"BUY_SELL = ""sell""AND NRML_STATUS = ""MATCHED status"""
sell trades with MATCHED status,"BUY_SELL = ""sell""AND NRML_STATUS = ""MATCHED status"""
trades for sell with CANCELLED status,"BUY_SELL = ""sell""AND NRML_STATUS = ""CANCELLED status"""
CANCELLED status trades for sell,"BUY_SELL = ""sell""AND NRML_STATUS = ""CANCELLED status"""
sell trades with CANCELLED status,"BUY_SELL = ""sell""AND NRML_STATUS = ""CANCELLED status"""
trades for sell with UNMATCHED status,"BUY_SELL = ""sell""AND NRML_STATUS = ""UNMATCHED status"""
UNMATCHED status trades for sell,"BUY_SELL = ""sell""AND NRML_STATUS = ""UNMATCHED status"""
sell trades with UNMATCHED status,"BUY_SELL = ""sell""AND NRML_STATUS = ""UNMATCHED status"""
trades for sell with OPEN status,"BUY_SELL = ""sell""AND NRML_STATUS = ""OPEN status"""
OPEN status trades for sell,"BUY_SELL = ""sell""AND NRML_STATUS = ""OPEN status"""
sell trades with OPEN status,"BUY_SELL = ""sell""AND NRML_STATUS = ""OPEN status"""
trades for sell with UNINSTRUCTED status,"BUY_SELL = ""sell""AND NRML_STATUS = ""UNINSTRUCTED status"""
UNINSTRUCTED status trades for sell,"BUY_SELL = ""sell""AND NRML_STATUS = ""UNINSTRUCTED status"""
sell trades with UNINSTRUCTED status,"BUY_SELL = ""sell""AND NRML_STATUS = ""UNINSTRUCTED status"""
trades for sell with INSTRUCTED status,"BUY_SELL = ""sell""AND NRML_STATUS = ""INSTRUCTED status"""
INSTRUCTED status trades for sell,"BUY_SELL = ""sell""AND NRML_STATUS = ""INSTRUCTED status"""
sell trades with INSTRUCTED status,"BUY_SELL = ""sell""AND NRML_STATUS = ""INSTRUCTED status"""
