Sentence,Query
trades with PENDING status and settling on tomorrow,"CON_SETL_DT = ""tomorrow""AND NRML_STATUS = ""PENDING status"""
trades settling on tomorrow with PENDING status,"CON_SETL_DT = ""tomorrow""AND NRML_STATUS = ""PENDING status"""
trades with SETTLED status and settling on tomorrow,"CON_SETL_DT = ""tomorrow""AND NRML_STATUS = ""SETTLED status"""
trades settling on tomorrow with SETTLED status,"CON_SETL_DT = ""tomorrow""AND NRML_STATUS = ""SETTLED status"""
trades with MATCHED status and settling on tomorrow,"CON_SETL_DT = ""tomorrow""AND NRML_STATUS = ""MATCHED status"""
trades settling on tomorrow with MATCHED status,"CON_SETL_DT = ""tomorrow""AND NRML_STATUS = ""MATCHED status"""
trades with CANCELLED status and settling on tomorrow,"CON_SETL_DT = ""tomorrow""AND NRML_STATUS = ""CANCELLED status"""
trades settling on tomorrow with CANCELLED status,"CON_SETL_DT = ""tomorrow""AND NRML_STATUS = ""CANCELLED status"""
trades with UNMATCHED status and settling on tomorrow,"CON_SETL_DT = ""tomorrow""AND NRML_STATUS = ""UNMATCHED status"""
trades settling on tomorrow with UNMATCHED status,"CON_SETL_DT = ""tomorrow""AND NRML_STATUS = ""UNMATCHED status"""
trades with OPEN status and settling on tomorrow,"CON_SETL_DT = ""tomorrow""AND NRML_STATUS = ""OPEN status"""
trades settling on tomorrow with OPEN status,"CON_SETL_DT = ""tomorrow""AND NRML_STATUS = ""OPEN status"""
trades with UNINSTRUCTED status and settling on tomorrow,"CON_SETL_DT = ""tomorrow""AND NRML_STATUS = ""UNINSTRUCTED status"""
trades settling on tomorrow with UNINSTRUCTED status,"CON_SETL_DT = ""tomorrow""AND NRML_STATUS = ""UNINSTRUCTED status"""
trades with INSTRUCTED status and settling on tomorrow,"CON_SETL_DT = ""tomorrow""AND NRML_STATUS = ""INSTRUCTED status"""
trades settling on tomorrow with INSTRUCTED status,"CON_SETL_DT = ""tomorrow""AND NRML_STATUS = ""INSTRUCTED status"""
trades with PENDING status and settling on today,"CON_SETL_DT = ""today""AND NRML_STATUS = ""PENDING status"""
trades settling on today with PENDING status,"CON_SETL_DT = ""today""AND NRML_STATUS = ""PENDING status"""
trades with SETTLED status and settling on today,"CON_SETL_DT = ""today""AND NRML_STATUS = ""SETTLED status"""
trades settling on today with SETTLED status,"CON_SETL_DT = ""today""AND NRML_STATUS = ""SETTLED status"""
trades with MATCHED status and settling on today,"CON_SETL_DT = ""today""AND NRML_STATUS = ""MATCHED status"""
trades settling on today with MATCHED status,"CON_SETL_DT = ""today""AND NRML_STATUS = ""MATCHED status"""
trades with CANCELLED status and settling on today,"CON_SETL_DT = ""today""AND NRML_STATUS = ""CANCELLED status"""
trades settling on today with CANCELLED status,"CON_SETL_DT = ""today""AND NRML_STATUS = ""CANCELLED status"""
trades with UNMATCHED status and settling on today,"CON_SETL_DT = ""today""AND NRML_STATUS = ""UNMATCHED status"""
trades settling on today with UNMATCHED status,"CON_SETL_DT = ""today""AND NRML_STATUS = ""UNMATCHED status"""
trades with OPEN status and settling on today,"CON_SETL_DT = ""today""AND NRML_STATUS = ""OPEN status"""
trades settling on today with OPEN status,"CON_SETL_DT = ""today""AND NRML_STATUS = ""OPEN status"""
trades with UNINSTRUCTED status and settling on today,"CON_SETL_DT = ""today""AND NRML_STATUS = ""UNINSTRUCTED status"""
trades settling on today with UNINSTRUCTED status,"CON_SETL_DT = ""today""AND NRML_STATUS = ""UNINSTRUCTED status"""
trades with INSTRUCTED status and settling on today,"CON_SETL_DT = ""today""AND NRML_STATUS = ""INSTRUCTED status"""
trades settling on today with INSTRUCTED status,"CON_SETL_DT = ""today""AND NRML_STATUS = ""INSTRUCTED status"""
trades with PENDING status and settling on 15th feb,"CON_SETL_DT = ""15th feb""AND NRML_STATUS = ""PENDING status"""
trades settling on 15th feb with PENDING status,"CON_SETL_DT = ""15th feb""AND NRML_STATUS = ""PENDING status"""
trades with SETTLED status and settling on 15th feb,"CON_SETL_DT = ""15th feb""AND NRML_STATUS = ""SETTLED status"""
trades settling on 15th feb with SETTLED status,"CON_SETL_DT = ""15th feb""AND NRML_STATUS = ""SETTLED status"""
trades with MATCHED status and settling on 15th feb,"CON_SETL_DT = ""15th feb""AND NRML_STATUS = ""MATCHED status"""
trades settling on 15th feb with MATCHED status,"CON_SETL_DT = ""15th feb""AND NRML_STATUS = ""MATCHED status"""
trades with CANCELLED status and settling on 15th feb,"CON_SETL_DT = ""15th feb""AND NRML_STATUS = ""CANCELLED status"""
trades settling on 15th feb with CANCELLED status,"CON_SETL_DT = ""15th feb""AND NRML_STATUS = ""CANCELLED status"""
trades with UNMATCHED status and settling on 15th feb,"CON_SETL_DT = ""15th feb""AND NRML_STATUS = ""UNMATCHED status"""
trades settling on 15th feb with UNMATCHED status,"CON_SETL_DT = ""15th feb""AND NRML_STATUS = ""UNMATCHED status"""
trades with OPEN status and settling on 15th feb,"CON_SETL_DT = ""15th feb""AND NRML_STATUS = ""OPEN status"""
trades settling on 15th feb with OPEN status,"CON_SETL_DT = ""15th feb""AND NRML_STATUS = ""OPEN status"""
trades with UNINSTRUCTED status and settling on 15th feb,"CON_SETL_DT = ""15th feb""AND NRML_STATUS = ""UNINSTRUCTED status"""
trades settling on 15th feb with UNINSTRUCTED status,"CON_SETL_DT = ""15th feb""AND NRML_STATUS = ""UNINSTRUCTED status"""
trades with INSTRUCTED status and settling on 15th feb,"CON_SETL_DT = ""15th feb""AND NRML_STATUS = ""INSTRUCTED status"""
trades settling on 15th feb with INSTRUCTED status,"CON_SETL_DT = ""15th feb""AND NRML_STATUS = ""INSTRUCTED status"""
trades with PENDING status and settling on yesterday,"CON_SETL_DT = ""yesterday""AND NRML_STATUS = ""PENDING status"""
trades settling on yesterday with PENDING status,"CON_SETL_DT = ""yesterday""AND NRML_STATUS = ""PENDING status"""
trades with SETTLED status and settling on yesterday,"CON_SETL_DT = ""yesterday""AND NRML_STATUS = ""SETTLED status"""
trades settling on yesterday with SETTLED status,"CON_SETL_DT = ""yesterday""AND NRML_STATUS = ""SETTLED status"""
trades with MATCHED status and settling on yesterday,"CON_SETL_DT = ""yesterday""AND NRML_STATUS = ""MATCHED status"""
trades settling on yesterday with MATCHED status,"CON_SETL_DT = ""yesterday""AND NRML_STATUS = ""MATCHED status"""
trades with CANCELLED status and settling on yesterday,"CON_SETL_DT = ""yesterday""AND NRML_STATUS = ""CANCELLED status"""
trades settling on yesterday with CANCELLED status,"CON_SETL_DT = ""yesterday""AND NRML_STATUS = ""CANCELLED status"""
trades with UNMATCHED status and settling on yesterday,"CON_SETL_DT = ""yesterday""AND NRML_STATUS = ""UNMATCHED status"""
trades settling on yesterday with UNMATCHED status,"CON_SETL_DT = ""yesterday""AND NRML_STATUS = ""UNMATCHED status"""
trades with OPEN status and settling on yesterday,"CON_SETL_DT = ""yesterday""AND NRML_STATUS = ""OPEN status"""
trades settling on yesterday with OPEN status,"CON_SETL_DT = ""yesterday""AND NRML_STATUS = ""OPEN status"""
trades with UNINSTRUCTED status and settling on yesterday,"CON_SETL_DT = ""yesterday""AND NRML_STATUS = ""UNINSTRUCTED status"""
trades settling on yesterday with UNINSTRUCTED status,"CON_SETL_DT = ""yesterday""AND NRML_STATUS = ""UNINSTRUCTED status"""
trades with INSTRUCTED status and settling on yesterday,"CON_SETL_DT = ""yesterday""AND NRML_STATUS = ""INSTRUCTED status"""
trades settling on yesterday with INSTRUCTED status,"CON_SETL_DT = ""yesterday""AND NRML_STATUS = ""INSTRUCTED status"""
trades with PENDING status and settling on december ten,"CON_SETL_DT = ""december ten""AND NRML_STATUS = ""PENDING status"""
trades settling on december ten with PENDING status,"CON_SETL_DT = ""december ten""AND NRML_STATUS = ""PENDING status"""
trades with SETTLED status and settling on december ten,"CON_SETL_DT = ""december ten""AND NRML_STATUS = ""SETTLED status"""
trades settling on december ten with SETTLED status,"CON_SETL_DT = ""december ten""AND NRML_STATUS = ""SETTLED status"""
trades with MATCHED status and settling on december ten,"CON_SETL_DT = ""december ten""AND NRML_STATUS = ""MATCHED status"""
trades settling on december ten with MATCHED status,"CON_SETL_DT = ""december ten""AND NRML_STATUS = ""MATCHED status"""
trades with CANCELLED status and settling on december ten,"CON_SETL_DT = ""december ten""AND NRML_STATUS = ""CANCELLED status"""
trades settling on december ten with CANCELLED status,"CON_SETL_DT = ""december ten""AND NRML_STATUS = ""CANCELLED status"""
trades with UNMATCHED status and settling on december ten,"CON_SETL_DT = ""december ten""AND NRML_STATUS = ""UNMATCHED status"""
trades settling on december ten with UNMATCHED status,"CON_SETL_DT = ""december ten""AND NRML_STATUS = ""UNMATCHED status"""
trades with OPEN status and settling on december ten,"CON_SETL_DT = ""december ten""AND NRML_STATUS = ""OPEN status"""
trades settling on december ten with OPEN status,"CON_SETL_DT = ""december ten""AND NRML_STATUS = ""OPEN status"""
trades with UNINSTRUCTED status and settling on december ten,"CON_SETL_DT = ""december ten""AND NRML_STATUS = ""UNINSTRUCTED status"""
trades settling on december ten with UNINSTRUCTED status,"CON_SETL_DT = ""december ten""AND NRML_STATUS = ""UNINSTRUCTED status"""
trades with INSTRUCTED status and settling on december ten,"CON_SETL_DT = ""december ten""AND NRML_STATUS = ""INSTRUCTED status"""
trades settling on december ten with INSTRUCTED status,"CON_SETL_DT = ""december ten""AND NRML_STATUS = ""INSTRUCTED status"""
trades with PENDING status and settling on tomorrow,"CON_SETL_DT = ""tomorrow""AND NRML_STATUS = ""PENDING status"""
trades settling on tomorrow with PENDING status,"CON_SETL_DT = ""tomorrow""AND NRML_STATUS = ""PENDING status"""
trades with SETTLED status and settling on tomorrow,"CON_SETL_DT = ""tomorrow""AND NRML_STATUS = ""SETTLED status"""
trades settling on tomorrow with SETTLED status,"CON_SETL_DT = ""tomorrow""AND NRML_STATUS = ""SETTLED status"""
trades with MATCHED status and settling on tomorrow,"CON_SETL_DT = ""tomorrow""AND NRML_STATUS = ""MATCHED status"""
trades settling on tomorrow with MATCHED status,"CON_SETL_DT = ""tomorrow""AND NRML_STATUS = ""MATCHED status"""
trades with CANCELLED status and settling on tomorrow,"CON_SETL_DT = ""tomorrow""AND NRML_STATUS = ""CANCELLED status"""
trades settling on tomorrow with CANCELLED status,"CON_SETL_DT = ""tomorrow""AND NRML_STATUS = ""CANCELLED status"""
trades with UNMATCHED status and settling on tomorrow,"CON_SETL_DT = ""tomorrow""AND NRML_STATUS = ""UNMATCHED status"""
trades settling on tomorrow with UNMATCHED status,"CON_SETL_DT = ""tomorrow""AND NRML_STATUS = ""UNMATCHED status"""
trades with OPEN status and settling on tomorrow,"CON_SETL_DT = ""tomorrow""AND NRML_STATUS = ""OPEN status"""
trades settling on tomorrow with OPEN status,"CON_SETL_DT = ""tomorrow""AND NRML_STATUS = ""OPEN status"""
trades with UNINSTRUCTED status and settling on tomorrow,"CON_SETL_DT = ""tomorrow""AND NRML_STATUS = ""UNINSTRUCTED status"""
trades settling on tomorrow with UNINSTRUCTED status,"CON_SETL_DT = ""tomorrow""AND NRML_STATUS = ""UNINSTRUCTED status"""
trades with INSTRUCTED status and settling on tomorrow,"CON_SETL_DT = ""tomorrow""AND NRML_STATUS = ""INSTRUCTED status"""
trades settling on tomorrow with INSTRUCTED status,"CON_SETL_DT = ""tomorrow""AND NRML_STATUS = ""INSTRUCTED status"""
trades with PENDING status and settling on today,"CON_SETL_DT = ""today""AND NRML_STATUS = ""PENDING status"""
trades settling on today with PENDING status,"CON_SETL_DT = ""today""AND NRML_STATUS = ""PENDING status"""
trades with SETTLED status and settling on today,"CON_SETL_DT = ""today""AND NRML_STATUS = ""SETTLED status"""
trades settling on today with SETTLED status,"CON_SETL_DT = ""today""AND NRML_STATUS = ""SETTLED status"""
trades with MATCHED status and settling on today,"CON_SETL_DT = ""today""AND NRML_STATUS = ""MATCHED status"""
trades settling on today with MATCHED status,"CON_SETL_DT = ""today""AND NRML_STATUS = ""MATCHED status"""
trades with CANCELLED status and settling on today,"CON_SETL_DT = ""today""AND NRML_STATUS = ""CANCELLED status"""
trades settling on today with CANCELLED status,"CON_SETL_DT = ""today""AND NRML_STATUS = ""CANCELLED status"""
trades with UNMATCHED status and settling on today,"CON_SETL_DT = ""today""AND NRML_STATUS = ""UNMATCHED status"""
trades settling on today with UNMATCHED status,"CON_SETL_DT = ""today""AND NRML_STATUS = ""UNMATCHED status"""
trades with OPEN status and settling on today,"CON_SETL_DT = ""today""AND NRML_STATUS = ""OPEN status"""
trades settling on today with OPEN status,"CON_SETL_DT = ""today""AND NRML_STATUS = ""OPEN status"""
trades with UNINSTRUCTED status and settling on today,"CON_SETL_DT = ""today""AND NRML_STATUS = ""UNINSTRUCTED status"""
trades settling on today with UNINSTRUCTED status,"CON_SETL_DT = ""today""AND NRML_STATUS = ""UNINSTRUCTED status"""
trades with INSTRUCTED status and settling on today,"CON_SETL_DT = ""today""AND NRML_STATUS = ""INSTRUCTED status"""
trades settling on today with INSTRUCTED status,"CON_SETL_DT = ""today""AND NRML_STATUS = ""INSTRUCTED status"""
trades with PENDING status and settling on tomorrow,"CON_SETL_DT = ""tomorrow""AND NRML_STATUS = ""PENDING status"""
trades settling on tomorrow with PENDING status,"CON_SETL_DT = ""tomorrow""AND NRML_STATUS = ""PENDING status"""
trades with SETTLED status and settling on tomorrow,"CON_SETL_DT = ""tomorrow""AND NRML_STATUS = ""SETTLED status"""
trades settling on tomorrow with SETTLED status,"CON_SETL_DT = ""tomorrow""AND NRML_STATUS = ""SETTLED status"""
trades with MATCHED status and settling on tomorrow,"CON_SETL_DT = ""tomorrow""AND NRML_STATUS = ""MATCHED status"""
trades settling on tomorrow with MATCHED status,"CON_SETL_DT = ""tomorrow""AND NRML_STATUS = ""MATCHED status"""
trades with CANCELLED status and settling on tomorrow,"CON_SETL_DT = ""tomorrow""AND NRML_STATUS = ""CANCELLED status"""
trades settling on tomorrow with CANCELLED status,"CON_SETL_DT = ""tomorrow""AND NRML_STATUS = ""CANCELLED status"""
trades with UNMATCHED status and settling on tomorrow,"CON_SETL_DT = ""tomorrow""AND NRML_STATUS = ""UNMATCHED status"""
trades settling on tomorrow with UNMATCHED status,"CON_SETL_DT = ""tomorrow""AND NRML_STATUS = ""UNMATCHED status"""
trades with OPEN status and settling on tomorrow,"CON_SETL_DT = ""tomorrow""AND NRML_STATUS = ""OPEN status"""
trades settling on tomorrow with OPEN status,"CON_SETL_DT = ""tomorrow""AND NRML_STATUS = ""OPEN status"""
trades with UNINSTRUCTED status and settling on tomorrow,"CON_SETL_DT = ""tomorrow""AND NRML_STATUS = ""UNINSTRUCTED status"""
trades settling on tomorrow with UNINSTRUCTED status,"CON_SETL_DT = ""tomorrow""AND NRML_STATUS = ""UNINSTRUCTED status"""
trades with INSTRUCTED status and settling on tomorrow,"CON_SETL_DT = ""tomorrow""AND NRML_STATUS = ""INSTRUCTED status"""
trades settling on tomorrow with INSTRUCTED status,"CON_SETL_DT = ""tomorrow""AND NRML_STATUS = ""INSTRUCTED status"""
trades with PENDING status and settling on last week,"CON_SETL_DT = ""last week""AND NRML_STATUS = ""PENDING status"""
trades settling on last week with PENDING status,"CON_SETL_DT = ""last week""AND NRML_STATUS = ""PENDING status"""
trades with SETTLED status and settling on last week,"CON_SETL_DT = ""last week""AND NRML_STATUS = ""SETTLED status"""
trades settling on last week with SETTLED status,"CON_SETL_DT = ""last week""AND NRML_STATUS = ""SETTLED status"""
trades with MATCHED status and settling on last week,"CON_SETL_DT = ""last week""AND NRML_STATUS = ""MATCHED status"""
trades settling on last week with MATCHED status,"CON_SETL_DT = ""last week""AND NRML_STATUS = ""MATCHED status"""
trades with CANCELLED status and settling on last week,"CON_SETL_DT = ""last week""AND NRML_STATUS = ""CANCELLED status"""
trades settling on last week with CANCELLED status,"CON_SETL_DT = ""last week""AND NRML_STATUS = ""CANCELLED status"""
trades with UNMATCHED status and settling on last week,"CON_SETL_DT = ""last week""AND NRML_STATUS = ""UNMATCHED status"""
trades settling on last week with UNMATCHED status,"CON_SETL_DT = ""last week""AND NRML_STATUS = ""UNMATCHED status"""
trades with OPEN status and settling on last week,"CON_SETL_DT = ""last week""AND NRML_STATUS = ""OPEN status"""
trades settling on last week with OPEN status,"CON_SETL_DT = ""last week""AND NRML_STATUS = ""OPEN status"""
trades with UNINSTRUCTED status and settling on last week,"CON_SETL_DT = ""last week""AND NRML_STATUS = ""UNINSTRUCTED status"""
trades settling on last week with UNINSTRUCTED status,"CON_SETL_DT = ""last week""AND NRML_STATUS = ""UNINSTRUCTED status"""
trades with INSTRUCTED status and settling on last week,"CON_SETL_DT = ""last week""AND NRML_STATUS = ""INSTRUCTED status"""
trades settling on last week with INSTRUCTED status,"CON_SETL_DT = ""last week""AND NRML_STATUS = ""INSTRUCTED status"""
trades with PENDING status and settling on 4th july,"CON_SETL_DT = ""4th july""AND NRML_STATUS = ""PENDING status"""
trades settling on 4th july with PENDING status,"CON_SETL_DT = ""4th july""AND NRML_STATUS = ""PENDING status"""
trades with SETTLED status and settling on 4th july,"CON_SETL_DT = ""4th july""AND NRML_STATUS = ""SETTLED status"""
trades settling on 4th july with SETTLED status,"CON_SETL_DT = ""4th july""AND NRML_STATUS = ""SETTLED status"""
trades with MATCHED status and settling on 4th july,"CON_SETL_DT = ""4th july""AND NRML_STATUS = ""MATCHED status"""
trades settling on 4th july with MATCHED status,"CON_SETL_DT = ""4th july""AND NRML_STATUS = ""MATCHED status"""
trades with CANCELLED status and settling on 4th july,"CON_SETL_DT = ""4th july""AND NRML_STATUS = ""CANCELLED status"""
trades settling on 4th july with CANCELLED status,"CON_SETL_DT = ""4th july""AND NRML_STATUS = ""CANCELLED status"""
trades with UNMATCHED status and settling on 4th july,"CON_SETL_DT = ""4th july""AND NRML_STATUS = ""UNMATCHED status"""
trades settling on 4th july with UNMATCHED status,"CON_SETL_DT = ""4th july""AND NRML_STATUS = ""UNMATCHED status"""
trades with OPEN status and settling on 4th july,"CON_SETL_DT = ""4th july""AND NRML_STATUS = ""OPEN status"""
trades settling on 4th july with OPEN status,"CON_SETL_DT = ""4th july""AND NRML_STATUS = ""OPEN status"""
trades with UNINSTRUCTED status and settling on 4th july,"CON_SETL_DT = ""4th july""AND NRML_STATUS = ""UNINSTRUCTED status"""
trades settling on 4th july with UNINSTRUCTED status,"CON_SETL_DT = ""4th july""AND NRML_STATUS = ""UNINSTRUCTED status"""
trades with INSTRUCTED status and settling on 4th july,"CON_SETL_DT = ""4th july""AND NRML_STATUS = ""INSTRUCTED status"""
trades settling on 4th july with INSTRUCTED status,"CON_SETL_DT = ""4th july""AND NRML_STATUS = ""INSTRUCTED status"""
trades with PENDING status and settling on last Monday,"CON_SETL_DT = ""last Monday""AND NRML_STATUS = ""PENDING status"""
trades settling on last Monday with PENDING status,"CON_SETL_DT = ""last Monday""AND NRML_STATUS = ""PENDING status"""
trades with SETTLED status and settling on last Monday,"CON_SETL_DT = ""last Monday""AND NRML_STATUS = ""SETTLED status"""
trades settling on last Monday with SETTLED status,"CON_SETL_DT = ""last Monday""AND NRML_STATUS = ""SETTLED status"""
trades with MATCHED status and settling on last Monday,"CON_SETL_DT = ""last Monday""AND NRML_STATUS = ""MATCHED status"""
trades settling on last Monday with MATCHED status,"CON_SETL_DT = ""last Monday""AND NRML_STATUS = ""MATCHED status"""
trades with CANCELLED status and settling on last Monday,"CON_SETL_DT = ""last Monday""AND NRML_STATUS = ""CANCELLED status"""
trades settling on last Monday with CANCELLED status,"CON_SETL_DT = ""last Monday""AND NRML_STATUS = ""CANCELLED status"""
trades with UNMATCHED status and settling on last Monday,"CON_SETL_DT = ""last Monday""AND NRML_STATUS = ""UNMATCHED status"""
trades settling on last Monday with UNMATCHED status,"CON_SETL_DT = ""last Monday""AND NRML_STATUS = ""UNMATCHED status"""
trades with OPEN status and settling on last Monday,"CON_SETL_DT = ""last Monday""AND NRML_STATUS = ""OPEN status"""
trades settling on last Monday with OPEN status,"CON_SETL_DT = ""last Monday""AND NRML_STATUS = ""OPEN status"""
trades with UNINSTRUCTED status and settling on last Monday,"CON_SETL_DT = ""last Monday""AND NRML_STATUS = ""UNINSTRUCTED status"""
trades settling on last Monday with UNINSTRUCTED status,"CON_SETL_DT = ""last Monday""AND NRML_STATUS = ""UNINSTRUCTED status"""
trades with INSTRUCTED status and settling on last Monday,"CON_SETL_DT = ""last Monday""AND NRML_STATUS = ""INSTRUCTED status"""
trades settling on last Monday with INSTRUCTED status,"CON_SETL_DT = ""last Monday""AND NRML_STATUS = ""INSTRUCTED status"""
trades with PENDING status and settling on last tuesday,"CON_SETL_DT = ""last tuesday""AND NRML_STATUS = ""PENDING status"""
trades settling on last tuesday with PENDING status,"CON_SETL_DT = ""last tuesday""AND NRML_STATUS = ""PENDING status"""
trades with SETTLED status and settling on last tuesday,"CON_SETL_DT = ""last tuesday""AND NRML_STATUS = ""SETTLED status"""
trades settling on last tuesday with SETTLED status,"CON_SETL_DT = ""last tuesday""AND NRML_STATUS = ""SETTLED status"""
trades with MATCHED status and settling on last tuesday,"CON_SETL_DT = ""last tuesday""AND NRML_STATUS = ""MATCHED status"""
trades settling on last tuesday with MATCHED status,"CON_SETL_DT = ""last tuesday""AND NRML_STATUS = ""MATCHED status"""
trades with CANCELLED status and settling on last tuesday,"CON_SETL_DT = ""last tuesday""AND NRML_STATUS = ""CANCELLED status"""
trades settling on last tuesday with CANCELLED status,"CON_SETL_DT = ""last tuesday""AND NRML_STATUS = ""CANCELLED status"""
trades with UNMATCHED status and settling on last tuesday,"CON_SETL_DT = ""last tuesday""AND NRML_STATUS = ""UNMATCHED status"""
trades settling on last tuesday with UNMATCHED status,"CON_SETL_DT = ""last tuesday""AND NRML_STATUS = ""UNMATCHED status"""
trades with OPEN status and settling on last tuesday,"CON_SETL_DT = ""last tuesday""AND NRML_STATUS = ""OPEN status"""
trades settling on last tuesday with OPEN status,"CON_SETL_DT = ""last tuesday""AND NRML_STATUS = ""OPEN status"""
trades with UNINSTRUCTED status and settling on last tuesday,"CON_SETL_DT = ""last tuesday""AND NRML_STATUS = ""UNINSTRUCTED status"""
trades settling on last tuesday with UNINSTRUCTED status,"CON_SETL_DT = ""last tuesday""AND NRML_STATUS = ""UNINSTRUCTED status"""
trades with INSTRUCTED status and settling on last tuesday,"CON_SETL_DT = ""last tuesday""AND NRML_STATUS = ""INSTRUCTED status"""
trades settling on last tuesday with INSTRUCTED status,"CON_SETL_DT = ""last tuesday""AND NRML_STATUS = ""INSTRUCTED status"""
trades with PENDING status and settling on 12th Nov,"CON_SETL_DT = ""12th Nov""AND NRML_STATUS = ""PENDING status"""
trades settling on 12th Nov with PENDING status,"CON_SETL_DT = ""12th Nov""AND NRML_STATUS = ""PENDING status"""
trades with SETTLED status and settling on 12th Nov,"CON_SETL_DT = ""12th Nov""AND NRML_STATUS = ""SETTLED status"""
trades settling on 12th Nov with SETTLED status,"CON_SETL_DT = ""12th Nov""AND NRML_STATUS = ""SETTLED status"""
trades with MATCHED status and settling on 12th Nov,"CON_SETL_DT = ""12th Nov""AND NRML_STATUS = ""MATCHED status"""
trades settling on 12th Nov with MATCHED status,"CON_SETL_DT = ""12th Nov""AND NRML_STATUS = ""MATCHED status"""
trades with CANCELLED status and settling on 12th Nov,"CON_SETL_DT = ""12th Nov""AND NRML_STATUS = ""CANCELLED status"""
trades settling on 12th Nov with CANCELLED status,"CON_SETL_DT = ""12th Nov""AND NRML_STATUS = ""CANCELLED status"""
trades with UNMATCHED status and settling on 12th Nov,"CON_SETL_DT = ""12th Nov""AND NRML_STATUS = ""UNMATCHED status"""
trades settling on 12th Nov with UNMATCHED status,"CON_SETL_DT = ""12th Nov""AND NRML_STATUS = ""UNMATCHED status"""
trades with OPEN status and settling on 12th Nov,"CON_SETL_DT = ""12th Nov""AND NRML_STATUS = ""OPEN status"""
trades settling on 12th Nov with OPEN status,"CON_SETL_DT = ""12th Nov""AND NRML_STATUS = ""OPEN status"""
trades with UNINSTRUCTED status and settling on 12th Nov,"CON_SETL_DT = ""12th Nov""AND NRML_STATUS = ""UNINSTRUCTED status"""
trades settling on 12th Nov with UNINSTRUCTED status,"CON_SETL_DT = ""12th Nov""AND NRML_STATUS = ""UNINSTRUCTED status"""
trades with INSTRUCTED status and settling on 12th Nov,"CON_SETL_DT = ""12th Nov""AND NRML_STATUS = ""INSTRUCTED status"""
trades settling on 12th Nov with INSTRUCTED status,"CON_SETL_DT = ""12th Nov""AND NRML_STATUS = ""INSTRUCTED status"""
trades with PENDING status and settling on 01/01/2019,"CON_SETL_DT = ""01/01/2019""AND NRML_STATUS = ""PENDING status"""
trades settling on 01/01/2019 with PENDING status,"CON_SETL_DT = ""01/01/2019""AND NRML_STATUS = ""PENDING status"""
trades with SETTLED status and settling on 01/01/2019,"CON_SETL_DT = ""01/01/2019""AND NRML_STATUS = ""SETTLED status"""
trades settling on 01/01/2019 with SETTLED status,"CON_SETL_DT = ""01/01/2019""AND NRML_STATUS = ""SETTLED status"""
trades with MATCHED status and settling on 01/01/2019,"CON_SETL_DT = ""01/01/2019""AND NRML_STATUS = ""MATCHED status"""
trades settling on 01/01/2019 with MATCHED status,"CON_SETL_DT = ""01/01/2019""AND NRML_STATUS = ""MATCHED status"""
trades with CANCELLED status and settling on 01/01/2019,"CON_SETL_DT = ""01/01/2019""AND NRML_STATUS = ""CANCELLED status"""
trades settling on 01/01/2019 with CANCELLED status,"CON_SETL_DT = ""01/01/2019""AND NRML_STATUS = ""CANCELLED status"""
trades with UNMATCHED status and settling on 01/01/2019,"CON_SETL_DT = ""01/01/2019""AND NRML_STATUS = ""UNMATCHED status"""
trades settling on 01/01/2019 with UNMATCHED status,"CON_SETL_DT = ""01/01/2019""AND NRML_STATUS = ""UNMATCHED status"""
trades with OPEN status and settling on 01/01/2019,"CON_SETL_DT = ""01/01/2019""AND NRML_STATUS = ""OPEN status"""
trades settling on 01/01/2019 with OPEN status,"CON_SETL_DT = ""01/01/2019""AND NRML_STATUS = ""OPEN status"""
trades with UNINSTRUCTED status and settling on 01/01/2019,"CON_SETL_DT = ""01/01/2019""AND NRML_STATUS = ""UNINSTRUCTED status"""
trades settling on 01/01/2019 with UNINSTRUCTED status,"CON_SETL_DT = ""01/01/2019""AND NRML_STATUS = ""UNINSTRUCTED status"""
trades with INSTRUCTED status and settling on 01/01/2019,"CON_SETL_DT = ""01/01/2019""AND NRML_STATUS = ""INSTRUCTED status"""
trades settling on 01/01/2019 with INSTRUCTED status,"CON_SETL_DT = ""01/01/2019""AND NRML_STATUS = ""INSTRUCTED status"""
trades with PENDING status and settling on day before yesterday,"CON_SETL_DT = ""day before yesterday""AND NRML_STATUS = ""PENDING status"""
trades settling on day before yesterday with PENDING status,"CON_SETL_DT = ""day before yesterday""AND NRML_STATUS = ""PENDING status"""
trades with SETTLED status and settling on day before yesterday,"CON_SETL_DT = ""day before yesterday""AND NRML_STATUS = ""SETTLED status"""
trades settling on day before yesterday with SETTLED status,"CON_SETL_DT = ""day before yesterday""AND NRML_STATUS = ""SETTLED status"""
trades with MATCHED status and settling on day before yesterday,"CON_SETL_DT = ""day before yesterday""AND NRML_STATUS = ""MATCHED status"""
trades settling on day before yesterday with MATCHED status,"CON_SETL_DT = ""day before yesterday""AND NRML_STATUS = ""MATCHED status"""
trades with CANCELLED status and settling on day before yesterday,"CON_SETL_DT = ""day before yesterday""AND NRML_STATUS = ""CANCELLED status"""
trades settling on day before yesterday with CANCELLED status,"CON_SETL_DT = ""day before yesterday""AND NRML_STATUS = ""CANCELLED status"""
trades with UNMATCHED status and settling on day before yesterday,"CON_SETL_DT = ""day before yesterday""AND NRML_STATUS = ""UNMATCHED status"""
trades settling on day before yesterday with UNMATCHED status,"CON_SETL_DT = ""day before yesterday""AND NRML_STATUS = ""UNMATCHED status"""
trades with OPEN status and settling on day before yesterday,"CON_SETL_DT = ""day before yesterday""AND NRML_STATUS = ""OPEN status"""
trades settling on day before yesterday with OPEN status,"CON_SETL_DT = ""day before yesterday""AND NRML_STATUS = ""OPEN status"""
trades with UNINSTRUCTED status and settling on day before yesterday,"CON_SETL_DT = ""day before yesterday""AND NRML_STATUS = ""UNINSTRUCTED status"""
trades settling on day before yesterday with UNINSTRUCTED status,"CON_SETL_DT = ""day before yesterday""AND NRML_STATUS = ""UNINSTRUCTED status"""
trades with INSTRUCTED status and settling on day before yesterday,"CON_SETL_DT = ""day before yesterday""AND NRML_STATUS = ""INSTRUCTED status"""
trades settling on day before yesterday with INSTRUCTED status,"CON_SETL_DT = ""day before yesterday""AND NRML_STATUS = ""INSTRUCTED status"""
trades with PENDING status and settling on last thursday,"CON_SETL_DT = ""last thursday""AND NRML_STATUS = ""PENDING status"""
trades settling on last thursday with PENDING status,"CON_SETL_DT = ""last thursday""AND NRML_STATUS = ""PENDING status"""
trades with SETTLED status and settling on last thursday,"CON_SETL_DT = ""last thursday""AND NRML_STATUS = ""SETTLED status"""
trades settling on last thursday with SETTLED status,"CON_SETL_DT = ""last thursday""AND NRML_STATUS = ""SETTLED status"""
trades with MATCHED status and settling on last thursday,"CON_SETL_DT = ""last thursday""AND NRML_STATUS = ""MATCHED status"""
trades settling on last thursday with MATCHED status,"CON_SETL_DT = ""last thursday""AND NRML_STATUS = ""MATCHED status"""
trades with CANCELLED status and settling on last thursday,"CON_SETL_DT = ""last thursday""AND NRML_STATUS = ""CANCELLED status"""
trades settling on last thursday with CANCELLED status,"CON_SETL_DT = ""last thursday""AND NRML_STATUS = ""CANCELLED status"""
trades with UNMATCHED status and settling on last thursday,"CON_SETL_DT = ""last thursday""AND NRML_STATUS = ""UNMATCHED status"""
trades settling on last thursday with UNMATCHED status,"CON_SETL_DT = ""last thursday""AND NRML_STATUS = ""UNMATCHED status"""
trades with OPEN status and settling on last thursday,"CON_SETL_DT = ""last thursday""AND NRML_STATUS = ""OPEN status"""
trades settling on last thursday with OPEN status,"CON_SETL_DT = ""last thursday""AND NRML_STATUS = ""OPEN status"""
trades with UNINSTRUCTED status and settling on last thursday,"CON_SETL_DT = ""last thursday""AND NRML_STATUS = ""UNINSTRUCTED status"""
trades settling on last thursday with UNINSTRUCTED status,"CON_SETL_DT = ""last thursday""AND NRML_STATUS = ""UNINSTRUCTED status"""
trades with INSTRUCTED status and settling on last thursday,"CON_SETL_DT = ""last thursday""AND NRML_STATUS = ""INSTRUCTED status"""
trades settling on last thursday with INSTRUCTED status,"CON_SETL_DT = ""last thursday""AND NRML_STATUS = ""INSTRUCTED status"""
trades with PENDING status and settling on last friday,"CON_SETL_DT = ""last friday""AND NRML_STATUS = ""PENDING status"""
trades settling on last friday with PENDING status,"CON_SETL_DT = ""last friday""AND NRML_STATUS = ""PENDING status"""
trades with SETTLED status and settling on last friday,"CON_SETL_DT = ""last friday""AND NRML_STATUS = ""SETTLED status"""
trades settling on last friday with SETTLED status,"CON_SETL_DT = ""last friday""AND NRML_STATUS = ""SETTLED status"""
trades with MATCHED status and settling on last friday,"CON_SETL_DT = ""last friday""AND NRML_STATUS = ""MATCHED status"""
trades settling on last friday with MATCHED status,"CON_SETL_DT = ""last friday""AND NRML_STATUS = ""MATCHED status"""
trades with CANCELLED status and settling on last friday,"CON_SETL_DT = ""last friday""AND NRML_STATUS = ""CANCELLED status"""
trades settling on last friday with CANCELLED status,"CON_SETL_DT = ""last friday""AND NRML_STATUS = ""CANCELLED status"""
trades with UNMATCHED status and settling on last friday,"CON_SETL_DT = ""last friday""AND NRML_STATUS = ""UNMATCHED status"""
trades settling on last friday with UNMATCHED status,"CON_SETL_DT = ""last friday""AND NRML_STATUS = ""UNMATCHED status"""
trades with OPEN status and settling on last friday,"CON_SETL_DT = ""last friday""AND NRML_STATUS = ""OPEN status"""
trades settling on last friday with OPEN status,"CON_SETL_DT = ""last friday""AND NRML_STATUS = ""OPEN status"""
trades with UNINSTRUCTED status and settling on last friday,"CON_SETL_DT = ""last friday""AND NRML_STATUS = ""UNINSTRUCTED status"""
trades settling on last friday with UNINSTRUCTED status,"CON_SETL_DT = ""last friday""AND NRML_STATUS = ""UNINSTRUCTED status"""
trades with INSTRUCTED status and settling on last friday,"CON_SETL_DT = ""last friday""AND NRML_STATUS = ""INSTRUCTED status"""
trades settling on last friday with INSTRUCTED status,"CON_SETL_DT = ""last friday""AND NRML_STATUS = ""INSTRUCTED status"""
trades with PENDING status and settling on 11th nov,"CON_SETL_DT = ""11th nov""AND NRML_STATUS = ""PENDING status"""
trades settling on 11th nov with PENDING status,"CON_SETL_DT = ""11th nov""AND NRML_STATUS = ""PENDING status"""
trades with SETTLED status and settling on 11th nov,"CON_SETL_DT = ""11th nov""AND NRML_STATUS = ""SETTLED status"""
trades settling on 11th nov with SETTLED status,"CON_SETL_DT = ""11th nov""AND NRML_STATUS = ""SETTLED status"""
trades with MATCHED status and settling on 11th nov,"CON_SETL_DT = ""11th nov""AND NRML_STATUS = ""MATCHED status"""
trades settling on 11th nov with MATCHED status,"CON_SETL_DT = ""11th nov""AND NRML_STATUS = ""MATCHED status"""
trades with CANCELLED status and settling on 11th nov,"CON_SETL_DT = ""11th nov""AND NRML_STATUS = ""CANCELLED status"""
trades settling on 11th nov with CANCELLED status,"CON_SETL_DT = ""11th nov""AND NRML_STATUS = ""CANCELLED status"""
trades with UNMATCHED status and settling on 11th nov,"CON_SETL_DT = ""11th nov""AND NRML_STATUS = ""UNMATCHED status"""
trades settling on 11th nov with UNMATCHED status,"CON_SETL_DT = ""11th nov""AND NRML_STATUS = ""UNMATCHED status"""
trades with OPEN status and settling on 11th nov,"CON_SETL_DT = ""11th nov""AND NRML_STATUS = ""OPEN status"""
trades settling on 11th nov with OPEN status,"CON_SETL_DT = ""11th nov""AND NRML_STATUS = ""OPEN status"""
trades with UNINSTRUCTED status and settling on 11th nov,"CON_SETL_DT = ""11th nov""AND NRML_STATUS = ""UNINSTRUCTED status"""
trades settling on 11th nov with UNINSTRUCTED status,"CON_SETL_DT = ""11th nov""AND NRML_STATUS = ""UNINSTRUCTED status"""
trades with INSTRUCTED status and settling on 11th nov,"CON_SETL_DT = ""11th nov""AND NRML_STATUS = ""INSTRUCTED status"""
trades settling on 11th nov with INSTRUCTED status,"CON_SETL_DT = ""11th nov""AND NRML_STATUS = ""INSTRUCTED status"""
trades with PENDING status and settling on nov 12,"CON_SETL_DT = ""nov 12""AND NRML_STATUS = ""PENDING status"""
trades settling on nov 12 with PENDING status,"CON_SETL_DT = ""nov 12""AND NRML_STATUS = ""PENDING status"""
trades with SETTLED status and settling on nov 12,"CON_SETL_DT = ""nov 12""AND NRML_STATUS = ""SETTLED status"""
trades settling on nov 12 with SETTLED status,"CON_SETL_DT = ""nov 12""AND NRML_STATUS = ""SETTLED status"""
trades with MATCHED status and settling on nov 12,"CON_SETL_DT = ""nov 12""AND NRML_STATUS = ""MATCHED status"""
trades settling on nov 12 with MATCHED status,"CON_SETL_DT = ""nov 12""AND NRML_STATUS = ""MATCHED status"""
trades with CANCELLED status and settling on nov 12,"CON_SETL_DT = ""nov 12""AND NRML_STATUS = ""CANCELLED status"""
trades settling on nov 12 with CANCELLED status,"CON_SETL_DT = ""nov 12""AND NRML_STATUS = ""CANCELLED status"""
trades with UNMATCHED status and settling on nov 12,"CON_SETL_DT = ""nov 12""AND NRML_STATUS = ""UNMATCHED status"""
trades settling on nov 12 with UNMATCHED status,"CON_SETL_DT = ""nov 12""AND NRML_STATUS = ""UNMATCHED status"""
trades with OPEN status and settling on nov 12,"CON_SETL_DT = ""nov 12""AND NRML_STATUS = ""OPEN status"""
trades settling on nov 12 with OPEN status,"CON_SETL_DT = ""nov 12""AND NRML_STATUS = ""OPEN status"""
trades with UNINSTRUCTED status and settling on nov 12,"CON_SETL_DT = ""nov 12""AND NRML_STATUS = ""UNINSTRUCTED status"""
trades settling on nov 12 with UNINSTRUCTED status,"CON_SETL_DT = ""nov 12""AND NRML_STATUS = ""UNINSTRUCTED status"""
trades with INSTRUCTED status and settling on nov 12,"CON_SETL_DT = ""nov 12""AND NRML_STATUS = ""INSTRUCTED status"""
trades settling on nov 12 with INSTRUCTED status,"CON_SETL_DT = ""nov 12""AND NRML_STATUS = ""INSTRUCTED status"""
trades with PENDING status and settling on 19th of aug,"CON_SETL_DT = ""19th of aug""AND NRML_STATUS = ""PENDING status"""
trades settling on 19th of aug with PENDING status,"CON_SETL_DT = ""19th of aug""AND NRML_STATUS = ""PENDING status"""
trades with SETTLED status and settling on 19th of aug,"CON_SETL_DT = ""19th of aug""AND NRML_STATUS = ""SETTLED status"""
trades settling on 19th of aug with SETTLED status,"CON_SETL_DT = ""19th of aug""AND NRML_STATUS = ""SETTLED status"""
trades with MATCHED status and settling on 19th of aug,"CON_SETL_DT = ""19th of aug""AND NRML_STATUS = ""MATCHED status"""
trades settling on 19th of aug with MATCHED status,"CON_SETL_DT = ""19th of aug""AND NRML_STATUS = ""MATCHED status"""
trades with CANCELLED status and settling on 19th of aug,"CON_SETL_DT = ""19th of aug""AND NRML_STATUS = ""CANCELLED status"""
trades settling on 19th of aug with CANCELLED status,"CON_SETL_DT = ""19th of aug""AND NRML_STATUS = ""CANCELLED status"""
trades with UNMATCHED status and settling on 19th of aug,"CON_SETL_DT = ""19th of aug""AND NRML_STATUS = ""UNMATCHED status"""
trades settling on 19th of aug with UNMATCHED status,"CON_SETL_DT = ""19th of aug""AND NRML_STATUS = ""UNMATCHED status"""
trades with OPEN status and settling on 19th of aug,"CON_SETL_DT = ""19th of aug""AND NRML_STATUS = ""OPEN status"""
trades settling on 19th of aug with OPEN status,"CON_SETL_DT = ""19th of aug""AND NRML_STATUS = ""OPEN status"""
trades with UNINSTRUCTED status and settling on 19th of aug,"CON_SETL_DT = ""19th of aug""AND NRML_STATUS = ""UNINSTRUCTED status"""
trades settling on 19th of aug with UNINSTRUCTED status,"CON_SETL_DT = ""19th of aug""AND NRML_STATUS = ""UNINSTRUCTED status"""
trades with INSTRUCTED status and settling on 19th of aug,"CON_SETL_DT = ""19th of aug""AND NRML_STATUS = ""INSTRUCTED status"""
trades settling on 19th of aug with INSTRUCTED status,"CON_SETL_DT = ""19th of aug""AND NRML_STATUS = ""INSTRUCTED status"""
trades with PENDING status and settling on last wendsday,"CON_SETL_DT = ""last wendsday""AND NRML_STATUS = ""PENDING status"""
trades settling on last wendsday with PENDING status,"CON_SETL_DT = ""last wendsday""AND NRML_STATUS = ""PENDING status"""
trades with SETTLED status and settling on last wendsday,"CON_SETL_DT = ""last wendsday""AND NRML_STATUS = ""SETTLED status"""
trades settling on last wendsday with SETTLED status,"CON_SETL_DT = ""last wendsday""AND NRML_STATUS = ""SETTLED status"""
trades with MATCHED status and settling on last wendsday,"CON_SETL_DT = ""last wendsday""AND NRML_STATUS = ""MATCHED status"""
trades settling on last wendsday with MATCHED status,"CON_SETL_DT = ""last wendsday""AND NRML_STATUS = ""MATCHED status"""
trades with CANCELLED status and settling on last wendsday,"CON_SETL_DT = ""last wendsday""AND NRML_STATUS = ""CANCELLED status"""
trades settling on last wendsday with CANCELLED status,"CON_SETL_DT = ""last wendsday""AND NRML_STATUS = ""CANCELLED status"""
trades with UNMATCHED status and settling on last wendsday,"CON_SETL_DT = ""last wendsday""AND NRML_STATUS = ""UNMATCHED status"""
trades settling on last wendsday with UNMATCHED status,"CON_SETL_DT = ""last wendsday""AND NRML_STATUS = ""UNMATCHED status"""
trades with OPEN status and settling on last wendsday,"CON_SETL_DT = ""last wendsday""AND NRML_STATUS = ""OPEN status"""
trades settling on last wendsday with OPEN status,"CON_SETL_DT = ""last wendsday""AND NRML_STATUS = ""OPEN status"""
trades with UNINSTRUCTED status and settling on last wendsday,"CON_SETL_DT = ""last wendsday""AND NRML_STATUS = ""UNINSTRUCTED status"""
trades settling on last wendsday with UNINSTRUCTED status,"CON_SETL_DT = ""last wendsday""AND NRML_STATUS = ""UNINSTRUCTED status"""
trades with INSTRUCTED status and settling on last wendsday,"CON_SETL_DT = ""last wendsday""AND NRML_STATUS = ""INSTRUCTED status"""
trades settling on last wendsday with INSTRUCTED status,"CON_SETL_DT = ""last wendsday""AND NRML_STATUS = ""INSTRUCTED status"""
trades with PENDING status and settling on 16/04,"CON_SETL_DT = ""16/04""AND NRML_STATUS = ""PENDING status"""
trades settling on 16/04 with PENDING status,"CON_SETL_DT = ""16/04""AND NRML_STATUS = ""PENDING status"""
trades with SETTLED status and settling on 16/04,"CON_SETL_DT = ""16/04""AND NRML_STATUS = ""SETTLED status"""
trades settling on 16/04 with SETTLED status,"CON_SETL_DT = ""16/04""AND NRML_STATUS = ""SETTLED status"""
trades with MATCHED status and settling on 16/04,"CON_SETL_DT = ""16/04""AND NRML_STATUS = ""MATCHED status"""
trades settling on 16/04 with MATCHED status,"CON_SETL_DT = ""16/04""AND NRML_STATUS = ""MATCHED status"""
trades with CANCELLED status and settling on 16/04,"CON_SETL_DT = ""16/04""AND NRML_STATUS = ""CANCELLED status"""
trades settling on 16/04 with CANCELLED status,"CON_SETL_DT = ""16/04""AND NRML_STATUS = ""CANCELLED status"""
trades with UNMATCHED status and settling on 16/04,"CON_SETL_DT = ""16/04""AND NRML_STATUS = ""UNMATCHED status"""
trades settling on 16/04 with UNMATCHED status,"CON_SETL_DT = ""16/04""AND NRML_STATUS = ""UNMATCHED status"""
trades with OPEN status and settling on 16/04,"CON_SETL_DT = ""16/04""AND NRML_STATUS = ""OPEN status"""
trades settling on 16/04 with OPEN status,"CON_SETL_DT = ""16/04""AND NRML_STATUS = ""OPEN status"""
trades with UNINSTRUCTED status and settling on 16/04,"CON_SETL_DT = ""16/04""AND NRML_STATUS = ""UNINSTRUCTED status"""
trades settling on 16/04 with UNINSTRUCTED status,"CON_SETL_DT = ""16/04""AND NRML_STATUS = ""UNINSTRUCTED status"""
trades with INSTRUCTED status and settling on 16/04,"CON_SETL_DT = ""16/04""AND NRML_STATUS = ""INSTRUCTED status"""
trades settling on 16/04 with INSTRUCTED status,"CON_SETL_DT = ""16/04""AND NRML_STATUS = ""INSTRUCTED status"""
trades with PENDING status and settling on sept 7,"CON_SETL_DT = ""sept 7""AND NRML_STATUS = ""PENDING status"""
trades settling on sept 7 with PENDING status,"CON_SETL_DT = ""sept 7""AND NRML_STATUS = ""PENDING status"""
trades with SETTLED status and settling on sept 7,"CON_SETL_DT = ""sept 7""AND NRML_STATUS = ""SETTLED status"""
trades settling on sept 7 with SETTLED status,"CON_SETL_DT = ""sept 7""AND NRML_STATUS = ""SETTLED status"""
trades with MATCHED status and settling on sept 7,"CON_SETL_DT = ""sept 7""AND NRML_STATUS = ""MATCHED status"""
trades settling on sept 7 with MATCHED status,"CON_SETL_DT = ""sept 7""AND NRML_STATUS = ""MATCHED status"""
trades with CANCELLED status and settling on sept 7,"CON_SETL_DT = ""sept 7""AND NRML_STATUS = ""CANCELLED status"""
trades settling on sept 7 with CANCELLED status,"CON_SETL_DT = ""sept 7""AND NRML_STATUS = ""CANCELLED status"""
trades with UNMATCHED status and settling on sept 7,"CON_SETL_DT = ""sept 7""AND NRML_STATUS = ""UNMATCHED status"""
trades settling on sept 7 with UNMATCHED status,"CON_SETL_DT = ""sept 7""AND NRML_STATUS = ""UNMATCHED status"""
trades with OPEN status and settling on sept 7,"CON_SETL_DT = ""sept 7""AND NRML_STATUS = ""OPEN status"""
trades settling on sept 7 with OPEN status,"CON_SETL_DT = ""sept 7""AND NRML_STATUS = ""OPEN status"""
trades with UNINSTRUCTED status and settling on sept 7,"CON_SETL_DT = ""sept 7""AND NRML_STATUS = ""UNINSTRUCTED status"""
trades settling on sept 7 with UNINSTRUCTED status,"CON_SETL_DT = ""sept 7""AND NRML_STATUS = ""UNINSTRUCTED status"""
trades with INSTRUCTED status and settling on sept 7,"CON_SETL_DT = ""sept 7""AND NRML_STATUS = ""INSTRUCTED status"""
trades settling on sept 7 with INSTRUCTED status,"CON_SETL_DT = ""sept 7""AND NRML_STATUS = ""INSTRUCTED status"""
trades with PENDING status and settling on sunday,"CON_SETL_DT = ""sunday""AND NRML_STATUS = ""PENDING status"""
trades settling on sunday with PENDING status,"CON_SETL_DT = ""sunday""AND NRML_STATUS = ""PENDING status"""
trades with SETTLED status and settling on sunday,"CON_SETL_DT = ""sunday""AND NRML_STATUS = ""SETTLED status"""
trades settling on sunday with SETTLED status,"CON_SETL_DT = ""sunday""AND NRML_STATUS = ""SETTLED status"""
trades with MATCHED status and settling on sunday,"CON_SETL_DT = ""sunday""AND NRML_STATUS = ""MATCHED status"""
trades settling on sunday with MATCHED status,"CON_SETL_DT = ""sunday""AND NRML_STATUS = ""MATCHED status"""
trades with CANCELLED status and settling on sunday,"CON_SETL_DT = ""sunday""AND NRML_STATUS = ""CANCELLED status"""
trades settling on sunday with CANCELLED status,"CON_SETL_DT = ""sunday""AND NRML_STATUS = ""CANCELLED status"""
trades with UNMATCHED status and settling on sunday,"CON_SETL_DT = ""sunday""AND NRML_STATUS = ""UNMATCHED status"""
trades settling on sunday with UNMATCHED status,"CON_SETL_DT = ""sunday""AND NRML_STATUS = ""UNMATCHED status"""
trades with OPEN status and settling on sunday,"CON_SETL_DT = ""sunday""AND NRML_STATUS = ""OPEN status"""
trades settling on sunday with OPEN status,"CON_SETL_DT = ""sunday""AND NRML_STATUS = ""OPEN status"""
trades with UNINSTRUCTED status and settling on sunday,"CON_SETL_DT = ""sunday""AND NRML_STATUS = ""UNINSTRUCTED status"""
trades settling on sunday with UNINSTRUCTED status,"CON_SETL_DT = ""sunday""AND NRML_STATUS = ""UNINSTRUCTED status"""
trades with INSTRUCTED status and settling on sunday,"CON_SETL_DT = ""sunday""AND NRML_STATUS = ""INSTRUCTED status"""
trades settling on sunday with INSTRUCTED status,"CON_SETL_DT = ""sunday""AND NRML_STATUS = ""INSTRUCTED status"""
trades with PENDING status and settling on last sunday,"CON_SETL_DT = ""last sunday""AND NRML_STATUS = ""PENDING status"""
trades settling on last sunday with PENDING status,"CON_SETL_DT = ""last sunday""AND NRML_STATUS = ""PENDING status"""
trades with SETTLED status and settling on last sunday,"CON_SETL_DT = ""last sunday""AND NRML_STATUS = ""SETTLED status"""
trades settling on last sunday with SETTLED status,"CON_SETL_DT = ""last sunday""AND NRML_STATUS = ""SETTLED status"""
trades with MATCHED status and settling on last sunday,"CON_SETL_DT = ""last sunday""AND NRML_STATUS = ""MATCHED status"""
trades settling on last sunday with MATCHED status,"CON_SETL_DT = ""last sunday""AND NRML_STATUS = ""MATCHED status"""
trades with CANCELLED status and settling on last sunday,"CON_SETL_DT = ""last sunday""AND NRML_STATUS = ""CANCELLED status"""
trades settling on last sunday with CANCELLED status,"CON_SETL_DT = ""last sunday""AND NRML_STATUS = ""CANCELLED status"""
trades with UNMATCHED status and settling on last sunday,"CON_SETL_DT = ""last sunday""AND NRML_STATUS = ""UNMATCHED status"""
trades settling on last sunday with UNMATCHED status,"CON_SETL_DT = ""last sunday""AND NRML_STATUS = ""UNMATCHED status"""
trades with OPEN status and settling on last sunday,"CON_SETL_DT = ""last sunday""AND NRML_STATUS = ""OPEN status"""
trades settling on last sunday with OPEN status,"CON_SETL_DT = ""last sunday""AND NRML_STATUS = ""OPEN status"""
trades with UNINSTRUCTED status and settling on last sunday,"CON_SETL_DT = ""last sunday""AND NRML_STATUS = ""UNINSTRUCTED status"""
trades settling on last sunday with UNINSTRUCTED status,"CON_SETL_DT = ""last sunday""AND NRML_STATUS = ""UNINSTRUCTED status"""
trades with INSTRUCTED status and settling on last sunday,"CON_SETL_DT = ""last sunday""AND NRML_STATUS = ""INSTRUCTED status"""
trades settling on last sunday with INSTRUCTED status,"CON_SETL_DT = ""last sunday""AND NRML_STATUS = ""INSTRUCTED status"""
