Sentence,Query
trades for 9211JYV09 as cusip with PENDING status,"CUSIP_CODE = ""9211JYV09 as cusip""AND NRML_STATUS = ""PENDING status"""
PENDING status trades for 9211JYV09 as cusip,"CUSIP_CODE = ""9211JYV09 as cusip""AND NRML_STATUS = ""PENDING status"""
9211JYV09 as cusip trades with PENDING status,"CUSIP_CODE = ""9211JYV09 as cusip""AND NRML_STATUS = ""PENDING status"""
trades for 9211JYV09 as cusip with SETTLED status,"CUSIP_CODE = ""9211JYV09 as cusip""AND NRML_STATUS = ""SETTLED status"""
SETTLED status trades for 9211JYV09 as cusip,"CUSIP_CODE = ""9211JYV09 as cusip""AND NRML_STATUS = ""SETTLED status"""
9211JYV09 as cusip trades with SETTLED status,"CUSIP_CODE = ""9211JYV09 as cusip""AND NRML_STATUS = ""SETTLED status"""
trades for 9211JYV09 as cusip with MATCHED status,"CUSIP_CODE = ""9211JYV09 as cusip""AND NRML_STATUS = ""MATCHED status"""
MATCHED status trades for 9211JYV09 as cusip,"CUSIP_CODE = ""9211JYV09 as cusip""AND NRML_STATUS = ""MATCHED status"""
9211JYV09 as cusip trades with MATCHED status,"CUSIP_CODE = ""9211JYV09 as cusip""AND NRML_STATUS = ""MATCHED status"""
trades for 9211JYV09 as cusip with CANCELLED status,"CUSIP_CODE = ""9211JYV09 as cusip""AND NRML_STATUS = ""CANCELLED status"""
CANCELLED status trades for 9211JYV09 as cusip,"CUSIP_CODE = ""9211JYV09 as cusip""AND NRML_STATUS = ""CANCELLED status"""
9211JYV09 as cusip trades with CANCELLED status,"CUSIP_CODE = ""9211JYV09 as cusip""AND NRML_STATUS = ""CANCELLED status"""
trades for 9211JYV09 as cusip with UNMATCHED status,"CUSIP_CODE = ""9211JYV09 as cusip""AND NRML_STATUS = ""UNMATCHED status"""
UNMATCHED status trades for 9211JYV09 as cusip,"CUSIP_CODE = ""9211JYV09 as cusip""AND NRML_STATUS = ""UNMATCHED status"""
9211JYV09 as cusip trades with UNMATCHED status,"CUSIP_CODE = ""9211JYV09 as cusip""AND NRML_STATUS = ""UNMATCHED status"""
trades for 9211JYV09 as cusip with OPEN status,"CUSIP_CODE = ""9211JYV09 as cusip""AND NRML_STATUS = ""OPEN status"""
OPEN status trades for 9211JYV09 as cusip,"CUSIP_CODE = ""9211JYV09 as cusip""AND NRML_STATUS = ""OPEN status"""
9211JYV09 as cusip trades with OPEN status,"CUSIP_CODE = ""9211JYV09 as cusip""AND NRML_STATUS = ""OPEN status"""
trades for 9211JYV09 as cusip with UNINSTRUCTED status,"CUSIP_CODE = ""9211JYV09 as cusip""AND NRML_STATUS = ""UNINSTRUCTED status"""
UNINSTRUCTED status trades for 9211JYV09 as cusip,"CUSIP_CODE = ""9211JYV09 as cusip""AND NRML_STATUS = ""UNINSTRUCTED status"""
9211JYV09 as cusip trades with UNINSTRUCTED status,"CUSIP_CODE = ""9211JYV09 as cusip""AND NRML_STATUS = ""UNINSTRUCTED status"""
trades for 9211JYV09 as cusip with INSTRUCTED status,"CUSIP_CODE = ""9211JYV09 as cusip""AND NRML_STATUS = ""INSTRUCTED status"""
INSTRUCTED status trades for 9211JYV09 as cusip,"CUSIP_CODE = ""9211JYV09 as cusip""AND NRML_STATUS = ""INSTRUCTED status"""
9211JYV09 as cusip trades with INSTRUCTED status,"CUSIP_CODE = ""9211JYV09 as cusip""AND NRML_STATUS = ""INSTRUCTED status"""
trades for 8211GTF97 as cusip with PENDING status,"CUSIP_CODE = ""8211GTF97 as cusip""AND NRML_STATUS = ""PENDING status"""
PENDING status trades for 8211GTF97 as cusip,"CUSIP_CODE = ""8211GTF97 as cusip""AND NRML_STATUS = ""PENDING status"""
8211GTF97 as cusip trades with PENDING status,"CUSIP_CODE = ""8211GTF97 as cusip""AND NRML_STATUS = ""PENDING status"""
trades for 8211GTF97 as cusip with SETTLED status,"CUSIP_CODE = ""8211GTF97 as cusip""AND NRML_STATUS = ""SETTLED status"""
SETTLED status trades for 8211GTF97 as cusip,"CUSIP_CODE = ""8211GTF97 as cusip""AND NRML_STATUS = ""SETTLED status"""
8211GTF97 as cusip trades with SETTLED status,"CUSIP_CODE = ""8211GTF97 as cusip""AND NRML_STATUS = ""SETTLED status"""
trades for 8211GTF97 as cusip with MATCHED status,"CUSIP_CODE = ""8211GTF97 as cusip""AND NRML_STATUS = ""MATCHED status"""
MATCHED status trades for 8211GTF97 as cusip,"CUSIP_CODE = ""8211GTF97 as cusip""AND NRML_STATUS = ""MATCHED status"""
8211GTF97 as cusip trades with MATCHED status,"CUSIP_CODE = ""8211GTF97 as cusip""AND NRML_STATUS = ""MATCHED status"""
trades for 8211GTF97 as cusip with CANCELLED status,"CUSIP_CODE = ""8211GTF97 as cusip""AND NRML_STATUS = ""CANCELLED status"""
CANCELLED status trades for 8211GTF97 as cusip,"CUSIP_CODE = ""8211GTF97 as cusip""AND NRML_STATUS = ""CANCELLED status"""
8211GTF97 as cusip trades with CANCELLED status,"CUSIP_CODE = ""8211GTF97 as cusip""AND NRML_STATUS = ""CANCELLED status"""
trades for 8211GTF97 as cusip with UNMATCHED status,"CUSIP_CODE = ""8211GTF97 as cusip""AND NRML_STATUS = ""UNMATCHED status"""
UNMATCHED status trades for 8211GTF97 as cusip,"CUSIP_CODE = ""8211GTF97 as cusip""AND NRML_STATUS = ""UNMATCHED status"""
8211GTF97 as cusip trades with UNMATCHED status,"CUSIP_CODE = ""8211GTF97 as cusip""AND NRML_STATUS = ""UNMATCHED status"""
trades for 8211GTF97 as cusip with OPEN status,"CUSIP_CODE = ""8211GTF97 as cusip""AND NRML_STATUS = ""OPEN status"""
OPEN status trades for 8211GTF97 as cusip,"CUSIP_CODE = ""8211GTF97 as cusip""AND NRML_STATUS = ""OPEN status"""
8211GTF97 as cusip trades with OPEN status,"CUSIP_CODE = ""8211GTF97 as cusip""AND NRML_STATUS = ""OPEN status"""
trades for 8211GTF97 as cusip with UNINSTRUCTED status,"CUSIP_CODE = ""8211GTF97 as cusip""AND NRML_STATUS = ""UNINSTRUCTED status"""
UNINSTRUCTED status trades for 8211GTF97 as cusip,"CUSIP_CODE = ""8211GTF97 as cusip""AND NRML_STATUS = ""UNINSTRUCTED status"""
8211GTF97 as cusip trades with UNINSTRUCTED status,"CUSIP_CODE = ""8211GTF97 as cusip""AND NRML_STATUS = ""UNINSTRUCTED status"""
trades for 8211GTF97 as cusip with INSTRUCTED status,"CUSIP_CODE = ""8211GTF97 as cusip""AND NRML_STATUS = ""INSTRUCTED status"""
INSTRUCTED status trades for 8211GTF97 as cusip,"CUSIP_CODE = ""8211GTF97 as cusip""AND NRML_STATUS = ""INSTRUCTED status"""
8211GTF97 as cusip trades with INSTRUCTED status,"CUSIP_CODE = ""8211GTF97 as cusip""AND NRML_STATUS = ""INSTRUCTED status"""
trades for 8211GTF97 as cusip with PENDING status,"CUSIP_CODE = ""8211GTF97 as cusip""AND NRML_STATUS = ""PENDING status"""
PENDING status trades for 8211GTF97 as cusip,"CUSIP_CODE = ""8211GTF97 as cusip""AND NRML_STATUS = ""PENDING status"""
8211GTF97 as cusip trades with PENDING status,"CUSIP_CODE = ""8211GTF97 as cusip""AND NRML_STATUS = ""PENDING status"""
trades for 8211GTF97 as cusip with SETTLED status,"CUSIP_CODE = ""8211GTF97 as cusip""AND NRML_STATUS = ""SETTLED status"""
SETTLED status trades for 8211GTF97 as cusip,"CUSIP_CODE = ""8211GTF97 as cusip""AND NRML_STATUS = ""SETTLED status"""
8211GTF97 as cusip trades with SETTLED status,"CUSIP_CODE = ""8211GTF97 as cusip""AND NRML_STATUS = ""SETTLED status"""
trades for 8211GTF97 as cusip with MATCHED status,"CUSIP_CODE = ""8211GTF97 as cusip""AND NRML_STATUS = ""MATCHED status"""
MATCHED status trades for 8211GTF97 as cusip,"CUSIP_CODE = ""8211GTF97 as cusip""AND NRML_STATUS = ""MATCHED status"""
8211GTF97 as cusip trades with MATCHED status,"CUSIP_CODE = ""8211GTF97 as cusip""AND NRML_STATUS = ""MATCHED status"""
trades for 8211GTF97 as cusip with CANCELLED status,"CUSIP_CODE = ""8211GTF97 as cusip""AND NRML_STATUS = ""CANCELLED status"""
CANCELLED status trades for 8211GTF97 as cusip,"CUSIP_CODE = ""8211GTF97 as cusip""AND NRML_STATUS = ""CANCELLED status"""
8211GTF97 as cusip trades with CANCELLED status,"CUSIP_CODE = ""8211GTF97 as cusip""AND NRML_STATUS = ""CANCELLED status"""
trades for 8211GTF97 as cusip with UNMATCHED status,"CUSIP_CODE = ""8211GTF97 as cusip""AND NRML_STATUS = ""UNMATCHED status"""
UNMATCHED status trades for 8211GTF97 as cusip,"CUSIP_CODE = ""8211GTF97 as cusip""AND NRML_STATUS = ""UNMATCHED status"""
8211GTF97 as cusip trades with UNMATCHED status,"CUSIP_CODE = ""8211GTF97 as cusip""AND NRML_STATUS = ""UNMATCHED status"""
trades for 8211GTF97 as cusip with OPEN status,"CUSIP_CODE = ""8211GTF97 as cusip""AND NRML_STATUS = ""OPEN status"""
OPEN status trades for 8211GTF97 as cusip,"CUSIP_CODE = ""8211GTF97 as cusip""AND NRML_STATUS = ""OPEN status"""
8211GTF97 as cusip trades with OPEN status,"CUSIP_CODE = ""8211GTF97 as cusip""AND NRML_STATUS = ""OPEN status"""
trades for 8211GTF97 as cusip with UNINSTRUCTED status,"CUSIP_CODE = ""8211GTF97 as cusip""AND NRML_STATUS = ""UNINSTRUCTED status"""
UNINSTRUCTED status trades for 8211GTF97 as cusip,"CUSIP_CODE = ""8211GTF97 as cusip""AND NRML_STATUS = ""UNINSTRUCTED status"""
8211GTF97 as cusip trades with UNINSTRUCTED status,"CUSIP_CODE = ""8211GTF97 as cusip""AND NRML_STATUS = ""UNINSTRUCTED status"""
trades for 8211GTF97 as cusip with INSTRUCTED status,"CUSIP_CODE = ""8211GTF97 as cusip""AND NRML_STATUS = ""INSTRUCTED status"""
INSTRUCTED status trades for 8211GTF97 as cusip,"CUSIP_CODE = ""8211GTF97 as cusip""AND NRML_STATUS = ""INSTRUCTED status"""
8211GTF97 as cusip trades with INSTRUCTED status,"CUSIP_CODE = ""8211GTF97 as cusip""AND NRML_STATUS = ""INSTRUCTED status"""
trades for 43675D7KT as cusip with PENDING status,"CUSIP_CODE = ""43675D7KT as cusip""AND NRML_STATUS = ""PENDING status"""
PENDING status trades for 43675D7KT as cusip,"CUSIP_CODE = ""43675D7KT as cusip""AND NRML_STATUS = ""PENDING status"""
43675D7KT as cusip trades with PENDING status,"CUSIP_CODE = ""43675D7KT as cusip""AND NRML_STATUS = ""PENDING status"""
trades for 43675D7KT as cusip with SETTLED status,"CUSIP_CODE = ""43675D7KT as cusip""AND NRML_STATUS = ""SETTLED status"""
SETTLED status trades for 43675D7KT as cusip,"CUSIP_CODE = ""43675D7KT as cusip""AND NRML_STATUS = ""SETTLED status"""
43675D7KT as cusip trades with SETTLED status,"CUSIP_CODE = ""43675D7KT as cusip""AND NRML_STATUS = ""SETTLED status"""
trades for 43675D7KT as cusip with MATCHED status,"CUSIP_CODE = ""43675D7KT as cusip""AND NRML_STATUS = ""MATCHED status"""
MATCHED status trades for 43675D7KT as cusip,"CUSIP_CODE = ""43675D7KT as cusip""AND NRML_STATUS = ""MATCHED status"""
43675D7KT as cusip trades with MATCHED status,"CUSIP_CODE = ""43675D7KT as cusip""AND NRML_STATUS = ""MATCHED status"""
trades for 43675D7KT as cusip with CANCELLED status,"CUSIP_CODE = ""43675D7KT as cusip""AND NRML_STATUS = ""CANCELLED status"""
CANCELLED status trades for 43675D7KT as cusip,"CUSIP_CODE = ""43675D7KT as cusip""AND NRML_STATUS = ""CANCELLED status"""
43675D7KT as cusip trades with CANCELLED status,"CUSIP_CODE = ""43675D7KT as cusip""AND NRML_STATUS = ""CANCELLED status"""
trades for 43675D7KT as cusip with UNMATCHED status,"CUSIP_CODE = ""43675D7KT as cusip""AND NRML_STATUS = ""UNMATCHED status"""
UNMATCHED status trades for 43675D7KT as cusip,"CUSIP_CODE = ""43675D7KT as cusip""AND NRML_STATUS = ""UNMATCHED status"""
43675D7KT as cusip trades with UNMATCHED status,"CUSIP_CODE = ""43675D7KT as cusip""AND NRML_STATUS = ""UNMATCHED status"""
trades for 43675D7KT as cusip with OPEN status,"CUSIP_CODE = ""43675D7KT as cusip""AND NRML_STATUS = ""OPEN status"""
OPEN status trades for 43675D7KT as cusip,"CUSIP_CODE = ""43675D7KT as cusip""AND NRML_STATUS = ""OPEN status"""
43675D7KT as cusip trades with OPEN status,"CUSIP_CODE = ""43675D7KT as cusip""AND NRML_STATUS = ""OPEN status"""
trades for 43675D7KT as cusip with UNINSTRUCTED status,"CUSIP_CODE = ""43675D7KT as cusip""AND NRML_STATUS = ""UNINSTRUCTED status"""
UNINSTRUCTED status trades for 43675D7KT as cusip,"CUSIP_CODE = ""43675D7KT as cusip""AND NRML_STATUS = ""UNINSTRUCTED status"""
43675D7KT as cusip trades with UNINSTRUCTED status,"CUSIP_CODE = ""43675D7KT as cusip""AND NRML_STATUS = ""UNINSTRUCTED status"""
trades for 43675D7KT as cusip with INSTRUCTED status,"CUSIP_CODE = ""43675D7KT as cusip""AND NRML_STATUS = ""INSTRUCTED status"""
INSTRUCTED status trades for 43675D7KT as cusip,"CUSIP_CODE = ""43675D7KT as cusip""AND NRML_STATUS = ""INSTRUCTED status"""
43675D7KT as cusip trades with INSTRUCTED status,"CUSIP_CODE = ""43675D7KT as cusip""AND NRML_STATUS = ""INSTRUCTED status"""
trades for 8478937FE as cusip with PENDING status,"CUSIP_CODE = ""8478937FE as cusip""AND NRML_STATUS = ""PENDING status"""
PENDING status trades for 8478937FE as cusip,"CUSIP_CODE = ""8478937FE as cusip""AND NRML_STATUS = ""PENDING status"""
8478937FE as cusip trades with PENDING status,"CUSIP_CODE = ""8478937FE as cusip""AND NRML_STATUS = ""PENDING status"""
trades for 8478937FE as cusip with SETTLED status,"CUSIP_CODE = ""8478937FE as cusip""AND NRML_STATUS = ""SETTLED status"""
SETTLED status trades for 8478937FE as cusip,"CUSIP_CODE = ""8478937FE as cusip""AND NRML_STATUS = ""SETTLED status"""
8478937FE as cusip trades with SETTLED status,"CUSIP_CODE = ""8478937FE as cusip""AND NRML_STATUS = ""SETTLED status"""
trades for 8478937FE as cusip with MATCHED status,"CUSIP_CODE = ""8478937FE as cusip""AND NRML_STATUS = ""MATCHED status"""
MATCHED status trades for 8478937FE as cusip,"CUSIP_CODE = ""8478937FE as cusip""AND NRML_STATUS = ""MATCHED status"""
8478937FE as cusip trades with MATCHED status,"CUSIP_CODE = ""8478937FE as cusip""AND NRML_STATUS = ""MATCHED status"""
trades for 8478937FE as cusip with CANCELLED status,"CUSIP_CODE = ""8478937FE as cusip""AND NRML_STATUS = ""CANCELLED status"""
CANCELLED status trades for 8478937FE as cusip,"CUSIP_CODE = ""8478937FE as cusip""AND NRML_STATUS = ""CANCELLED status"""
8478937FE as cusip trades with CANCELLED status,"CUSIP_CODE = ""8478937FE as cusip""AND NRML_STATUS = ""CANCELLED status"""
trades for 8478937FE as cusip with UNMATCHED status,"CUSIP_CODE = ""8478937FE as cusip""AND NRML_STATUS = ""UNMATCHED status"""
UNMATCHED status trades for 8478937FE as cusip,"CUSIP_CODE = ""8478937FE as cusip""AND NRML_STATUS = ""UNMATCHED status"""
8478937FE as cusip trades with UNMATCHED status,"CUSIP_CODE = ""8478937FE as cusip""AND NRML_STATUS = ""UNMATCHED status"""
trades for 8478937FE as cusip with OPEN status,"CUSIP_CODE = ""8478937FE as cusip""AND NRML_STATUS = ""OPEN status"""
OPEN status trades for 8478937FE as cusip,"CUSIP_CODE = ""8478937FE as cusip""AND NRML_STATUS = ""OPEN status"""
8478937FE as cusip trades with OPEN status,"CUSIP_CODE = ""8478937FE as cusip""AND NRML_STATUS = ""OPEN status"""
trades for 8478937FE as cusip with UNINSTRUCTED status,"CUSIP_CODE = ""8478937FE as cusip""AND NRML_STATUS = ""UNINSTRUCTED status"""
UNINSTRUCTED status trades for 8478937FE as cusip,"CUSIP_CODE = ""8478937FE as cusip""AND NRML_STATUS = ""UNINSTRUCTED status"""
8478937FE as cusip trades with UNINSTRUCTED status,"CUSIP_CODE = ""8478937FE as cusip""AND NRML_STATUS = ""UNINSTRUCTED status"""
trades for 8478937FE as cusip with INSTRUCTED status,"CUSIP_CODE = ""8478937FE as cusip""AND NRML_STATUS = ""INSTRUCTED status"""
INSTRUCTED status trades for 8478937FE as cusip,"CUSIP_CODE = ""8478937FE as cusip""AND NRML_STATUS = ""INSTRUCTED status"""
8478937FE as cusip trades with INSTRUCTED status,"CUSIP_CODE = ""8478937FE as cusip""AND NRML_STATUS = ""INSTRUCTED status"""
trades for 5C00GJ9M4 as cusip with PENDING status,"CUSIP_CODE = ""5C00GJ9M4 as cusip""AND NRML_STATUS = ""PENDING status"""
PENDING status trades for 5C00GJ9M4 as cusip,"CUSIP_CODE = ""5C00GJ9M4 as cusip""AND NRML_STATUS = ""PENDING status"""
5C00GJ9M4 as cusip trades with PENDING status,"CUSIP_CODE = ""5C00GJ9M4 as cusip""AND NRML_STATUS = ""PENDING status"""
trades for 5C00GJ9M4 as cusip with SETTLED status,"CUSIP_CODE = ""5C00GJ9M4 as cusip""AND NRML_STATUS = ""SETTLED status"""
SETTLED status trades for 5C00GJ9M4 as cusip,"CUSIP_CODE = ""5C00GJ9M4 as cusip""AND NRML_STATUS = ""SETTLED status"""
5C00GJ9M4 as cusip trades with SETTLED status,"CUSIP_CODE = ""5C00GJ9M4 as cusip""AND NRML_STATUS = ""SETTLED status"""
trades for 5C00GJ9M4 as cusip with MATCHED status,"CUSIP_CODE = ""5C00GJ9M4 as cusip""AND NRML_STATUS = ""MATCHED status"""
MATCHED status trades for 5C00GJ9M4 as cusip,"CUSIP_CODE = ""5C00GJ9M4 as cusip""AND NRML_STATUS = ""MATCHED status"""
5C00GJ9M4 as cusip trades with MATCHED status,"CUSIP_CODE = ""5C00GJ9M4 as cusip""AND NRML_STATUS = ""MATCHED status"""
trades for 5C00GJ9M4 as cusip with CANCELLED status,"CUSIP_CODE = ""5C00GJ9M4 as cusip""AND NRML_STATUS = ""CANCELLED status"""
CANCELLED status trades for 5C00GJ9M4 as cusip,"CUSIP_CODE = ""5C00GJ9M4 as cusip""AND NRML_STATUS = ""CANCELLED status"""
5C00GJ9M4 as cusip trades with CANCELLED status,"CUSIP_CODE = ""5C00GJ9M4 as cusip""AND NRML_STATUS = ""CANCELLED status"""
trades for 5C00GJ9M4 as cusip with UNMATCHED status,"CUSIP_CODE = ""5C00GJ9M4 as cusip""AND NRML_STATUS = ""UNMATCHED status"""
UNMATCHED status trades for 5C00GJ9M4 as cusip,"CUSIP_CODE = ""5C00GJ9M4 as cusip""AND NRML_STATUS = ""UNMATCHED status"""
5C00GJ9M4 as cusip trades with UNMATCHED status,"CUSIP_CODE = ""5C00GJ9M4 as cusip""AND NRML_STATUS = ""UNMATCHED status"""
trades for 5C00GJ9M4 as cusip with OPEN status,"CUSIP_CODE = ""5C00GJ9M4 as cusip""AND NRML_STATUS = ""OPEN status"""
OPEN status trades for 5C00GJ9M4 as cusip,"CUSIP_CODE = ""5C00GJ9M4 as cusip""AND NRML_STATUS = ""OPEN status"""
5C00GJ9M4 as cusip trades with OPEN status,"CUSIP_CODE = ""5C00GJ9M4 as cusip""AND NRML_STATUS = ""OPEN status"""
trades for 5C00GJ9M4 as cusip with UNINSTRUCTED status,"CUSIP_CODE = ""5C00GJ9M4 as cusip""AND NRML_STATUS = ""UNINSTRUCTED status"""
UNINSTRUCTED status trades for 5C00GJ9M4 as cusip,"CUSIP_CODE = ""5C00GJ9M4 as cusip""AND NRML_STATUS = ""UNINSTRUCTED status"""
5C00GJ9M4 as cusip trades with UNINSTRUCTED status,"CUSIP_CODE = ""5C00GJ9M4 as cusip""AND NRML_STATUS = ""UNINSTRUCTED status"""
trades for 5C00GJ9M4 as cusip with INSTRUCTED status,"CUSIP_CODE = ""5C00GJ9M4 as cusip""AND NRML_STATUS = ""INSTRUCTED status"""
INSTRUCTED status trades for 5C00GJ9M4 as cusip,"CUSIP_CODE = ""5C00GJ9M4 as cusip""AND NRML_STATUS = ""INSTRUCTED status"""
5C00GJ9M4 as cusip trades with INSTRUCTED status,"CUSIP_CODE = ""5C00GJ9M4 as cusip""AND NRML_STATUS = ""INSTRUCTED status"""
trades for DF789BDH0 as cusip with PENDING status,"CUSIP_CODE = ""DF789BDH0 as cusip""AND NRML_STATUS = ""PENDING status"""
PENDING status trades for DF789BDH0 as cusip,"CUSIP_CODE = ""DF789BDH0 as cusip""AND NRML_STATUS = ""PENDING status"""
DF789BDH0 as cusip trades with PENDING status,"CUSIP_CODE = ""DF789BDH0 as cusip""AND NRML_STATUS = ""PENDING status"""
trades for DF789BDH0 as cusip with SETTLED status,"CUSIP_CODE = ""DF789BDH0 as cusip""AND NRML_STATUS = ""SETTLED status"""
SETTLED status trades for DF789BDH0 as cusip,"CUSIP_CODE = ""DF789BDH0 as cusip""AND NRML_STATUS = ""SETTLED status"""
DF789BDH0 as cusip trades with SETTLED status,"CUSIP_CODE = ""DF789BDH0 as cusip""AND NRML_STATUS = ""SETTLED status"""
trades for DF789BDH0 as cusip with MATCHED status,"CUSIP_CODE = ""DF789BDH0 as cusip""AND NRML_STATUS = ""MATCHED status"""
MATCHED status trades for DF789BDH0 as cusip,"CUSIP_CODE = ""DF789BDH0 as cusip""AND NRML_STATUS = ""MATCHED status"""
DF789BDH0 as cusip trades with MATCHED status,"CUSIP_CODE = ""DF789BDH0 as cusip""AND NRML_STATUS = ""MATCHED status"""
trades for DF789BDH0 as cusip with CANCELLED status,"CUSIP_CODE = ""DF789BDH0 as cusip""AND NRML_STATUS = ""CANCELLED status"""
CANCELLED status trades for DF789BDH0 as cusip,"CUSIP_CODE = ""DF789BDH0 as cusip""AND NRML_STATUS = ""CANCELLED status"""
DF789BDH0 as cusip trades with CANCELLED status,"CUSIP_CODE = ""DF789BDH0 as cusip""AND NRML_STATUS = ""CANCELLED status"""
trades for DF789BDH0 as cusip with UNMATCHED status,"CUSIP_CODE = ""DF789BDH0 as cusip""AND NRML_STATUS = ""UNMATCHED status"""
UNMATCHED status trades for DF789BDH0 as cusip,"CUSIP_CODE = ""DF789BDH0 as cusip""AND NRML_STATUS = ""UNMATCHED status"""
DF789BDH0 as cusip trades with UNMATCHED status,"CUSIP_CODE = ""DF789BDH0 as cusip""AND NRML_STATUS = ""UNMATCHED status"""
trades for DF789BDH0 as cusip with OPEN status,"CUSIP_CODE = ""DF789BDH0 as cusip""AND NRML_STATUS = ""OPEN status"""
OPEN status trades for DF789BDH0 as cusip,"CUSIP_CODE = ""DF789BDH0 as cusip""AND NRML_STATUS = ""OPEN status"""
DF789BDH0 as cusip trades with OPEN status,"CUSIP_CODE = ""DF789BDH0 as cusip""AND NRML_STATUS = ""OPEN status"""
trades for DF789BDH0 as cusip with UNINSTRUCTED status,"CUSIP_CODE = ""DF789BDH0 as cusip""AND NRML_STATUS = ""UNINSTRUCTED status"""
UNINSTRUCTED status trades for DF789BDH0 as cusip,"CUSIP_CODE = ""DF789BDH0 as cusip""AND NRML_STATUS = ""UNINSTRUCTED status"""
DF789BDH0 as cusip trades with UNINSTRUCTED status,"CUSIP_CODE = ""DF789BDH0 as cusip""AND NRML_STATUS = ""UNINSTRUCTED status"""
trades for DF789BDH0 as cusip with INSTRUCTED status,"CUSIP_CODE = ""DF789BDH0 as cusip""AND NRML_STATUS = ""INSTRUCTED status"""
INSTRUCTED status trades for DF789BDH0 as cusip,"CUSIP_CODE = ""DF789BDH0 as cusip""AND NRML_STATUS = ""INSTRUCTED status"""
DF789BDH0 as cusip trades with INSTRUCTED status,"CUSIP_CODE = ""DF789BDH0 as cusip""AND NRML_STATUS = ""INSTRUCTED status"""
trades for 5C00AO9X5 as cusip with PENDING status,"CUSIP_CODE = ""5C00AO9X5 as cusip""AND NRML_STATUS = ""PENDING status"""
PENDING status trades for 5C00AO9X5 as cusip,"CUSIP_CODE = ""5C00AO9X5 as cusip""AND NRML_STATUS = ""PENDING status"""
5C00AO9X5 as cusip trades with PENDING status,"CUSIP_CODE = ""5C00AO9X5 as cusip""AND NRML_STATUS = ""PENDING status"""
trades for 5C00AO9X5 as cusip with SETTLED status,"CUSIP_CODE = ""5C00AO9X5 as cusip""AND NRML_STATUS = ""SETTLED status"""
SETTLED status trades for 5C00AO9X5 as cusip,"CUSIP_CODE = ""5C00AO9X5 as cusip""AND NRML_STATUS = ""SETTLED status"""
5C00AO9X5 as cusip trades with SETTLED status,"CUSIP_CODE = ""5C00AO9X5 as cusip""AND NRML_STATUS = ""SETTLED status"""
trades for 5C00AO9X5 as cusip with MATCHED status,"CUSIP_CODE = ""5C00AO9X5 as cusip""AND NRML_STATUS = ""MATCHED status"""
MATCHED status trades for 5C00AO9X5 as cusip,"CUSIP_CODE = ""5C00AO9X5 as cusip""AND NRML_STATUS = ""MATCHED status"""
5C00AO9X5 as cusip trades with MATCHED status,"CUSIP_CODE = ""5C00AO9X5 as cusip""AND NRML_STATUS = ""MATCHED status"""
trades for 5C00AO9X5 as cusip with CANCELLED status,"CUSIP_CODE = ""5C00AO9X5 as cusip""AND NRML_STATUS = ""CANCELLED status"""
CANCELLED status trades for 5C00AO9X5 as cusip,"CUSIP_CODE = ""5C00AO9X5 as cusip""AND NRML_STATUS = ""CANCELLED status"""
5C00AO9X5 as cusip trades with CANCELLED status,"CUSIP_CODE = ""5C00AO9X5 as cusip""AND NRML_STATUS = ""CANCELLED status"""
trades for 5C00AO9X5 as cusip with UNMATCHED status,"CUSIP_CODE = ""5C00AO9X5 as cusip""AND NRML_STATUS = ""UNMATCHED status"""
UNMATCHED status trades for 5C00AO9X5 as cusip,"CUSIP_CODE = ""5C00AO9X5 as cusip""AND NRML_STATUS = ""UNMATCHED status"""
5C00AO9X5 as cusip trades with UNMATCHED status,"CUSIP_CODE = ""5C00AO9X5 as cusip""AND NRML_STATUS = ""UNMATCHED status"""
trades for 5C00AO9X5 as cusip with OPEN status,"CUSIP_CODE = ""5C00AO9X5 as cusip""AND NRML_STATUS = ""OPEN status"""
OPEN status trades for 5C00AO9X5 as cusip,"CUSIP_CODE = ""5C00AO9X5 as cusip""AND NRML_STATUS = ""OPEN status"""
5C00AO9X5 as cusip trades with OPEN status,"CUSIP_CODE = ""5C00AO9X5 as cusip""AND NRML_STATUS = ""OPEN status"""
trades for 5C00AO9X5 as cusip with UNINSTRUCTED status,"CUSIP_CODE = ""5C00AO9X5 as cusip""AND NRML_STATUS = ""UNINSTRUCTED status"""
UNINSTRUCTED status trades for 5C00AO9X5 as cusip,"CUSIP_CODE = ""5C00AO9X5 as cusip""AND NRML_STATUS = ""UNINSTRUCTED status"""
5C00AO9X5 as cusip trades with UNINSTRUCTED status,"CUSIP_CODE = ""5C00AO9X5 as cusip""AND NRML_STATUS = ""UNINSTRUCTED status"""
trades for 5C00AO9X5 as cusip with INSTRUCTED status,"CUSIP_CODE = ""5C00AO9X5 as cusip""AND NRML_STATUS = ""INSTRUCTED status"""
INSTRUCTED status trades for 5C00AO9X5 as cusip,"CUSIP_CODE = ""5C00AO9X5 as cusip""AND NRML_STATUS = ""INSTRUCTED status"""
5C00AO9X5 as cusip trades with INSTRUCTED status,"CUSIP_CODE = ""5C00AO9X5 as cusip""AND NRML_STATUS = ""INSTRUCTED status"""
trades for 5C00GJ9M4 as cusip with PENDING status,"CUSIP_CODE = ""5C00GJ9M4 as cusip""AND NRML_STATUS = ""PENDING status"""
PENDING status trades for 5C00GJ9M4 as cusip,"CUSIP_CODE = ""5C00GJ9M4 as cusip""AND NRML_STATUS = ""PENDING status"""
5C00GJ9M4 as cusip trades with PENDING status,"CUSIP_CODE = ""5C00GJ9M4 as cusip""AND NRML_STATUS = ""PENDING status"""
trades for 5C00GJ9M4 as cusip with SETTLED status,"CUSIP_CODE = ""5C00GJ9M4 as cusip""AND NRML_STATUS = ""SETTLED status"""
SETTLED status trades for 5C00GJ9M4 as cusip,"CUSIP_CODE = ""5C00GJ9M4 as cusip""AND NRML_STATUS = ""SETTLED status"""
5C00GJ9M4 as cusip trades with SETTLED status,"CUSIP_CODE = ""5C00GJ9M4 as cusip""AND NRML_STATUS = ""SETTLED status"""
trades for 5C00GJ9M4 as cusip with MATCHED status,"CUSIP_CODE = ""5C00GJ9M4 as cusip""AND NRML_STATUS = ""MATCHED status"""
MATCHED status trades for 5C00GJ9M4 as cusip,"CUSIP_CODE = ""5C00GJ9M4 as cusip""AND NRML_STATUS = ""MATCHED status"""
5C00GJ9M4 as cusip trades with MATCHED status,"CUSIP_CODE = ""5C00GJ9M4 as cusip""AND NRML_STATUS = ""MATCHED status"""
trades for 5C00GJ9M4 as cusip with CANCELLED status,"CUSIP_CODE = ""5C00GJ9M4 as cusip""AND NRML_STATUS = ""CANCELLED status"""
CANCELLED status trades for 5C00GJ9M4 as cusip,"CUSIP_CODE = ""5C00GJ9M4 as cusip""AND NRML_STATUS = ""CANCELLED status"""
5C00GJ9M4 as cusip trades with CANCELLED status,"CUSIP_CODE = ""5C00GJ9M4 as cusip""AND NRML_STATUS = ""CANCELLED status"""
trades for 5C00GJ9M4 as cusip with UNMATCHED status,"CUSIP_CODE = ""5C00GJ9M4 as cusip""AND NRML_STATUS = ""UNMATCHED status"""
UNMATCHED status trades for 5C00GJ9M4 as cusip,"CUSIP_CODE = ""5C00GJ9M4 as cusip""AND NRML_STATUS = ""UNMATCHED status"""
5C00GJ9M4 as cusip trades with UNMATCHED status,"CUSIP_CODE = ""5C00GJ9M4 as cusip""AND NRML_STATUS = ""UNMATCHED status"""
trades for 5C00GJ9M4 as cusip with OPEN status,"CUSIP_CODE = ""5C00GJ9M4 as cusip""AND NRML_STATUS = ""OPEN status"""
OPEN status trades for 5C00GJ9M4 as cusip,"CUSIP_CODE = ""5C00GJ9M4 as cusip""AND NRML_STATUS = ""OPEN status"""
5C00GJ9M4 as cusip trades with OPEN status,"CUSIP_CODE = ""5C00GJ9M4 as cusip""AND NRML_STATUS = ""OPEN status"""
trades for 5C00GJ9M4 as cusip with UNINSTRUCTED status,"CUSIP_CODE = ""5C00GJ9M4 as cusip""AND NRML_STATUS = ""UNINSTRUCTED status"""
UNINSTRUCTED status trades for 5C00GJ9M4 as cusip,"CUSIP_CODE = ""5C00GJ9M4 as cusip""AND NRML_STATUS = ""UNINSTRUCTED status"""
5C00GJ9M4 as cusip trades with UNINSTRUCTED status,"CUSIP_CODE = ""5C00GJ9M4 as cusip""AND NRML_STATUS = ""UNINSTRUCTED status"""
trades for 5C00GJ9M4 as cusip with INSTRUCTED status,"CUSIP_CODE = ""5C00GJ9M4 as cusip""AND NRML_STATUS = ""INSTRUCTED status"""
INSTRUCTED status trades for 5C00GJ9M4 as cusip,"CUSIP_CODE = ""5C00GJ9M4 as cusip""AND NRML_STATUS = ""INSTRUCTED status"""
5C00GJ9M4 as cusip trades with INSTRUCTED status,"CUSIP_CODE = ""5C00GJ9M4 as cusip""AND NRML_STATUS = ""INSTRUCTED status"""
trades for FGH467846 as cusip with PENDING status,"CUSIP_CODE = ""FGH467846 as cusip""AND NRML_STATUS = ""PENDING status"""
PENDING status trades for FGH467846 as cusip,"CUSIP_CODE = ""FGH467846 as cusip""AND NRML_STATUS = ""PENDING status"""
FGH467846 as cusip trades with PENDING status,"CUSIP_CODE = ""FGH467846 as cusip""AND NRML_STATUS = ""PENDING status"""
trades for FGH467846 as cusip with SETTLED status,"CUSIP_CODE = ""FGH467846 as cusip""AND NRML_STATUS = ""SETTLED status"""
SETTLED status trades for FGH467846 as cusip,"CUSIP_CODE = ""FGH467846 as cusip""AND NRML_STATUS = ""SETTLED status"""
FGH467846 as cusip trades with SETTLED status,"CUSIP_CODE = ""FGH467846 as cusip""AND NRML_STATUS = ""SETTLED status"""
trades for FGH467846 as cusip with MATCHED status,"CUSIP_CODE = ""FGH467846 as cusip""AND NRML_STATUS = ""MATCHED status"""
MATCHED status trades for FGH467846 as cusip,"CUSIP_CODE = ""FGH467846 as cusip""AND NRML_STATUS = ""MATCHED status"""
FGH467846 as cusip trades with MATCHED status,"CUSIP_CODE = ""FGH467846 as cusip""AND NRML_STATUS = ""MATCHED status"""
trades for FGH467846 as cusip with CANCELLED status,"CUSIP_CODE = ""FGH467846 as cusip""AND NRML_STATUS = ""CANCELLED status"""
CANCELLED status trades for FGH467846 as cusip,"CUSIP_CODE = ""FGH467846 as cusip""AND NRML_STATUS = ""CANCELLED status"""
FGH467846 as cusip trades with CANCELLED status,"CUSIP_CODE = ""FGH467846 as cusip""AND NRML_STATUS = ""CANCELLED status"""
trades for FGH467846 as cusip with UNMATCHED status,"CUSIP_CODE = ""FGH467846 as cusip""AND NRML_STATUS = ""UNMATCHED status"""
UNMATCHED status trades for FGH467846 as cusip,"CUSIP_CODE = ""FGH467846 as cusip""AND NRML_STATUS = ""UNMATCHED status"""
FGH467846 as cusip trades with UNMATCHED status,"CUSIP_CODE = ""FGH467846 as cusip""AND NRML_STATUS = ""UNMATCHED status"""
trades for FGH467846 as cusip with OPEN status,"CUSIP_CODE = ""FGH467846 as cusip""AND NRML_STATUS = ""OPEN status"""
OPEN status trades for FGH467846 as cusip,"CUSIP_CODE = ""FGH467846 as cusip""AND NRML_STATUS = ""OPEN status"""
FGH467846 as cusip trades with OPEN status,"CUSIP_CODE = ""FGH467846 as cusip""AND NRML_STATUS = ""OPEN status"""
trades for FGH467846 as cusip with UNINSTRUCTED status,"CUSIP_CODE = ""FGH467846 as cusip""AND NRML_STATUS = ""UNINSTRUCTED status"""
UNINSTRUCTED status trades for FGH467846 as cusip,"CUSIP_CODE = ""FGH467846 as cusip""AND NRML_STATUS = ""UNINSTRUCTED status"""
FGH467846 as cusip trades with UNINSTRUCTED status,"CUSIP_CODE = ""FGH467846 as cusip""AND NRML_STATUS = ""UNINSTRUCTED status"""
trades for FGH467846 as cusip with INSTRUCTED status,"CUSIP_CODE = ""FGH467846 as cusip""AND NRML_STATUS = ""INSTRUCTED status"""
INSTRUCTED status trades for FGH467846 as cusip,"CUSIP_CODE = ""FGH467846 as cusip""AND NRML_STATUS = ""INSTRUCTED status"""
FGH467846 as cusip trades with INSTRUCTED status,"CUSIP_CODE = ""FGH467846 as cusip""AND NRML_STATUS = ""INSTRUCTED status"""
trades for 7364GCF33 as cusip with PENDING status,"CUSIP_CODE = ""7364GCF33 as cusip""AND NRML_STATUS = ""PENDING status"""
PENDING status trades for 7364GCF33 as cusip,"CUSIP_CODE = ""7364GCF33 as cusip""AND NRML_STATUS = ""PENDING status"""
7364GCF33 as cusip trades with PENDING status,"CUSIP_CODE = ""7364GCF33 as cusip""AND NRML_STATUS = ""PENDING status"""
trades for 7364GCF33 as cusip with SETTLED status,"CUSIP_CODE = ""7364GCF33 as cusip""AND NRML_STATUS = ""SETTLED status"""
SETTLED status trades for 7364GCF33 as cusip,"CUSIP_CODE = ""7364GCF33 as cusip""AND NRML_STATUS = ""SETTLED status"""
7364GCF33 as cusip trades with SETTLED status,"CUSIP_CODE = ""7364GCF33 as cusip""AND NRML_STATUS = ""SETTLED status"""
trades for 7364GCF33 as cusip with MATCHED status,"CUSIP_CODE = ""7364GCF33 as cusip""AND NRML_STATUS = ""MATCHED status"""
MATCHED status trades for 7364GCF33 as cusip,"CUSIP_CODE = ""7364GCF33 as cusip""AND NRML_STATUS = ""MATCHED status"""
7364GCF33 as cusip trades with MATCHED status,"CUSIP_CODE = ""7364GCF33 as cusip""AND NRML_STATUS = ""MATCHED status"""
trades for 7364GCF33 as cusip with CANCELLED status,"CUSIP_CODE = ""7364GCF33 as cusip""AND NRML_STATUS = ""CANCELLED status"""
CANCELLED status trades for 7364GCF33 as cusip,"CUSIP_CODE = ""7364GCF33 as cusip""AND NRML_STATUS = ""CANCELLED status"""
7364GCF33 as cusip trades with CANCELLED status,"CUSIP_CODE = ""7364GCF33 as cusip""AND NRML_STATUS = ""CANCELLED status"""
trades for 7364GCF33 as cusip with UNMATCHED status,"CUSIP_CODE = ""7364GCF33 as cusip""AND NRML_STATUS = ""UNMATCHED status"""
UNMATCHED status trades for 7364GCF33 as cusip,"CUSIP_CODE = ""7364GCF33 as cusip""AND NRML_STATUS = ""UNMATCHED status"""
7364GCF33 as cusip trades with UNMATCHED status,"CUSIP_CODE = ""7364GCF33 as cusip""AND NRML_STATUS = ""UNMATCHED status"""
trades for 7364GCF33 as cusip with OPEN status,"CUSIP_CODE = ""7364GCF33 as cusip""AND NRML_STATUS = ""OPEN status"""
OPEN status trades for 7364GCF33 as cusip,"CUSIP_CODE = ""7364GCF33 as cusip""AND NRML_STATUS = ""OPEN status"""
7364GCF33 as cusip trades with OPEN status,"CUSIP_CODE = ""7364GCF33 as cusip""AND NRML_STATUS = ""OPEN status"""
trades for 7364GCF33 as cusip with UNINSTRUCTED status,"CUSIP_CODE = ""7364GCF33 as cusip""AND NRML_STATUS = ""UNINSTRUCTED status"""
UNINSTRUCTED status trades for 7364GCF33 as cusip,"CUSIP_CODE = ""7364GCF33 as cusip""AND NRML_STATUS = ""UNINSTRUCTED status"""
7364GCF33 as cusip trades with UNINSTRUCTED status,"CUSIP_CODE = ""7364GCF33 as cusip""AND NRML_STATUS = ""UNINSTRUCTED status"""
trades for 7364GCF33 as cusip with INSTRUCTED status,"CUSIP_CODE = ""7364GCF33 as cusip""AND NRML_STATUS = ""INSTRUCTED status"""
INSTRUCTED status trades for 7364GCF33 as cusip,"CUSIP_CODE = ""7364GCF33 as cusip""AND NRML_STATUS = ""INSTRUCTED status"""
7364GCF33 as cusip trades with INSTRUCTED status,"CUSIP_CODE = ""7364GCF33 as cusip""AND NRML_STATUS = ""INSTRUCTED status"""
trades for 7327GTF21 as cusip with PENDING status,"CUSIP_CODE = ""7327GTF21 as cusip""AND NRML_STATUS = ""PENDING status"""
PENDING status trades for 7327GTF21 as cusip,"CUSIP_CODE = ""7327GTF21 as cusip""AND NRML_STATUS = ""PENDING status"""
7327GTF21 as cusip trades with PENDING status,"CUSIP_CODE = ""7327GTF21 as cusip""AND NRML_STATUS = ""PENDING status"""
trades for 7327GTF21 as cusip with SETTLED status,"CUSIP_CODE = ""7327GTF21 as cusip""AND NRML_STATUS = ""SETTLED status"""
SETTLED status trades for 7327GTF21 as cusip,"CUSIP_CODE = ""7327GTF21 as cusip""AND NRML_STATUS = ""SETTLED status"""
7327GTF21 as cusip trades with SETTLED status,"CUSIP_CODE = ""7327GTF21 as cusip""AND NRML_STATUS = ""SETTLED status"""
trades for 7327GTF21 as cusip with MATCHED status,"CUSIP_CODE = ""7327GTF21 as cusip""AND NRML_STATUS = ""MATCHED status"""
MATCHED status trades for 7327GTF21 as cusip,"CUSIP_CODE = ""7327GTF21 as cusip""AND NRML_STATUS = ""MATCHED status"""
7327GTF21 as cusip trades with MATCHED status,"CUSIP_CODE = ""7327GTF21 as cusip""AND NRML_STATUS = ""MATCHED status"""
trades for 7327GTF21 as cusip with CANCELLED status,"CUSIP_CODE = ""7327GTF21 as cusip""AND NRML_STATUS = ""CANCELLED status"""
CANCELLED status trades for 7327GTF21 as cusip,"CUSIP_CODE = ""7327GTF21 as cusip""AND NRML_STATUS = ""CANCELLED status"""
7327GTF21 as cusip trades with CANCELLED status,"CUSIP_CODE = ""7327GTF21 as cusip""AND NRML_STATUS = ""CANCELLED status"""
trades for 7327GTF21 as cusip with UNMATCHED status,"CUSIP_CODE = ""7327GTF21 as cusip""AND NRML_STATUS = ""UNMATCHED status"""
UNMATCHED status trades for 7327GTF21 as cusip,"CUSIP_CODE = ""7327GTF21 as cusip""AND NRML_STATUS = ""UNMATCHED status"""
7327GTF21 as cusip trades with UNMATCHED status,"CUSIP_CODE = ""7327GTF21 as cusip""AND NRML_STATUS = ""UNMATCHED status"""
trades for 7327GTF21 as cusip with OPEN status,"CUSIP_CODE = ""7327GTF21 as cusip""AND NRML_STATUS = ""OPEN status"""
OPEN status trades for 7327GTF21 as cusip,"CUSIP_CODE = ""7327GTF21 as cusip""AND NRML_STATUS = ""OPEN status"""
7327GTF21 as cusip trades with OPEN status,"CUSIP_CODE = ""7327GTF21 as cusip""AND NRML_STATUS = ""OPEN status"""
trades for 7327GTF21 as cusip with UNINSTRUCTED status,"CUSIP_CODE = ""7327GTF21 as cusip""AND NRML_STATUS = ""UNINSTRUCTED status"""
UNINSTRUCTED status trades for 7327GTF21 as cusip,"CUSIP_CODE = ""7327GTF21 as cusip""AND NRML_STATUS = ""UNINSTRUCTED status"""
7327GTF21 as cusip trades with UNINSTRUCTED status,"CUSIP_CODE = ""7327GTF21 as cusip""AND NRML_STATUS = ""UNINSTRUCTED status"""
trades for 7327GTF21 as cusip with INSTRUCTED status,"CUSIP_CODE = ""7327GTF21 as cusip""AND NRML_STATUS = ""INSTRUCTED status"""
INSTRUCTED status trades for 7327GTF21 as cusip,"CUSIP_CODE = ""7327GTF21 as cusip""AND NRML_STATUS = ""INSTRUCTED status"""
7327GTF21 as cusip trades with INSTRUCTED status,"CUSIP_CODE = ""7327GTF21 as cusip""AND NRML_STATUS = ""INSTRUCTED status"""
trades for 9211JYV09 as cusip with PENDING status,"CUSIP_CODE = ""9211JYV09 as cusip""AND NRML_STATUS = ""PENDING status"""
PENDING status trades for 9211JYV09 as cusip,"CUSIP_CODE = ""9211JYV09 as cusip""AND NRML_STATUS = ""PENDING status"""
9211JYV09 as cusip trades with PENDING status,"CUSIP_CODE = ""9211JYV09 as cusip""AND NRML_STATUS = ""PENDING status"""
trades for 9211JYV09 as cusip with SETTLED status,"CUSIP_CODE = ""9211JYV09 as cusip""AND NRML_STATUS = ""SETTLED status"""
SETTLED status trades for 9211JYV09 as cusip,"CUSIP_CODE = ""9211JYV09 as cusip""AND NRML_STATUS = ""SETTLED status"""
9211JYV09 as cusip trades with SETTLED status,"CUSIP_CODE = ""9211JYV09 as cusip""AND NRML_STATUS = ""SETTLED status"""
trades for 9211JYV09 as cusip with MATCHED status,"CUSIP_CODE = ""9211JYV09 as cusip""AND NRML_STATUS = ""MATCHED status"""
MATCHED status trades for 9211JYV09 as cusip,"CUSIP_CODE = ""9211JYV09 as cusip""AND NRML_STATUS = ""MATCHED status"""
9211JYV09 as cusip trades with MATCHED status,"CUSIP_CODE = ""9211JYV09 as cusip""AND NRML_STATUS = ""MATCHED status"""
trades for 9211JYV09 as cusip with CANCELLED status,"CUSIP_CODE = ""9211JYV09 as cusip""AND NRML_STATUS = ""CANCELLED status"""
CANCELLED status trades for 9211JYV09 as cusip,"CUSIP_CODE = ""9211JYV09 as cusip""AND NRML_STATUS = ""CANCELLED status"""
9211JYV09 as cusip trades with CANCELLED status,"CUSIP_CODE = ""9211JYV09 as cusip""AND NRML_STATUS = ""CANCELLED status"""
trades for 9211JYV09 as cusip with UNMATCHED status,"CUSIP_CODE = ""9211JYV09 as cusip""AND NRML_STATUS = ""UNMATCHED status"""
UNMATCHED status trades for 9211JYV09 as cusip,"CUSIP_CODE = ""9211JYV09 as cusip""AND NRML_STATUS = ""UNMATCHED status"""
9211JYV09 as cusip trades with UNMATCHED status,"CUSIP_CODE = ""9211JYV09 as cusip""AND NRML_STATUS = ""UNMATCHED status"""
trades for 9211JYV09 as cusip with OPEN status,"CUSIP_CODE = ""9211JYV09 as cusip""AND NRML_STATUS = ""OPEN status"""
OPEN status trades for 9211JYV09 as cusip,"CUSIP_CODE = ""9211JYV09 as cusip""AND NRML_STATUS = ""OPEN status"""
9211JYV09 as cusip trades with OPEN status,"CUSIP_CODE = ""9211JYV09 as cusip""AND NRML_STATUS = ""OPEN status"""
trades for 9211JYV09 as cusip with UNINSTRUCTED status,"CUSIP_CODE = ""9211JYV09 as cusip""AND NRML_STATUS = ""UNINSTRUCTED status"""
UNINSTRUCTED status trades for 9211JYV09 as cusip,"CUSIP_CODE = ""9211JYV09 as cusip""AND NRML_STATUS = ""UNINSTRUCTED status"""
9211JYV09 as cusip trades with UNINSTRUCTED status,"CUSIP_CODE = ""9211JYV09 as cusip""AND NRML_STATUS = ""UNINSTRUCTED status"""
trades for 9211JYV09 as cusip with INSTRUCTED status,"CUSIP_CODE = ""9211JYV09 as cusip""AND NRML_STATUS = ""INSTRUCTED status"""
INSTRUCTED status trades for 9211JYV09 as cusip,"CUSIP_CODE = ""9211JYV09 as cusip""AND NRML_STATUS = ""INSTRUCTED status"""
9211JYV09 as cusip trades with INSTRUCTED status,"CUSIP_CODE = ""9211JYV09 as cusip""AND NRML_STATUS = ""INSTRUCTED status"""
trades for 8211GTF97 as cusip with PENDING status,"CUSIP_CODE = ""8211GTF97 as cusip""AND NRML_STATUS = ""PENDING status"""
PENDING status trades for 8211GTF97 as cusip,"CUSIP_CODE = ""8211GTF97 as cusip""AND NRML_STATUS = ""PENDING status"""
8211GTF97 as cusip trades with PENDING status,"CUSIP_CODE = ""8211GTF97 as cusip""AND NRML_STATUS = ""PENDING status"""
trades for 8211GTF97 as cusip with SETTLED status,"CUSIP_CODE = ""8211GTF97 as cusip""AND NRML_STATUS = ""SETTLED status"""
SETTLED status trades for 8211GTF97 as cusip,"CUSIP_CODE = ""8211GTF97 as cusip""AND NRML_STATUS = ""SETTLED status"""
8211GTF97 as cusip trades with SETTLED status,"CUSIP_CODE = ""8211GTF97 as cusip""AND NRML_STATUS = ""SETTLED status"""
trades for 8211GTF97 as cusip with MATCHED status,"CUSIP_CODE = ""8211GTF97 as cusip""AND NRML_STATUS = ""MATCHED status"""
MATCHED status trades for 8211GTF97 as cusip,"CUSIP_CODE = ""8211GTF97 as cusip""AND NRML_STATUS = ""MATCHED status"""
8211GTF97 as cusip trades with MATCHED status,"CUSIP_CODE = ""8211GTF97 as cusip""AND NRML_STATUS = ""MATCHED status"""
trades for 8211GTF97 as cusip with CANCELLED status,"CUSIP_CODE = ""8211GTF97 as cusip""AND NRML_STATUS = ""CANCELLED status"""
CANCELLED status trades for 8211GTF97 as cusip,"CUSIP_CODE = ""8211GTF97 as cusip""AND NRML_STATUS = ""CANCELLED status"""
8211GTF97 as cusip trades with CANCELLED status,"CUSIP_CODE = ""8211GTF97 as cusip""AND NRML_STATUS = ""CANCELLED status"""
trades for 8211GTF97 as cusip with UNMATCHED status,"CUSIP_CODE = ""8211GTF97 as cusip""AND NRML_STATUS = ""UNMATCHED status"""
UNMATCHED status trades for 8211GTF97 as cusip,"CUSIP_CODE = ""8211GTF97 as cusip""AND NRML_STATUS = ""UNMATCHED status"""
8211GTF97 as cusip trades with UNMATCHED status,"CUSIP_CODE = ""8211GTF97 as cusip""AND NRML_STATUS = ""UNMATCHED status"""
trades for 8211GTF97 as cusip with OPEN status,"CUSIP_CODE = ""8211GTF97 as cusip""AND NRML_STATUS = ""OPEN status"""
OPEN status trades for 8211GTF97 as cusip,"CUSIP_CODE = ""8211GTF97 as cusip""AND NRML_STATUS = ""OPEN status"""
8211GTF97 as cusip trades with OPEN status,"CUSIP_CODE = ""8211GTF97 as cusip""AND NRML_STATUS = ""OPEN status"""
trades for 8211GTF97 as cusip with UNINSTRUCTED status,"CUSIP_CODE = ""8211GTF97 as cusip""AND NRML_STATUS = ""UNINSTRUCTED status"""
UNINSTRUCTED status trades for 8211GTF97 as cusip,"CUSIP_CODE = ""8211GTF97 as cusip""AND NRML_STATUS = ""UNINSTRUCTED status"""
8211GTF97 as cusip trades with UNINSTRUCTED status,"CUSIP_CODE = ""8211GTF97 as cusip""AND NRML_STATUS = ""UNINSTRUCTED status"""
trades for 8211GTF97 as cusip with INSTRUCTED status,"CUSIP_CODE = ""8211GTF97 as cusip""AND NRML_STATUS = ""INSTRUCTED status"""
INSTRUCTED status trades for 8211GTF97 as cusip,"CUSIP_CODE = ""8211GTF97 as cusip""AND NRML_STATUS = ""INSTRUCTED status"""
8211GTF97 as cusip trades with INSTRUCTED status,"CUSIP_CODE = ""8211GTF97 as cusip""AND NRML_STATUS = ""INSTRUCTED status"""
trades for 8211GTF97 as cusip with PENDING status,"CUSIP_CODE = ""8211GTF97 as cusip""AND NRML_STATUS = ""PENDING status"""
PENDING status trades for 8211GTF97 as cusip,"CUSIP_CODE = ""8211GTF97 as cusip""AND NRML_STATUS = ""PENDING status"""
8211GTF97 as cusip trades with PENDING status,"CUSIP_CODE = ""8211GTF97 as cusip""AND NRML_STATUS = ""PENDING status"""
trades for 8211GTF97 as cusip with SETTLED status,"CUSIP_CODE = ""8211GTF97 as cusip""AND NRML_STATUS = ""SETTLED status"""
SETTLED status trades for 8211GTF97 as cusip,"CUSIP_CODE = ""8211GTF97 as cusip""AND NRML_STATUS = ""SETTLED status"""
8211GTF97 as cusip trades with SETTLED status,"CUSIP_CODE = ""8211GTF97 as cusip""AND NRML_STATUS = ""SETTLED status"""
trades for 8211GTF97 as cusip with MATCHED status,"CUSIP_CODE = ""8211GTF97 as cusip""AND NRML_STATUS = ""MATCHED status"""
MATCHED status trades for 8211GTF97 as cusip,"CUSIP_CODE = ""8211GTF97 as cusip""AND NRML_STATUS = ""MATCHED status"""
8211GTF97 as cusip trades with MATCHED status,"CUSIP_CODE = ""8211GTF97 as cusip""AND NRML_STATUS = ""MATCHED status"""
trades for 8211GTF97 as cusip with CANCELLED status,"CUSIP_CODE = ""8211GTF97 as cusip""AND NRML_STATUS = ""CANCELLED status"""
CANCELLED status trades for 8211GTF97 as cusip,"CUSIP_CODE = ""8211GTF97 as cusip""AND NRML_STATUS = ""CANCELLED status"""
8211GTF97 as cusip trades with CANCELLED status,"CUSIP_CODE = ""8211GTF97 as cusip""AND NRML_STATUS = ""CANCELLED status"""
trades for 8211GTF97 as cusip with UNMATCHED status,"CUSIP_CODE = ""8211GTF97 as cusip""AND NRML_STATUS = ""UNMATCHED status"""
UNMATCHED status trades for 8211GTF97 as cusip,"CUSIP_CODE = ""8211GTF97 as cusip""AND NRML_STATUS = ""UNMATCHED status"""
8211GTF97 as cusip trades with UNMATCHED status,"CUSIP_CODE = ""8211GTF97 as cusip""AND NRML_STATUS = ""UNMATCHED status"""
trades for 8211GTF97 as cusip with OPEN status,"CUSIP_CODE = ""8211GTF97 as cusip""AND NRML_STATUS = ""OPEN status"""
OPEN status trades for 8211GTF97 as cusip,"CUSIP_CODE = ""8211GTF97 as cusip""AND NRML_STATUS = ""OPEN status"""
8211GTF97 as cusip trades with OPEN status,"CUSIP_CODE = ""8211GTF97 as cusip""AND NRML_STATUS = ""OPEN status"""
trades for 8211GTF97 as cusip with UNINSTRUCTED status,"CUSIP_CODE = ""8211GTF97 as cusip""AND NRML_STATUS = ""UNINSTRUCTED status"""
UNINSTRUCTED status trades for 8211GTF97 as cusip,"CUSIP_CODE = ""8211GTF97 as cusip""AND NRML_STATUS = ""UNINSTRUCTED status"""
8211GTF97 as cusip trades with UNINSTRUCTED status,"CUSIP_CODE = ""8211GTF97 as cusip""AND NRML_STATUS = ""UNINSTRUCTED status"""
trades for 8211GTF97 as cusip with INSTRUCTED status,"CUSIP_CODE = ""8211GTF97 as cusip""AND NRML_STATUS = ""INSTRUCTED status"""
INSTRUCTED status trades for 8211GTF97 as cusip,"CUSIP_CODE = ""8211GTF97 as cusip""AND NRML_STATUS = ""INSTRUCTED status"""
8211GTF97 as cusip trades with INSTRUCTED status,"CUSIP_CODE = ""8211GTF97 as cusip""AND NRML_STATUS = ""INSTRUCTED status"""
trades for 43675D7KT as cusip with PENDING status,"CUSIP_CODE = ""43675D7KT as cusip""AND NRML_STATUS = ""PENDING status"""
PENDING status trades for 43675D7KT as cusip,"CUSIP_CODE = ""43675D7KT as cusip""AND NRML_STATUS = ""PENDING status"""
43675D7KT as cusip trades with PENDING status,"CUSIP_CODE = ""43675D7KT as cusip""AND NRML_STATUS = ""PENDING status"""
trades for 43675D7KT as cusip with SETTLED status,"CUSIP_CODE = ""43675D7KT as cusip""AND NRML_STATUS = ""SETTLED status"""
SETTLED status trades for 43675D7KT as cusip,"CUSIP_CODE = ""43675D7KT as cusip""AND NRML_STATUS = ""SETTLED status"""
43675D7KT as cusip trades with SETTLED status,"CUSIP_CODE = ""43675D7KT as cusip""AND NRML_STATUS = ""SETTLED status"""
trades for 43675D7KT as cusip with MATCHED status,"CUSIP_CODE = ""43675D7KT as cusip""AND NRML_STATUS = ""MATCHED status"""
MATCHED status trades for 43675D7KT as cusip,"CUSIP_CODE = ""43675D7KT as cusip""AND NRML_STATUS = ""MATCHED status"""
43675D7KT as cusip trades with MATCHED status,"CUSIP_CODE = ""43675D7KT as cusip""AND NRML_STATUS = ""MATCHED status"""
trades for 43675D7KT as cusip with CANCELLED status,"CUSIP_CODE = ""43675D7KT as cusip""AND NRML_STATUS = ""CANCELLED status"""
CANCELLED status trades for 43675D7KT as cusip,"CUSIP_CODE = ""43675D7KT as cusip""AND NRML_STATUS = ""CANCELLED status"""
43675D7KT as cusip trades with CANCELLED status,"CUSIP_CODE = ""43675D7KT as cusip""AND NRML_STATUS = ""CANCELLED status"""
trades for 43675D7KT as cusip with UNMATCHED status,"CUSIP_CODE = ""43675D7KT as cusip""AND NRML_STATUS = ""UNMATCHED status"""
UNMATCHED status trades for 43675D7KT as cusip,"CUSIP_CODE = ""43675D7KT as cusip""AND NRML_STATUS = ""UNMATCHED status"""
43675D7KT as cusip trades with UNMATCHED status,"CUSIP_CODE = ""43675D7KT as cusip""AND NRML_STATUS = ""UNMATCHED status"""
trades for 43675D7KT as cusip with OPEN status,"CUSIP_CODE = ""43675D7KT as cusip""AND NRML_STATUS = ""OPEN status"""
OPEN status trades for 43675D7KT as cusip,"CUSIP_CODE = ""43675D7KT as cusip""AND NRML_STATUS = ""OPEN status"""
43675D7KT as cusip trades with OPEN status,"CUSIP_CODE = ""43675D7KT as cusip""AND NRML_STATUS = ""OPEN status"""
trades for 43675D7KT as cusip with UNINSTRUCTED status,"CUSIP_CODE = ""43675D7KT as cusip""AND NRML_STATUS = ""UNINSTRUCTED status"""
UNINSTRUCTED status trades for 43675D7KT as cusip,"CUSIP_CODE = ""43675D7KT as cusip""AND NRML_STATUS = ""UNINSTRUCTED status"""
43675D7KT as cusip trades with UNINSTRUCTED status,"CUSIP_CODE = ""43675D7KT as cusip""AND NRML_STATUS = ""UNINSTRUCTED status"""
trades for 43675D7KT as cusip with INSTRUCTED status,"CUSIP_CODE = ""43675D7KT as cusip""AND NRML_STATUS = ""INSTRUCTED status"""
INSTRUCTED status trades for 43675D7KT as cusip,"CUSIP_CODE = ""43675D7KT as cusip""AND NRML_STATUS = ""INSTRUCTED status"""
43675D7KT as cusip trades with INSTRUCTED status,"CUSIP_CODE = ""43675D7KT as cusip""AND NRML_STATUS = ""INSTRUCTED status"""
trades for 8478937FE as cusip with PENDING status,"CUSIP_CODE = ""8478937FE as cusip""AND NRML_STATUS = ""PENDING status"""
PENDING status trades for 8478937FE as cusip,"CUSIP_CODE = ""8478937FE as cusip""AND NRML_STATUS = ""PENDING status"""
8478937FE as cusip trades with PENDING status,"CUSIP_CODE = ""8478937FE as cusip""AND NRML_STATUS = ""PENDING status"""
trades for 8478937FE as cusip with SETTLED status,"CUSIP_CODE = ""8478937FE as cusip""AND NRML_STATUS = ""SETTLED status"""
SETTLED status trades for 8478937FE as cusip,"CUSIP_CODE = ""8478937FE as cusip""AND NRML_STATUS = ""SETTLED status"""
8478937FE as cusip trades with SETTLED status,"CUSIP_CODE = ""8478937FE as cusip""AND NRML_STATUS = ""SETTLED status"""
trades for 8478937FE as cusip with MATCHED status,"CUSIP_CODE = ""8478937FE as cusip""AND NRML_STATUS = ""MATCHED status"""
MATCHED status trades for 8478937FE as cusip,"CUSIP_CODE = ""8478937FE as cusip""AND NRML_STATUS = ""MATCHED status"""
8478937FE as cusip trades with MATCHED status,"CUSIP_CODE = ""8478937FE as cusip""AND NRML_STATUS = ""MATCHED status"""
trades for 8478937FE as cusip with CANCELLED status,"CUSIP_CODE = ""8478937FE as cusip""AND NRML_STATUS = ""CANCELLED status"""
CANCELLED status trades for 8478937FE as cusip,"CUSIP_CODE = ""8478937FE as cusip""AND NRML_STATUS = ""CANCELLED status"""
8478937FE as cusip trades with CANCELLED status,"CUSIP_CODE = ""8478937FE as cusip""AND NRML_STATUS = ""CANCELLED status"""
trades for 8478937FE as cusip with UNMATCHED status,"CUSIP_CODE = ""8478937FE as cusip""AND NRML_STATUS = ""UNMATCHED status"""
UNMATCHED status trades for 8478937FE as cusip,"CUSIP_CODE = ""8478937FE as cusip""AND NRML_STATUS = ""UNMATCHED status"""
8478937FE as cusip trades with UNMATCHED status,"CUSIP_CODE = ""8478937FE as cusip""AND NRML_STATUS = ""UNMATCHED status"""
trades for 8478937FE as cusip with OPEN status,"CUSIP_CODE = ""8478937FE as cusip""AND NRML_STATUS = ""OPEN status"""
OPEN status trades for 8478937FE as cusip,"CUSIP_CODE = ""8478937FE as cusip""AND NRML_STATUS = ""OPEN status"""
8478937FE as cusip trades with OPEN status,"CUSIP_CODE = ""8478937FE as cusip""AND NRML_STATUS = ""OPEN status"""
trades for 8478937FE as cusip with UNINSTRUCTED status,"CUSIP_CODE = ""8478937FE as cusip""AND NRML_STATUS = ""UNINSTRUCTED status"""
UNINSTRUCTED status trades for 8478937FE as cusip,"CUSIP_CODE = ""8478937FE as cusip""AND NRML_STATUS = ""UNINSTRUCTED status"""
8478937FE as cusip trades with UNINSTRUCTED status,"CUSIP_CODE = ""8478937FE as cusip""AND NRML_STATUS = ""UNINSTRUCTED status"""
trades for 8478937FE as cusip with INSTRUCTED status,"CUSIP_CODE = ""8478937FE as cusip""AND NRML_STATUS = ""INSTRUCTED status"""
INSTRUCTED status trades for 8478937FE as cusip,"CUSIP_CODE = ""8478937FE as cusip""AND NRML_STATUS = ""INSTRUCTED status"""
8478937FE as cusip trades with INSTRUCTED status,"CUSIP_CODE = ""8478937FE as cusip""AND NRML_STATUS = ""INSTRUCTED status"""
trades for 5C00GJ9M4 as cusip with PENDING status,"CUSIP_CODE = ""5C00GJ9M4 as cusip""AND NRML_STATUS = ""PENDING status"""
PENDING status trades for 5C00GJ9M4 as cusip,"CUSIP_CODE = ""5C00GJ9M4 as cusip""AND NRML_STATUS = ""PENDING status"""
5C00GJ9M4 as cusip trades with PENDING status,"CUSIP_CODE = ""5C00GJ9M4 as cusip""AND NRML_STATUS = ""PENDING status"""
trades for 5C00GJ9M4 as cusip with SETTLED status,"CUSIP_CODE = ""5C00GJ9M4 as cusip""AND NRML_STATUS = ""SETTLED status"""
SETTLED status trades for 5C00GJ9M4 as cusip,"CUSIP_CODE = ""5C00GJ9M4 as cusip""AND NRML_STATUS = ""SETTLED status"""
5C00GJ9M4 as cusip trades with SETTLED status,"CUSIP_CODE = ""5C00GJ9M4 as cusip""AND NRML_STATUS = ""SETTLED status"""
trades for 5C00GJ9M4 as cusip with MATCHED status,"CUSIP_CODE = ""5C00GJ9M4 as cusip""AND NRML_STATUS = ""MATCHED status"""
MATCHED status trades for 5C00GJ9M4 as cusip,"CUSIP_CODE = ""5C00GJ9M4 as cusip""AND NRML_STATUS = ""MATCHED status"""
5C00GJ9M4 as cusip trades with MATCHED status,"CUSIP_CODE = ""5C00GJ9M4 as cusip""AND NRML_STATUS = ""MATCHED status"""
trades for 5C00GJ9M4 as cusip with CANCELLED status,"CUSIP_CODE = ""5C00GJ9M4 as cusip""AND NRML_STATUS = ""CANCELLED status"""
CANCELLED status trades for 5C00GJ9M4 as cusip,"CUSIP_CODE = ""5C00GJ9M4 as cusip""AND NRML_STATUS = ""CANCELLED status"""
5C00GJ9M4 as cusip trades with CANCELLED status,"CUSIP_CODE = ""5C00GJ9M4 as cusip""AND NRML_STATUS = ""CANCELLED status"""
trades for 5C00GJ9M4 as cusip with UNMATCHED status,"CUSIP_CODE = ""5C00GJ9M4 as cusip""AND NRML_STATUS = ""UNMATCHED status"""
UNMATCHED status trades for 5C00GJ9M4 as cusip,"CUSIP_CODE = ""5C00GJ9M4 as cusip""AND NRML_STATUS = ""UNMATCHED status"""
5C00GJ9M4 as cusip trades with UNMATCHED status,"CUSIP_CODE = ""5C00GJ9M4 as cusip""AND NRML_STATUS = ""UNMATCHED status"""
trades for 5C00GJ9M4 as cusip with OPEN status,"CUSIP_CODE = ""5C00GJ9M4 as cusip""AND NRML_STATUS = ""OPEN status"""
OPEN status trades for 5C00GJ9M4 as cusip,"CUSIP_CODE = ""5C00GJ9M4 as cusip""AND NRML_STATUS = ""OPEN status"""
5C00GJ9M4 as cusip trades with OPEN status,"CUSIP_CODE = ""5C00GJ9M4 as cusip""AND NRML_STATUS = ""OPEN status"""
trades for 5C00GJ9M4 as cusip with UNINSTRUCTED status,"CUSIP_CODE = ""5C00GJ9M4 as cusip""AND NRML_STATUS = ""UNINSTRUCTED status"""
UNINSTRUCTED status trades for 5C00GJ9M4 as cusip,"CUSIP_CODE = ""5C00GJ9M4 as cusip""AND NRML_STATUS = ""UNINSTRUCTED status"""
5C00GJ9M4 as cusip trades with UNINSTRUCTED status,"CUSIP_CODE = ""5C00GJ9M4 as cusip""AND NRML_STATUS = ""UNINSTRUCTED status"""
trades for 5C00GJ9M4 as cusip with INSTRUCTED status,"CUSIP_CODE = ""5C00GJ9M4 as cusip""AND NRML_STATUS = ""INSTRUCTED status"""
INSTRUCTED status trades for 5C00GJ9M4 as cusip,"CUSIP_CODE = ""5C00GJ9M4 as cusip""AND NRML_STATUS = ""INSTRUCTED status"""
5C00GJ9M4 as cusip trades with INSTRUCTED status,"CUSIP_CODE = ""5C00GJ9M4 as cusip""AND NRML_STATUS = ""INSTRUCTED status"""
trades for 43675D7KT as cusip with PENDING status,"CUSIP_CODE = ""43675D7KT as cusip""AND NRML_STATUS = ""PENDING status"""
PENDING status trades for 43675D7KT as cusip,"CUSIP_CODE = ""43675D7KT as cusip""AND NRML_STATUS = ""PENDING status"""
43675D7KT as cusip trades with PENDING status,"CUSIP_CODE = ""43675D7KT as cusip""AND NRML_STATUS = ""PENDING status"""
trades for 43675D7KT as cusip with SETTLED status,"CUSIP_CODE = ""43675D7KT as cusip""AND NRML_STATUS = ""SETTLED status"""
SETTLED status trades for 43675D7KT as cusip,"CUSIP_CODE = ""43675D7KT as cusip""AND NRML_STATUS = ""SETTLED status"""
43675D7KT as cusip trades with SETTLED status,"CUSIP_CODE = ""43675D7KT as cusip""AND NRML_STATUS = ""SETTLED status"""
trades for 43675D7KT as cusip with MATCHED status,"CUSIP_CODE = ""43675D7KT as cusip""AND NRML_STATUS = ""MATCHED status"""
MATCHED status trades for 43675D7KT as cusip,"CUSIP_CODE = ""43675D7KT as cusip""AND NRML_STATUS = ""MATCHED status"""
43675D7KT as cusip trades with MATCHED status,"CUSIP_CODE = ""43675D7KT as cusip""AND NRML_STATUS = ""MATCHED status"""
trades for 43675D7KT as cusip with CANCELLED status,"CUSIP_CODE = ""43675D7KT as cusip""AND NRML_STATUS = ""CANCELLED status"""
CANCELLED status trades for 43675D7KT as cusip,"CUSIP_CODE = ""43675D7KT as cusip""AND NRML_STATUS = ""CANCELLED status"""
43675D7KT as cusip trades with CANCELLED status,"CUSIP_CODE = ""43675D7KT as cusip""AND NRML_STATUS = ""CANCELLED status"""
trades for 43675D7KT as cusip with UNMATCHED status,"CUSIP_CODE = ""43675D7KT as cusip""AND NRML_STATUS = ""UNMATCHED status"""
UNMATCHED status trades for 43675D7KT as cusip,"CUSIP_CODE = ""43675D7KT as cusip""AND NRML_STATUS = ""UNMATCHED status"""
43675D7KT as cusip trades with UNMATCHED status,"CUSIP_CODE = ""43675D7KT as cusip""AND NRML_STATUS = ""UNMATCHED status"""
trades for 43675D7KT as cusip with OPEN status,"CUSIP_CODE = ""43675D7KT as cusip""AND NRML_STATUS = ""OPEN status"""
OPEN status trades for 43675D7KT as cusip,"CUSIP_CODE = ""43675D7KT as cusip""AND NRML_STATUS = ""OPEN status"""
43675D7KT as cusip trades with OPEN status,"CUSIP_CODE = ""43675D7KT as cusip""AND NRML_STATUS = ""OPEN status"""
trades for 43675D7KT as cusip with UNINSTRUCTED status,"CUSIP_CODE = ""43675D7KT as cusip""AND NRML_STATUS = ""UNINSTRUCTED status"""
UNINSTRUCTED status trades for 43675D7KT as cusip,"CUSIP_CODE = ""43675D7KT as cusip""AND NRML_STATUS = ""UNINSTRUCTED status"""
43675D7KT as cusip trades with UNINSTRUCTED status,"CUSIP_CODE = ""43675D7KT as cusip""AND NRML_STATUS = ""UNINSTRUCTED status"""
trades for 43675D7KT as cusip with INSTRUCTED status,"CUSIP_CODE = ""43675D7KT as cusip""AND NRML_STATUS = ""INSTRUCTED status"""
INSTRUCTED status trades for 43675D7KT as cusip,"CUSIP_CODE = ""43675D7KT as cusip""AND NRML_STATUS = ""INSTRUCTED status"""
43675D7KT as cusip trades with INSTRUCTED status,"CUSIP_CODE = ""43675D7KT as cusip""AND NRML_STATUS = ""INSTRUCTED status"""
trades for 8478937FE as cusip with PENDING status,"CUSIP_CODE = ""8478937FE as cusip""AND NRML_STATUS = ""PENDING status"""
PENDING status trades for 8478937FE as cusip,"CUSIP_CODE = ""8478937FE as cusip""AND NRML_STATUS = ""PENDING status"""
8478937FE as cusip trades with PENDING status,"CUSIP_CODE = ""8478937FE as cusip""AND NRML_STATUS = ""PENDING status"""
trades for 8478937FE as cusip with SETTLED status,"CUSIP_CODE = ""8478937FE as cusip""AND NRML_STATUS = ""SETTLED status"""
SETTLED status trades for 8478937FE as cusip,"CUSIP_CODE = ""8478937FE as cusip""AND NRML_STATUS = ""SETTLED status"""
8478937FE as cusip trades with SETTLED status,"CUSIP_CODE = ""8478937FE as cusip""AND NRML_STATUS = ""SETTLED status"""
trades for 8478937FE as cusip with MATCHED status,"CUSIP_CODE = ""8478937FE as cusip""AND NRML_STATUS = ""MATCHED status"""
MATCHED status trades for 8478937FE as cusip,"CUSIP_CODE = ""8478937FE as cusip""AND NRML_STATUS = ""MATCHED status"""
8478937FE as cusip trades with MATCHED status,"CUSIP_CODE = ""8478937FE as cusip""AND NRML_STATUS = ""MATCHED status"""
trades for 8478937FE as cusip with CANCELLED status,"CUSIP_CODE = ""8478937FE as cusip""AND NRML_STATUS = ""CANCELLED status"""
CANCELLED status trades for 8478937FE as cusip,"CUSIP_CODE = ""8478937FE as cusip""AND NRML_STATUS = ""CANCELLED status"""
8478937FE as cusip trades with CANCELLED status,"CUSIP_CODE = ""8478937FE as cusip""AND NRML_STATUS = ""CANCELLED status"""
trades for 8478937FE as cusip with UNMATCHED status,"CUSIP_CODE = ""8478937FE as cusip""AND NRML_STATUS = ""UNMATCHED status"""
UNMATCHED status trades for 8478937FE as cusip,"CUSIP_CODE = ""8478937FE as cusip""AND NRML_STATUS = ""UNMATCHED status"""
8478937FE as cusip trades with UNMATCHED status,"CUSIP_CODE = ""8478937FE as cusip""AND NRML_STATUS = ""UNMATCHED status"""
trades for 8478937FE as cusip with OPEN status,"CUSIP_CODE = ""8478937FE as cusip""AND NRML_STATUS = ""OPEN status"""
OPEN status trades for 8478937FE as cusip,"CUSIP_CODE = ""8478937FE as cusip""AND NRML_STATUS = ""OPEN status"""
8478937FE as cusip trades with OPEN status,"CUSIP_CODE = ""8478937FE as cusip""AND NRML_STATUS = ""OPEN status"""
trades for 8478937FE as cusip with UNINSTRUCTED status,"CUSIP_CODE = ""8478937FE as cusip""AND NRML_STATUS = ""UNINSTRUCTED status"""
UNINSTRUCTED status trades for 8478937FE as cusip,"CUSIP_CODE = ""8478937FE as cusip""AND NRML_STATUS = ""UNINSTRUCTED status"""
8478937FE as cusip trades with UNINSTRUCTED status,"CUSIP_CODE = ""8478937FE as cusip""AND NRML_STATUS = ""UNINSTRUCTED status"""
trades for 8478937FE as cusip with INSTRUCTED status,"CUSIP_CODE = ""8478937FE as cusip""AND NRML_STATUS = ""INSTRUCTED status"""
INSTRUCTED status trades for 8478937FE as cusip,"CUSIP_CODE = ""8478937FE as cusip""AND NRML_STATUS = ""INSTRUCTED status"""
8478937FE as cusip trades with INSTRUCTED status,"CUSIP_CODE = ""8478937FE as cusip""AND NRML_STATUS = ""INSTRUCTED status"""
trades for 5C00GJ9M4 as cusip with PENDING status,"CUSIP_CODE = ""5C00GJ9M4 as cusip""AND NRML_STATUS = ""PENDING status"""
PENDING status trades for 5C00GJ9M4 as cusip,"CUSIP_CODE = ""5C00GJ9M4 as cusip""AND NRML_STATUS = ""PENDING status"""
5C00GJ9M4 as cusip trades with PENDING status,"CUSIP_CODE = ""5C00GJ9M4 as cusip""AND NRML_STATUS = ""PENDING status"""
trades for 5C00GJ9M4 as cusip with SETTLED status,"CUSIP_CODE = ""5C00GJ9M4 as cusip""AND NRML_STATUS = ""SETTLED status"""
SETTLED status trades for 5C00GJ9M4 as cusip,"CUSIP_CODE = ""5C00GJ9M4 as cusip""AND NRML_STATUS = ""SETTLED status"""
5C00GJ9M4 as cusip trades with SETTLED status,"CUSIP_CODE = ""5C00GJ9M4 as cusip""AND NRML_STATUS = ""SETTLED status"""
trades for 5C00GJ9M4 as cusip with MATCHED status,"CUSIP_CODE = ""5C00GJ9M4 as cusip""AND NRML_STATUS = ""MATCHED status"""
MATCHED status trades for 5C00GJ9M4 as cusip,"CUSIP_CODE = ""5C00GJ9M4 as cusip""AND NRML_STATUS = ""MATCHED status"""
5C00GJ9M4 as cusip trades with MATCHED status,"CUSIP_CODE = ""5C00GJ9M4 as cusip""AND NRML_STATUS = ""MATCHED status"""
trades for 5C00GJ9M4 as cusip with CANCELLED status,"CUSIP_CODE = ""5C00GJ9M4 as cusip""AND NRML_STATUS = ""CANCELLED status"""
CANCELLED status trades for 5C00GJ9M4 as cusip,"CUSIP_CODE = ""5C00GJ9M4 as cusip""AND NRML_STATUS = ""CANCELLED status"""
5C00GJ9M4 as cusip trades with CANCELLED status,"CUSIP_CODE = ""5C00GJ9M4 as cusip""AND NRML_STATUS = ""CANCELLED status"""
trades for 5C00GJ9M4 as cusip with UNMATCHED status,"CUSIP_CODE = ""5C00GJ9M4 as cusip""AND NRML_STATUS = ""UNMATCHED status"""
UNMATCHED status trades for 5C00GJ9M4 as cusip,"CUSIP_CODE = ""5C00GJ9M4 as cusip""AND NRML_STATUS = ""UNMATCHED status"""
5C00GJ9M4 as cusip trades with UNMATCHED status,"CUSIP_CODE = ""5C00GJ9M4 as cusip""AND NRML_STATUS = ""UNMATCHED status"""
trades for 5C00GJ9M4 as cusip with OPEN status,"CUSIP_CODE = ""5C00GJ9M4 as cusip""AND NRML_STATUS = ""OPEN status"""
OPEN status trades for 5C00GJ9M4 as cusip,"CUSIP_CODE = ""5C00GJ9M4 as cusip""AND NRML_STATUS = ""OPEN status"""
5C00GJ9M4 as cusip trades with OPEN status,"CUSIP_CODE = ""5C00GJ9M4 as cusip""AND NRML_STATUS = ""OPEN status"""
trades for 5C00GJ9M4 as cusip with UNINSTRUCTED status,"CUSIP_CODE = ""5C00GJ9M4 as cusip""AND NRML_STATUS = ""UNINSTRUCTED status"""
UNINSTRUCTED status trades for 5C00GJ9M4 as cusip,"CUSIP_CODE = ""5C00GJ9M4 as cusip""AND NRML_STATUS = ""UNINSTRUCTED status"""
5C00GJ9M4 as cusip trades with UNINSTRUCTED status,"CUSIP_CODE = ""5C00GJ9M4 as cusip""AND NRML_STATUS = ""UNINSTRUCTED status"""
trades for 5C00GJ9M4 as cusip with INSTRUCTED status,"CUSIP_CODE = ""5C00GJ9M4 as cusip""AND NRML_STATUS = ""INSTRUCTED status"""
INSTRUCTED status trades for 5C00GJ9M4 as cusip,"CUSIP_CODE = ""5C00GJ9M4 as cusip""AND NRML_STATUS = ""INSTRUCTED status"""
5C00GJ9M4 as cusip trades with INSTRUCTED status,"CUSIP_CODE = ""5C00GJ9M4 as cusip""AND NRML_STATUS = ""INSTRUCTED status"""
trades for DF789BDH0 as cusip with PENDING status,"CUSIP_CODE = ""DF789BDH0 as cusip""AND NRML_STATUS = ""PENDING status"""
PENDING status trades for DF789BDH0 as cusip,"CUSIP_CODE = ""DF789BDH0 as cusip""AND NRML_STATUS = ""PENDING status"""
DF789BDH0 as cusip trades with PENDING status,"CUSIP_CODE = ""DF789BDH0 as cusip""AND NRML_STATUS = ""PENDING status"""
trades for DF789BDH0 as cusip with SETTLED status,"CUSIP_CODE = ""DF789BDH0 as cusip""AND NRML_STATUS = ""SETTLED status"""
SETTLED status trades for DF789BDH0 as cusip,"CUSIP_CODE = ""DF789BDH0 as cusip""AND NRML_STATUS = ""SETTLED status"""
DF789BDH0 as cusip trades with SETTLED status,"CUSIP_CODE = ""DF789BDH0 as cusip""AND NRML_STATUS = ""SETTLED status"""
trades for DF789BDH0 as cusip with MATCHED status,"CUSIP_CODE = ""DF789BDH0 as cusip""AND NRML_STATUS = ""MATCHED status"""
MATCHED status trades for DF789BDH0 as cusip,"CUSIP_CODE = ""DF789BDH0 as cusip""AND NRML_STATUS = ""MATCHED status"""
DF789BDH0 as cusip trades with MATCHED status,"CUSIP_CODE = ""DF789BDH0 as cusip""AND NRML_STATUS = ""MATCHED status"""
trades for DF789BDH0 as cusip with CANCELLED status,"CUSIP_CODE = ""DF789BDH0 as cusip""AND NRML_STATUS = ""CANCELLED status"""
CANCELLED status trades for DF789BDH0 as cusip,"CUSIP_CODE = ""DF789BDH0 as cusip""AND NRML_STATUS = ""CANCELLED status"""
DF789BDH0 as cusip trades with CANCELLED status,"CUSIP_CODE = ""DF789BDH0 as cusip""AND NRML_STATUS = ""CANCELLED status"""
trades for DF789BDH0 as cusip with UNMATCHED status,"CUSIP_CODE = ""DF789BDH0 as cusip""AND NRML_STATUS = ""UNMATCHED status"""
UNMATCHED status trades for DF789BDH0 as cusip,"CUSIP_CODE = ""DF789BDH0 as cusip""AND NRML_STATUS = ""UNMATCHED status"""
DF789BDH0 as cusip trades with UNMATCHED status,"CUSIP_CODE = ""DF789BDH0 as cusip""AND NRML_STATUS = ""UNMATCHED status"""
trades for DF789BDH0 as cusip with OPEN status,"CUSIP_CODE = ""DF789BDH0 as cusip""AND NRML_STATUS = ""OPEN status"""
OPEN status trades for DF789BDH0 as cusip,"CUSIP_CODE = ""DF789BDH0 as cusip""AND NRML_STATUS = ""OPEN status"""
DF789BDH0 as cusip trades with OPEN status,"CUSIP_CODE = ""DF789BDH0 as cusip""AND NRML_STATUS = ""OPEN status"""
trades for DF789BDH0 as cusip with UNINSTRUCTED status,"CUSIP_CODE = ""DF789BDH0 as cusip""AND NRML_STATUS = ""UNINSTRUCTED status"""
UNINSTRUCTED status trades for DF789BDH0 as cusip,"CUSIP_CODE = ""DF789BDH0 as cusip""AND NRML_STATUS = ""UNINSTRUCTED status"""
DF789BDH0 as cusip trades with UNINSTRUCTED status,"CUSIP_CODE = ""DF789BDH0 as cusip""AND NRML_STATUS = ""UNINSTRUCTED status"""
trades for DF789BDH0 as cusip with INSTRUCTED status,"CUSIP_CODE = ""DF789BDH0 as cusip""AND NRML_STATUS = ""INSTRUCTED status"""
INSTRUCTED status trades for DF789BDH0 as cusip,"CUSIP_CODE = ""DF789BDH0 as cusip""AND NRML_STATUS = ""INSTRUCTED status"""
DF789BDH0 as cusip trades with INSTRUCTED status,"CUSIP_CODE = ""DF789BDH0 as cusip""AND NRML_STATUS = ""INSTRUCTED status"""
trades for G87621101 as cusip with PENDING status,"CUSIP_CODE = ""G87621101 as cusip""AND NRML_STATUS = ""PENDING status"""
PENDING status trades for G87621101 as cusip,"CUSIP_CODE = ""G87621101 as cusip""AND NRML_STATUS = ""PENDING status"""
G87621101 as cusip trades with PENDING status,"CUSIP_CODE = ""G87621101 as cusip""AND NRML_STATUS = ""PENDING status"""
trades for G87621101 as cusip with SETTLED status,"CUSIP_CODE = ""G87621101 as cusip""AND NRML_STATUS = ""SETTLED status"""
SETTLED status trades for G87621101 as cusip,"CUSIP_CODE = ""G87621101 as cusip""AND NRML_STATUS = ""SETTLED status"""
G87621101 as cusip trades with SETTLED status,"CUSIP_CODE = ""G87621101 as cusip""AND NRML_STATUS = ""SETTLED status"""
trades for G87621101 as cusip with MATCHED status,"CUSIP_CODE = ""G87621101 as cusip""AND NRML_STATUS = ""MATCHED status"""
MATCHED status trades for G87621101 as cusip,"CUSIP_CODE = ""G87621101 as cusip""AND NRML_STATUS = ""MATCHED status"""
G87621101 as cusip trades with MATCHED status,"CUSIP_CODE = ""G87621101 as cusip""AND NRML_STATUS = ""MATCHED status"""
trades for G87621101 as cusip with CANCELLED status,"CUSIP_CODE = ""G87621101 as cusip""AND NRML_STATUS = ""CANCELLED status"""
CANCELLED status trades for G87621101 as cusip,"CUSIP_CODE = ""G87621101 as cusip""AND NRML_STATUS = ""CANCELLED status"""
G87621101 as cusip trades with CANCELLED status,"CUSIP_CODE = ""G87621101 as cusip""AND NRML_STATUS = ""CANCELLED status"""
trades for G87621101 as cusip with UNMATCHED status,"CUSIP_CODE = ""G87621101 as cusip""AND NRML_STATUS = ""UNMATCHED status"""
UNMATCHED status trades for G87621101 as cusip,"CUSIP_CODE = ""G87621101 as cusip""AND NRML_STATUS = ""UNMATCHED status"""
G87621101 as cusip trades with UNMATCHED status,"CUSIP_CODE = ""G87621101 as cusip""AND NRML_STATUS = ""UNMATCHED status"""
trades for G87621101 as cusip with OPEN status,"CUSIP_CODE = ""G87621101 as cusip""AND NRML_STATUS = ""OPEN status"""
OPEN status trades for G87621101 as cusip,"CUSIP_CODE = ""G87621101 as cusip""AND NRML_STATUS = ""OPEN status"""
G87621101 as cusip trades with OPEN status,"CUSIP_CODE = ""G87621101 as cusip""AND NRML_STATUS = ""OPEN status"""
trades for G87621101 as cusip with UNINSTRUCTED status,"CUSIP_CODE = ""G87621101 as cusip""AND NRML_STATUS = ""UNINSTRUCTED status"""
UNINSTRUCTED status trades for G87621101 as cusip,"CUSIP_CODE = ""G87621101 as cusip""AND NRML_STATUS = ""UNINSTRUCTED status"""
G87621101 as cusip trades with UNINSTRUCTED status,"CUSIP_CODE = ""G87621101 as cusip""AND NRML_STATUS = ""UNINSTRUCTED status"""
trades for G87621101 as cusip with INSTRUCTED status,"CUSIP_CODE = ""G87621101 as cusip""AND NRML_STATUS = ""INSTRUCTED status"""
INSTRUCTED status trades for G87621101 as cusip,"CUSIP_CODE = ""G87621101 as cusip""AND NRML_STATUS = ""INSTRUCTED status"""
G87621101 as cusip trades with INSTRUCTED status,"CUSIP_CODE = ""G87621101 as cusip""AND NRML_STATUS = ""INSTRUCTED status"""
trades for Y7117N172 as cusip with PENDING status,"CUSIP_CODE = ""Y7117N172 as cusip""AND NRML_STATUS = ""PENDING status"""
PENDING status trades for Y7117N172 as cusip,"CUSIP_CODE = ""Y7117N172 as cusip""AND NRML_STATUS = ""PENDING status"""
Y7117N172 as cusip trades with PENDING status,"CUSIP_CODE = ""Y7117N172 as cusip""AND NRML_STATUS = ""PENDING status"""
trades for Y7117N172 as cusip with SETTLED status,"CUSIP_CODE = ""Y7117N172 as cusip""AND NRML_STATUS = ""SETTLED status"""
SETTLED status trades for Y7117N172 as cusip,"CUSIP_CODE = ""Y7117N172 as cusip""AND NRML_STATUS = ""SETTLED status"""
Y7117N172 as cusip trades with SETTLED status,"CUSIP_CODE = ""Y7117N172 as cusip""AND NRML_STATUS = ""SETTLED status"""
trades for Y7117N172 as cusip with MATCHED status,"CUSIP_CODE = ""Y7117N172 as cusip""AND NRML_STATUS = ""MATCHED status"""
MATCHED status trades for Y7117N172 as cusip,"CUSIP_CODE = ""Y7117N172 as cusip""AND NRML_STATUS = ""MATCHED status"""
Y7117N172 as cusip trades with MATCHED status,"CUSIP_CODE = ""Y7117N172 as cusip""AND NRML_STATUS = ""MATCHED status"""
trades for Y7117N172 as cusip with CANCELLED status,"CUSIP_CODE = ""Y7117N172 as cusip""AND NRML_STATUS = ""CANCELLED status"""
CANCELLED status trades for Y7117N172 as cusip,"CUSIP_CODE = ""Y7117N172 as cusip""AND NRML_STATUS = ""CANCELLED status"""
Y7117N172 as cusip trades with CANCELLED status,"CUSIP_CODE = ""Y7117N172 as cusip""AND NRML_STATUS = ""CANCELLED status"""
trades for Y7117N172 as cusip with UNMATCHED status,"CUSIP_CODE = ""Y7117N172 as cusip""AND NRML_STATUS = ""UNMATCHED status"""
UNMATCHED status trades for Y7117N172 as cusip,"CUSIP_CODE = ""Y7117N172 as cusip""AND NRML_STATUS = ""UNMATCHED status"""
Y7117N172 as cusip trades with UNMATCHED status,"CUSIP_CODE = ""Y7117N172 as cusip""AND NRML_STATUS = ""UNMATCHED status"""
trades for Y7117N172 as cusip with OPEN status,"CUSIP_CODE = ""Y7117N172 as cusip""AND NRML_STATUS = ""OPEN status"""
OPEN status trades for Y7117N172 as cusip,"CUSIP_CODE = ""Y7117N172 as cusip""AND NRML_STATUS = ""OPEN status"""
Y7117N172 as cusip trades with OPEN status,"CUSIP_CODE = ""Y7117N172 as cusip""AND NRML_STATUS = ""OPEN status"""
trades for Y7117N172 as cusip with UNINSTRUCTED status,"CUSIP_CODE = ""Y7117N172 as cusip""AND NRML_STATUS = ""UNINSTRUCTED status"""
UNINSTRUCTED status trades for Y7117N172 as cusip,"CUSIP_CODE = ""Y7117N172 as cusip""AND NRML_STATUS = ""UNINSTRUCTED status"""
Y7117N172 as cusip trades with UNINSTRUCTED status,"CUSIP_CODE = ""Y7117N172 as cusip""AND NRML_STATUS = ""UNINSTRUCTED status"""
trades for Y7117N172 as cusip with INSTRUCTED status,"CUSIP_CODE = ""Y7117N172 as cusip""AND NRML_STATUS = ""INSTRUCTED status"""
INSTRUCTED status trades for Y7117N172 as cusip,"CUSIP_CODE = ""Y7117N172 as cusip""AND NRML_STATUS = ""INSTRUCTED status"""
Y7117N172 as cusip trades with INSTRUCTED status,"CUSIP_CODE = ""Y7117N172 as cusip""AND NRML_STATUS = ""INSTRUCTED status"""
trades for Y26926116 as cusip with PENDING status,"CUSIP_CODE = ""Y26926116 as cusip""AND NRML_STATUS = ""PENDING status"""
PENDING status trades for Y26926116 as cusip,"CUSIP_CODE = ""Y26926116 as cusip""AND NRML_STATUS = ""PENDING status"""
Y26926116 as cusip trades with PENDING status,"CUSIP_CODE = ""Y26926116 as cusip""AND NRML_STATUS = ""PENDING status"""
trades for Y26926116 as cusip with SETTLED status,"CUSIP_CODE = ""Y26926116 as cusip""AND NRML_STATUS = ""SETTLED status"""
SETTLED status trades for Y26926116 as cusip,"CUSIP_CODE = ""Y26926116 as cusip""AND NRML_STATUS = ""SETTLED status"""
Y26926116 as cusip trades with SETTLED status,"CUSIP_CODE = ""Y26926116 as cusip""AND NRML_STATUS = ""SETTLED status"""
trades for Y26926116 as cusip with MATCHED status,"CUSIP_CODE = ""Y26926116 as cusip""AND NRML_STATUS = ""MATCHED status"""
MATCHED status trades for Y26926116 as cusip,"CUSIP_CODE = ""Y26926116 as cusip""AND NRML_STATUS = ""MATCHED status"""
Y26926116 as cusip trades with MATCHED status,"CUSIP_CODE = ""Y26926116 as cusip""AND NRML_STATUS = ""MATCHED status"""
trades for Y26926116 as cusip with CANCELLED status,"CUSIP_CODE = ""Y26926116 as cusip""AND NRML_STATUS = ""CANCELLED status"""
CANCELLED status trades for Y26926116 as cusip,"CUSIP_CODE = ""Y26926116 as cusip""AND NRML_STATUS = ""CANCELLED status"""
Y26926116 as cusip trades with CANCELLED status,"CUSIP_CODE = ""Y26926116 as cusip""AND NRML_STATUS = ""CANCELLED status"""
trades for Y26926116 as cusip with UNMATCHED status,"CUSIP_CODE = ""Y26926116 as cusip""AND NRML_STATUS = ""UNMATCHED status"""
UNMATCHED status trades for Y26926116 as cusip,"CUSIP_CODE = ""Y26926116 as cusip""AND NRML_STATUS = ""UNMATCHED status"""
Y26926116 as cusip trades with UNMATCHED status,"CUSIP_CODE = ""Y26926116 as cusip""AND NRML_STATUS = ""UNMATCHED status"""
trades for Y26926116 as cusip with OPEN status,"CUSIP_CODE = ""Y26926116 as cusip""AND NRML_STATUS = ""OPEN status"""
OPEN status trades for Y26926116 as cusip,"CUSIP_CODE = ""Y26926116 as cusip""AND NRML_STATUS = ""OPEN status"""
Y26926116 as cusip trades with OPEN status,"CUSIP_CODE = ""Y26926116 as cusip""AND NRML_STATUS = ""OPEN status"""
trades for Y26926116 as cusip with UNINSTRUCTED status,"CUSIP_CODE = ""Y26926116 as cusip""AND NRML_STATUS = ""UNINSTRUCTED status"""
UNINSTRUCTED status trades for Y26926116 as cusip,"CUSIP_CODE = ""Y26926116 as cusip""AND NRML_STATUS = ""UNINSTRUCTED status"""
Y26926116 as cusip trades with UNINSTRUCTED status,"CUSIP_CODE = ""Y26926116 as cusip""AND NRML_STATUS = ""UNINSTRUCTED status"""
trades for Y26926116 as cusip with INSTRUCTED status,"CUSIP_CODE = ""Y26926116 as cusip""AND NRML_STATUS = ""INSTRUCTED status"""
INSTRUCTED status trades for Y26926116 as cusip,"CUSIP_CODE = ""Y26926116 as cusip""AND NRML_STATUS = ""INSTRUCTED status"""
Y26926116 as cusip trades with INSTRUCTED status,"CUSIP_CODE = ""Y26926116 as cusip""AND NRML_STATUS = ""INSTRUCTED status"""
