Sentence,Query
trades for fail status with qty greater than 40k,"FAIL_IND = ""fail status""AND QTY_REMN = ""qty greater than 40k"""
qty greater than 40k trades for fail status,"FAIL_IND = ""fail status""AND QTY_REMN = ""qty greater than 40k"""
fail status trades with qty greater than 40k,"FAIL_IND = ""fail status""AND QTY_REMN = ""qty greater than 40k"""
trades for fail status with quantity greater than 4000000,"FAIL_IND = ""fail status""AND QTY_REMN = ""quantity greater than 4000000"""
quantity greater than 4000000 trades for fail status,"FAIL_IND = ""fail status""AND QTY_REMN = ""quantity greater than 4000000"""
fail status trades with quantity greater than 4000000,"FAIL_IND = ""fail status""AND QTY_REMN = ""quantity greater than 4000000"""
trades for fail status with qty =  40k,"FAIL_IND = ""fail status""AND QTY_REMN = ""qty =  40k"""
qty =  40k trades for fail status,"FAIL_IND = ""fail status""AND QTY_REMN = ""qty =  40k"""
fail status trades with qty =  40k,"FAIL_IND = ""fail status""AND QTY_REMN = ""qty =  40k"""
trades for fail status with quantity equal to 90k,"FAIL_IND = ""fail status""AND QTY_REMN = ""quantity equal to 90k"""
quantity equal to 90k trades for fail status,"FAIL_IND = ""fail status""AND QTY_REMN = ""quantity equal to 90k"""
fail status trades with quantity equal to 90k,"FAIL_IND = ""fail status""AND QTY_REMN = ""quantity equal to 90k"""
trades for fail status with qty equal to 40k,"FAIL_IND = ""fail status""AND QTY_REMN = ""qty equal to 40k"""
qty equal to 40k trades for fail status,"FAIL_IND = ""fail status""AND QTY_REMN = ""qty equal to 40k"""
fail status trades with qty equal to 40k,"FAIL_IND = ""fail status""AND QTY_REMN = ""qty equal to 40k"""
trades for fail status with qty greater than 10k,"FAIL_IND = ""fail status""AND QTY_REMN = ""qty greater than 10k"""
qty greater than 10k trades for fail status,"FAIL_IND = ""fail status""AND QTY_REMN = ""qty greater than 10k"""
fail status trades with qty greater than 10k,"FAIL_IND = ""fail status""AND QTY_REMN = ""qty greater than 10k"""
trades for fail status with quatity more than 1000,"FAIL_IND = ""fail status""AND QTY_REMN = ""quatity more than 1000"""
quatity more than 1000 trades for fail status,"FAIL_IND = ""fail status""AND QTY_REMN = ""quatity more than 1000"""
fail status trades with quatity more than 1000,"FAIL_IND = ""fail status""AND QTY_REMN = ""quatity more than 1000"""
trades for fail status with QTY_REMN > 50000,"FAIL_IND = ""fail status""AND QTY_REMN = ""QTY_REMN > 50000"""
QTY_REMN > 50000 trades for fail status,"FAIL_IND = ""fail status""AND QTY_REMN = ""QTY_REMN > 50000"""
fail status trades with QTY_REMN > 50000,"FAIL_IND = ""fail status""AND QTY_REMN = ""QTY_REMN > 50000"""
trades for fail status with more than 1000 qty,"FAIL_IND = ""fail status""AND QTY_REMN = ""more than 1000 qty"""
more than 1000 qty trades for fail status,"FAIL_IND = ""fail status""AND QTY_REMN = ""more than 1000 qty"""
fail status trades with more than 1000 qty,"FAIL_IND = ""fail status""AND QTY_REMN = ""more than 1000 qty"""
trades for fail status with 1000 quantity,"FAIL_IND = ""fail status""AND QTY_REMN = ""1000 quantity"""
1000 quantity trades for fail status,"FAIL_IND = ""fail status""AND QTY_REMN = ""1000 quantity"""
fail status trades with 1000 quantity,"FAIL_IND = ""fail status""AND QTY_REMN = ""1000 quantity"""
trades for fail status with qty = 500,"FAIL_IND = ""fail status""AND QTY_REMN = ""qty = 500"""
qty = 500 trades for fail status,"FAIL_IND = ""fail status""AND QTY_REMN = ""qty = 500"""
fail status trades with qty = 500,"FAIL_IND = ""fail status""AND QTY_REMN = ""qty = 500"""
trades for fail status with qty greater than 48k,"FAIL_IND = ""fail status""AND QTY_REMN = ""qty greater than 48k"""
qty greater than 48k trades for fail status,"FAIL_IND = ""fail status""AND QTY_REMN = ""qty greater than 48k"""
fail status trades with qty greater than 48k,"FAIL_IND = ""fail status""AND QTY_REMN = ""qty greater than 48k"""
trades for fail status with quantity lesser than 16000,"FAIL_IND = ""fail status""AND QTY_REMN = ""quantity lesser than 16000"""
quantity lesser than 16000 trades for fail status,"FAIL_IND = ""fail status""AND QTY_REMN = ""quantity lesser than 16000"""
fail status trades with quantity lesser than 16000,"FAIL_IND = ""fail status""AND QTY_REMN = ""quantity lesser than 16000"""
trades for fail status with lesser than 10000 quantity,"FAIL_IND = ""fail status""AND QTY_REMN = ""lesser than 10000 quantity"""
lesser than 10000 quantity trades for fail status,"FAIL_IND = ""fail status""AND QTY_REMN = ""lesser than 10000 quantity"""
fail status trades with lesser than 10000 quantity,"FAIL_IND = ""fail status""AND QTY_REMN = ""lesser than 10000 quantity"""
trades for fail status with more than 1000 quantity,"FAIL_IND = ""fail status""AND QTY_REMN = ""more than 1000 quantity"""
more than 1000 quantity trades for fail status,"FAIL_IND = ""fail status""AND QTY_REMN = ""more than 1000 quantity"""
fail status trades with more than 1000 quantity,"FAIL_IND = ""fail status""AND QTY_REMN = ""more than 1000 quantity"""
trades for fail status with more than 7898 quantiti,"FAIL_IND = ""fail status""AND QTY_REMN = ""more than 7898 quantiti"""
more than 7898 quantiti trades for fail status,"FAIL_IND = ""fail status""AND QTY_REMN = ""more than 7898 quantiti"""
fail status trades with more than 7898 quantiti,"FAIL_IND = ""fail status""AND QTY_REMN = ""more than 7898 quantiti"""
trades for fail status with quatity less than 1000,"FAIL_IND = ""fail status""AND QTY_REMN = ""quatity less than 1000"""
quatity less than 1000 trades for fail status,"FAIL_IND = ""fail status""AND QTY_REMN = ""quatity less than 1000"""
fail status trades with quatity less than 1000,"FAIL_IND = ""fail status""AND QTY_REMN = ""quatity less than 1000"""
trades for fail status with qty =  40k,"FAIL_IND = ""fail status""AND QTY_REMN = ""qty =  40k"""
qty =  40k trades for fail status,"FAIL_IND = ""fail status""AND QTY_REMN = ""qty =  40k"""
fail status trades with qty =  40k,"FAIL_IND = ""fail status""AND QTY_REMN = ""qty =  40k"""
trades for fail status with quantity equal to 90k,"FAIL_IND = ""fail status""AND QTY_REMN = ""quantity equal to 90k"""
quantity equal to 90k trades for fail status,"FAIL_IND = ""fail status""AND QTY_REMN = ""quantity equal to 90k"""
fail status trades with quantity equal to 90k,"FAIL_IND = ""fail status""AND QTY_REMN = ""quantity equal to 90k"""
trades for fail status with qty equal to 40k,"FAIL_IND = ""fail status""AND QTY_REMN = ""qty equal to 40k"""
qty equal to 40k trades for fail status,"FAIL_IND = ""fail status""AND QTY_REMN = ""qty equal to 40k"""
fail status trades with qty equal to 40k,"FAIL_IND = ""fail status""AND QTY_REMN = ""qty equal to 40k"""
trades for fail status with qty greater than 10k,"FAIL_IND = ""fail status""AND QTY_REMN = ""qty greater than 10k"""
qty greater than 10k trades for fail status,"FAIL_IND = ""fail status""AND QTY_REMN = ""qty greater than 10k"""
fail status trades with qty greater than 10k,"FAIL_IND = ""fail status""AND QTY_REMN = ""qty greater than 10k"""
trades for fail status with quatity more than 1000,"FAIL_IND = ""fail status""AND QTY_REMN = ""quatity more than 1000"""
quatity more than 1000 trades for fail status,"FAIL_IND = ""fail status""AND QTY_REMN = ""quatity more than 1000"""
fail status trades with quatity more than 1000,"FAIL_IND = ""fail status""AND QTY_REMN = ""quatity more than 1000"""
trades for fail status with QTY_REMN > 50000,"FAIL_IND = ""fail status""AND QTY_REMN = ""QTY_REMN > 50000"""
QTY_REMN > 50000 trades for fail status,"FAIL_IND = ""fail status""AND QTY_REMN = ""QTY_REMN > 50000"""
fail status trades with QTY_REMN > 50000,"FAIL_IND = ""fail status""AND QTY_REMN = ""QTY_REMN > 50000"""
trades for fail status with more than 1000 qty,"FAIL_IND = ""fail status""AND QTY_REMN = ""more than 1000 qty"""
more than 1000 qty trades for fail status,"FAIL_IND = ""fail status""AND QTY_REMN = ""more than 1000 qty"""
fail status trades with more than 1000 qty,"FAIL_IND = ""fail status""AND QTY_REMN = ""more than 1000 qty"""
trades for fail status with 1000 quantity,"FAIL_IND = ""fail status""AND QTY_REMN = ""1000 quantity"""
1000 quantity trades for fail status,"FAIL_IND = ""fail status""AND QTY_REMN = ""1000 quantity"""
fail status trades with 1000 quantity,"FAIL_IND = ""fail status""AND QTY_REMN = ""1000 quantity"""
trades for failed status with qty greater than 40k,"FAIL_IND = ""failed status""AND QTY_REMN = ""qty greater than 40k"""
qty greater than 40k trades for failed status,"FAIL_IND = ""failed status""AND QTY_REMN = ""qty greater than 40k"""
failed status trades with qty greater than 40k,"FAIL_IND = ""failed status""AND QTY_REMN = ""qty greater than 40k"""
trades for failed status with quantity greater than 4000000,"FAIL_IND = ""failed status""AND QTY_REMN = ""quantity greater than 4000000"""
quantity greater than 4000000 trades for failed status,"FAIL_IND = ""failed status""AND QTY_REMN = ""quantity greater than 4000000"""
failed status trades with quantity greater than 4000000,"FAIL_IND = ""failed status""AND QTY_REMN = ""quantity greater than 4000000"""
trades for failed status with qty =  40k,"FAIL_IND = ""failed status""AND QTY_REMN = ""qty =  40k"""
qty =  40k trades for failed status,"FAIL_IND = ""failed status""AND QTY_REMN = ""qty =  40k"""
failed status trades with qty =  40k,"FAIL_IND = ""failed status""AND QTY_REMN = ""qty =  40k"""
trades for failed status with quantity equal to 90k,"FAIL_IND = ""failed status""AND QTY_REMN = ""quantity equal to 90k"""
quantity equal to 90k trades for failed status,"FAIL_IND = ""failed status""AND QTY_REMN = ""quantity equal to 90k"""
failed status trades with quantity equal to 90k,"FAIL_IND = ""failed status""AND QTY_REMN = ""quantity equal to 90k"""
trades for failed status with qty equal to 40k,"FAIL_IND = ""failed status""AND QTY_REMN = ""qty equal to 40k"""
qty equal to 40k trades for failed status,"FAIL_IND = ""failed status""AND QTY_REMN = ""qty equal to 40k"""
failed status trades with qty equal to 40k,"FAIL_IND = ""failed status""AND QTY_REMN = ""qty equal to 40k"""
trades for failed status with qty greater than 10k,"FAIL_IND = ""failed status""AND QTY_REMN = ""qty greater than 10k"""
qty greater than 10k trades for failed status,"FAIL_IND = ""failed status""AND QTY_REMN = ""qty greater than 10k"""
failed status trades with qty greater than 10k,"FAIL_IND = ""failed status""AND QTY_REMN = ""qty greater than 10k"""
trades for failed status with quatity more than 1000,"FAIL_IND = ""failed status""AND QTY_REMN = ""quatity more than 1000"""
quatity more than 1000 trades for failed status,"FAIL_IND = ""failed status""AND QTY_REMN = ""quatity more than 1000"""
failed status trades with quatity more than 1000,"FAIL_IND = ""failed status""AND QTY_REMN = ""quatity more than 1000"""
trades for failed status with QTY_REMN > 50000,"FAIL_IND = ""failed status""AND QTY_REMN = ""QTY_REMN > 50000"""
QTY_REMN > 50000 trades for failed status,"FAIL_IND = ""failed status""AND QTY_REMN = ""QTY_REMN > 50000"""
failed status trades with QTY_REMN > 50000,"FAIL_IND = ""failed status""AND QTY_REMN = ""QTY_REMN > 50000"""
trades for failed status with more than 1000 qty,"FAIL_IND = ""failed status""AND QTY_REMN = ""more than 1000 qty"""
more than 1000 qty trades for failed status,"FAIL_IND = ""failed status""AND QTY_REMN = ""more than 1000 qty"""
failed status trades with more than 1000 qty,"FAIL_IND = ""failed status""AND QTY_REMN = ""more than 1000 qty"""
trades for failed status with 1000 quantity,"FAIL_IND = ""failed status""AND QTY_REMN = ""1000 quantity"""
1000 quantity trades for failed status,"FAIL_IND = ""failed status""AND QTY_REMN = ""1000 quantity"""
failed status trades with 1000 quantity,"FAIL_IND = ""failed status""AND QTY_REMN = ""1000 quantity"""
trades for failed status with qty = 500,"FAIL_IND = ""failed status""AND QTY_REMN = ""qty = 500"""
qty = 500 trades for failed status,"FAIL_IND = ""failed status""AND QTY_REMN = ""qty = 500"""
failed status trades with qty = 500,"FAIL_IND = ""failed status""AND QTY_REMN = ""qty = 500"""
trades for failed status with qty greater than 48k,"FAIL_IND = ""failed status""AND QTY_REMN = ""qty greater than 48k"""
qty greater than 48k trades for failed status,"FAIL_IND = ""failed status""AND QTY_REMN = ""qty greater than 48k"""
failed status trades with qty greater than 48k,"FAIL_IND = ""failed status""AND QTY_REMN = ""qty greater than 48k"""
trades for failed status with quantity lesser than 16000,"FAIL_IND = ""failed status""AND QTY_REMN = ""quantity lesser than 16000"""
quantity lesser than 16000 trades for failed status,"FAIL_IND = ""failed status""AND QTY_REMN = ""quantity lesser than 16000"""
failed status trades with quantity lesser than 16000,"FAIL_IND = ""failed status""AND QTY_REMN = ""quantity lesser than 16000"""
trades for failed status with lesser than 10000 quantity,"FAIL_IND = ""failed status""AND QTY_REMN = ""lesser than 10000 quantity"""
lesser than 10000 quantity trades for failed status,"FAIL_IND = ""failed status""AND QTY_REMN = ""lesser than 10000 quantity"""
failed status trades with lesser than 10000 quantity,"FAIL_IND = ""failed status""AND QTY_REMN = ""lesser than 10000 quantity"""
trades for failed status with more than 1000 quantity,"FAIL_IND = ""failed status""AND QTY_REMN = ""more than 1000 quantity"""
more than 1000 quantity trades for failed status,"FAIL_IND = ""failed status""AND QTY_REMN = ""more than 1000 quantity"""
failed status trades with more than 1000 quantity,"FAIL_IND = ""failed status""AND QTY_REMN = ""more than 1000 quantity"""
trades for failed status with more than 7898 quantiti,"FAIL_IND = ""failed status""AND QTY_REMN = ""more than 7898 quantiti"""
more than 7898 quantiti trades for failed status,"FAIL_IND = ""failed status""AND QTY_REMN = ""more than 7898 quantiti"""
failed status trades with more than 7898 quantiti,"FAIL_IND = ""failed status""AND QTY_REMN = ""more than 7898 quantiti"""
trades for failed status with quatity less than 1000,"FAIL_IND = ""failed status""AND QTY_REMN = ""quatity less than 1000"""
quatity less than 1000 trades for failed status,"FAIL_IND = ""failed status""AND QTY_REMN = ""quatity less than 1000"""
failed status trades with quatity less than 1000,"FAIL_IND = ""failed status""AND QTY_REMN = ""quatity less than 1000"""
trades for failed status with qty =  40k,"FAIL_IND = ""failed status""AND QTY_REMN = ""qty =  40k"""
qty =  40k trades for failed status,"FAIL_IND = ""failed status""AND QTY_REMN = ""qty =  40k"""
failed status trades with qty =  40k,"FAIL_IND = ""failed status""AND QTY_REMN = ""qty =  40k"""
trades for failed status with quantity equal to 90k,"FAIL_IND = ""failed status""AND QTY_REMN = ""quantity equal to 90k"""
quantity equal to 90k trades for failed status,"FAIL_IND = ""failed status""AND QTY_REMN = ""quantity equal to 90k"""
failed status trades with quantity equal to 90k,"FAIL_IND = ""failed status""AND QTY_REMN = ""quantity equal to 90k"""
trades for failed status with qty equal to 40k,"FAIL_IND = ""failed status""AND QTY_REMN = ""qty equal to 40k"""
qty equal to 40k trades for failed status,"FAIL_IND = ""failed status""AND QTY_REMN = ""qty equal to 40k"""
failed status trades with qty equal to 40k,"FAIL_IND = ""failed status""AND QTY_REMN = ""qty equal to 40k"""
trades for failed status with qty greater than 10k,"FAIL_IND = ""failed status""AND QTY_REMN = ""qty greater than 10k"""
qty greater than 10k trades for failed status,"FAIL_IND = ""failed status""AND QTY_REMN = ""qty greater than 10k"""
failed status trades with qty greater than 10k,"FAIL_IND = ""failed status""AND QTY_REMN = ""qty greater than 10k"""
trades for failed status with quatity more than 1000,"FAIL_IND = ""failed status""AND QTY_REMN = ""quatity more than 1000"""
quatity more than 1000 trades for failed status,"FAIL_IND = ""failed status""AND QTY_REMN = ""quatity more than 1000"""
failed status trades with quatity more than 1000,"FAIL_IND = ""failed status""AND QTY_REMN = ""quatity more than 1000"""
trades for failed status with QTY_REMN > 50000,"FAIL_IND = ""failed status""AND QTY_REMN = ""QTY_REMN > 50000"""
QTY_REMN > 50000 trades for failed status,"FAIL_IND = ""failed status""AND QTY_REMN = ""QTY_REMN > 50000"""
failed status trades with QTY_REMN > 50000,"FAIL_IND = ""failed status""AND QTY_REMN = ""QTY_REMN > 50000"""
trades for failed status with more than 1000 qty,"FAIL_IND = ""failed status""AND QTY_REMN = ""more than 1000 qty"""
more than 1000 qty trades for failed status,"FAIL_IND = ""failed status""AND QTY_REMN = ""more than 1000 qty"""
failed status trades with more than 1000 qty,"FAIL_IND = ""failed status""AND QTY_REMN = ""more than 1000 qty"""
trades for failed status with 1000 quantity,"FAIL_IND = ""failed status""AND QTY_REMN = ""1000 quantity"""
1000 quantity trades for failed status,"FAIL_IND = ""failed status""AND QTY_REMN = ""1000 quantity"""
failed status trades with 1000 quantity,"FAIL_IND = ""failed status""AND QTY_REMN = ""1000 quantity"""
trades for failing status with qty greater than 40k,"FAIL_IND = ""failing status""AND QTY_REMN = ""qty greater than 40k"""
qty greater than 40k trades for failing status,"FAIL_IND = ""failing status""AND QTY_REMN = ""qty greater than 40k"""
failing status trades with qty greater than 40k,"FAIL_IND = ""failing status""AND QTY_REMN = ""qty greater than 40k"""
trades for failing status with quantity greater than 4000000,"FAIL_IND = ""failing status""AND QTY_REMN = ""quantity greater than 4000000"""
quantity greater than 4000000 trades for failing status,"FAIL_IND = ""failing status""AND QTY_REMN = ""quantity greater than 4000000"""
failing status trades with quantity greater than 4000000,"FAIL_IND = ""failing status""AND QTY_REMN = ""quantity greater than 4000000"""
trades for failing status with qty =  40k,"FAIL_IND = ""failing status""AND QTY_REMN = ""qty =  40k"""
qty =  40k trades for failing status,"FAIL_IND = ""failing status""AND QTY_REMN = ""qty =  40k"""
failing status trades with qty =  40k,"FAIL_IND = ""failing status""AND QTY_REMN = ""qty =  40k"""
trades for failing status with quantity equal to 90k,"FAIL_IND = ""failing status""AND QTY_REMN = ""quantity equal to 90k"""
quantity equal to 90k trades for failing status,"FAIL_IND = ""failing status""AND QTY_REMN = ""quantity equal to 90k"""
failing status trades with quantity equal to 90k,"FAIL_IND = ""failing status""AND QTY_REMN = ""quantity equal to 90k"""
trades for failing status with qty equal to 40k,"FAIL_IND = ""failing status""AND QTY_REMN = ""qty equal to 40k"""
qty equal to 40k trades for failing status,"FAIL_IND = ""failing status""AND QTY_REMN = ""qty equal to 40k"""
failing status trades with qty equal to 40k,"FAIL_IND = ""failing status""AND QTY_REMN = ""qty equal to 40k"""
trades for failing status with qty greater than 10k,"FAIL_IND = ""failing status""AND QTY_REMN = ""qty greater than 10k"""
qty greater than 10k trades for failing status,"FAIL_IND = ""failing status""AND QTY_REMN = ""qty greater than 10k"""
failing status trades with qty greater than 10k,"FAIL_IND = ""failing status""AND QTY_REMN = ""qty greater than 10k"""
trades for failing status with quatity more than 1000,"FAIL_IND = ""failing status""AND QTY_REMN = ""quatity more than 1000"""
quatity more than 1000 trades for failing status,"FAIL_IND = ""failing status""AND QTY_REMN = ""quatity more than 1000"""
failing status trades with quatity more than 1000,"FAIL_IND = ""failing status""AND QTY_REMN = ""quatity more than 1000"""
trades for failing status with QTY_REMN > 50000,"FAIL_IND = ""failing status""AND QTY_REMN = ""QTY_REMN > 50000"""
QTY_REMN > 50000 trades for failing status,"FAIL_IND = ""failing status""AND QTY_REMN = ""QTY_REMN > 50000"""
failing status trades with QTY_REMN > 50000,"FAIL_IND = ""failing status""AND QTY_REMN = ""QTY_REMN > 50000"""
trades for failing status with more than 1000 qty,"FAIL_IND = ""failing status""AND QTY_REMN = ""more than 1000 qty"""
more than 1000 qty trades for failing status,"FAIL_IND = ""failing status""AND QTY_REMN = ""more than 1000 qty"""
failing status trades with more than 1000 qty,"FAIL_IND = ""failing status""AND QTY_REMN = ""more than 1000 qty"""
trades for failing status with 1000 quantity,"FAIL_IND = ""failing status""AND QTY_REMN = ""1000 quantity"""
1000 quantity trades for failing status,"FAIL_IND = ""failing status""AND QTY_REMN = ""1000 quantity"""
failing status trades with 1000 quantity,"FAIL_IND = ""failing status""AND QTY_REMN = ""1000 quantity"""
trades for failing status with qty = 500,"FAIL_IND = ""failing status""AND QTY_REMN = ""qty = 500"""
qty = 500 trades for failing status,"FAIL_IND = ""failing status""AND QTY_REMN = ""qty = 500"""
failing status trades with qty = 500,"FAIL_IND = ""failing status""AND QTY_REMN = ""qty = 500"""
trades for failing status with qty greater than 48k,"FAIL_IND = ""failing status""AND QTY_REMN = ""qty greater than 48k"""
qty greater than 48k trades for failing status,"FAIL_IND = ""failing status""AND QTY_REMN = ""qty greater than 48k"""
failing status trades with qty greater than 48k,"FAIL_IND = ""failing status""AND QTY_REMN = ""qty greater than 48k"""
trades for failing status with quantity lesser than 16000,"FAIL_IND = ""failing status""AND QTY_REMN = ""quantity lesser than 16000"""
quantity lesser than 16000 trades for failing status,"FAIL_IND = ""failing status""AND QTY_REMN = ""quantity lesser than 16000"""
failing status trades with quantity lesser than 16000,"FAIL_IND = ""failing status""AND QTY_REMN = ""quantity lesser than 16000"""
trades for failing status with lesser than 10000 quantity,"FAIL_IND = ""failing status""AND QTY_REMN = ""lesser than 10000 quantity"""
lesser than 10000 quantity trades for failing status,"FAIL_IND = ""failing status""AND QTY_REMN = ""lesser than 10000 quantity"""
failing status trades with lesser than 10000 quantity,"FAIL_IND = ""failing status""AND QTY_REMN = ""lesser than 10000 quantity"""
trades for failing status with more than 1000 quantity,"FAIL_IND = ""failing status""AND QTY_REMN = ""more than 1000 quantity"""
more than 1000 quantity trades for failing status,"FAIL_IND = ""failing status""AND QTY_REMN = ""more than 1000 quantity"""
failing status trades with more than 1000 quantity,"FAIL_IND = ""failing status""AND QTY_REMN = ""more than 1000 quantity"""
trades for failing status with more than 7898 quantiti,"FAIL_IND = ""failing status""AND QTY_REMN = ""more than 7898 quantiti"""
more than 7898 quantiti trades for failing status,"FAIL_IND = ""failing status""AND QTY_REMN = ""more than 7898 quantiti"""
failing status trades with more than 7898 quantiti,"FAIL_IND = ""failing status""AND QTY_REMN = ""more than 7898 quantiti"""
trades for failing status with quatity less than 1000,"FAIL_IND = ""failing status""AND QTY_REMN = ""quatity less than 1000"""
quatity less than 1000 trades for failing status,"FAIL_IND = ""failing status""AND QTY_REMN = ""quatity less than 1000"""
failing status trades with quatity less than 1000,"FAIL_IND = ""failing status""AND QTY_REMN = ""quatity less than 1000"""
trades for failing status with qty =  40k,"FAIL_IND = ""failing status""AND QTY_REMN = ""qty =  40k"""
qty =  40k trades for failing status,"FAIL_IND = ""failing status""AND QTY_REMN = ""qty =  40k"""
failing status trades with qty =  40k,"FAIL_IND = ""failing status""AND QTY_REMN = ""qty =  40k"""
trades for failing status with quantity equal to 90k,"FAIL_IND = ""failing status""AND QTY_REMN = ""quantity equal to 90k"""
quantity equal to 90k trades for failing status,"FAIL_IND = ""failing status""AND QTY_REMN = ""quantity equal to 90k"""
failing status trades with quantity equal to 90k,"FAIL_IND = ""failing status""AND QTY_REMN = ""quantity equal to 90k"""
trades for failing status with qty equal to 40k,"FAIL_IND = ""failing status""AND QTY_REMN = ""qty equal to 40k"""
qty equal to 40k trades for failing status,"FAIL_IND = ""failing status""AND QTY_REMN = ""qty equal to 40k"""
failing status trades with qty equal to 40k,"FAIL_IND = ""failing status""AND QTY_REMN = ""qty equal to 40k"""
trades for failing status with qty greater than 10k,"FAIL_IND = ""failing status""AND QTY_REMN = ""qty greater than 10k"""
qty greater than 10k trades for failing status,"FAIL_IND = ""failing status""AND QTY_REMN = ""qty greater than 10k"""
failing status trades with qty greater than 10k,"FAIL_IND = ""failing status""AND QTY_REMN = ""qty greater than 10k"""
trades for failing status with quatity more than 1000,"FAIL_IND = ""failing status""AND QTY_REMN = ""quatity more than 1000"""
quatity more than 1000 trades for failing status,"FAIL_IND = ""failing status""AND QTY_REMN = ""quatity more than 1000"""
failing status trades with quatity more than 1000,"FAIL_IND = ""failing status""AND QTY_REMN = ""quatity more than 1000"""
trades for failing status with QTY_REMN > 50000,"FAIL_IND = ""failing status""AND QTY_REMN = ""QTY_REMN > 50000"""
QTY_REMN > 50000 trades for failing status,"FAIL_IND = ""failing status""AND QTY_REMN = ""QTY_REMN > 50000"""
failing status trades with QTY_REMN > 50000,"FAIL_IND = ""failing status""AND QTY_REMN = ""QTY_REMN > 50000"""
trades for failing status with more than 1000 qty,"FAIL_IND = ""failing status""AND QTY_REMN = ""more than 1000 qty"""
more than 1000 qty trades for failing status,"FAIL_IND = ""failing status""AND QTY_REMN = ""more than 1000 qty"""
failing status trades with more than 1000 qty,"FAIL_IND = ""failing status""AND QTY_REMN = ""more than 1000 qty"""
trades for failing status with 1000 quantity,"FAIL_IND = ""failing status""AND QTY_REMN = ""1000 quantity"""
1000 quantity trades for failing status,"FAIL_IND = ""failing status""AND QTY_REMN = ""1000 quantity"""
failing status trades with 1000 quantity,"FAIL_IND = ""failing status""AND QTY_REMN = ""1000 quantity"""
